%YAML 1.1
%TAG !u! tag:unity3d.com,2011:
--- !u!1 &1684607104418482443
GameObject:
  m_ObjectHideFlags: 0
  m_CorrespondingSourceObject: {fileID: 0}
  m_PrefabInstance: {fileID: 0}
  m_PrefabAsset: {fileID: 0}
  serializedVersion: 6
  m_Component:
  - component: {fileID: 577688385121541680}
  - component: {fileID: 6696458605632720406}
  m_Layer: 0
  m_Name: ButtonCollection
  m_TagString: Untagged
  m_Icon: {fileID: 0}
  m_NavMeshLayer: 0
  m_StaticEditorFlags: 0
  m_IsActive: 1
--- !u!4 &577688385121541680
Transform:
  m_ObjectHideFlags: 0
  m_CorrespondingSourceObject: {fileID: 0}
  m_PrefabInstance: {fileID: 0}
  m_PrefabAsset: {fileID: 0}
  m_GameObject: {fileID: 1684607104418482443}
  m_LocalRotation: {x: -0, y: -0, z: -0, w: 1}
  m_LocalPosition: {x: 0, y: 0, z: 0}
  m_LocalScale: {x: 1, y: 1, z: 1}
  m_Children:
  - {fileID: 5676948298898572832}
  - {fileID: 5676948298749110274}
  - {fileID: 5676948297316412634}
  - {fileID: 6956195942759671626}
  m_Father: {fileID: 5676948298769142206}
  m_RootOrder: 1
  m_LocalEulerAnglesHint: {x: 0, y: 0, z: 0}
--- !u!114 &6696458605632720406
MonoBehaviour:
  m_ObjectHideFlags: 0
  m_CorrespondingSourceObject: {fileID: 0}
  m_PrefabInstance: {fileID: 0}
  m_PrefabAsset: {fileID: 0}
  m_GameObject: {fileID: 1684607104418482443}
  m_Enabled: 1
  m_EditorHideFlags: 0
  m_Script: {fileID: 11500000, guid: cf12ee76e7e00a44a9a84256760020e6, type: 3}
  m_Name: 
  m_EditorClassIdentifier: 
  nodeList: []
  ignoreInactiveTransforms: 1
  sortType: 0
  surfaceType: 1
  orientType: 0
  layout: 1
  anchor: 4
  anchorAlongAxis: 0
  columnAlignment: 0
  rowAlignment: 0
  radius: 2
  radialRange: 180
  distance: 0
  rows: 3
  columns: 3
  cellWidth: 0.032
  cellHeight: 0.032
  assetVersion: 1
--- !u!1 &5676948297681691086
GameObject:
  m_ObjectHideFlags: 0
  m_CorrespondingSourceObject: {fileID: 0}
  m_PrefabInstance: {fileID: 0}
  m_PrefabAsset: {fileID: 0}
  serializedVersion: 6
  m_Component:
  - component: {fileID: 5676948297681691081}
  - component: {fileID: 5676948297681691083}
  - component: {fileID: 5676948297681691080}
  m_Layer: 0
  m_Name: BackPlate
  m_TagString: Untagged
  m_Icon: {fileID: 0}
  m_NavMeshLayer: 0
  m_StaticEditorFlags: 1
  m_IsActive: 1
--- !u!4 &5676948297681691081
Transform:
  m_ObjectHideFlags: 0
  m_CorrespondingSourceObject: {fileID: 0}
  m_PrefabInstance: {fileID: 0}
  m_PrefabAsset: {fileID: 0}
  m_GameObject: {fileID: 5676948297681691086}
  m_LocalRotation: {x: -0, y: -0, z: -0, w: 1}
  m_LocalPosition: {x: 0, y: 0, z: 0.01}
  m_LocalScale: {x: 0.04, y: 0.136, z: 0.02}
  m_Children: []
  m_Father: {fileID: 5676948298769142206}
  m_RootOrder: 0
  m_LocalEulerAnglesHint: {x: 0, y: 0, z: 0}
--- !u!33 &5676948297681691083
MeshFilter:
  m_ObjectHideFlags: 0
  m_CorrespondingSourceObject: {fileID: 0}
  m_PrefabInstance: {fileID: 0}
  m_PrefabAsset: {fileID: 0}
  m_GameObject: {fileID: 5676948297681691086}
  m_Mesh: {fileID: 10210, guid: 0000000000000000e000000000000000, type: 0}
--- !u!23 &5676948297681691080
MeshRenderer:
  m_ObjectHideFlags: 0
  m_CorrespondingSourceObject: {fileID: 0}
  m_PrefabInstance: {fileID: 0}
  m_PrefabAsset: {fileID: 0}
  m_GameObject: {fileID: 5676948297681691086}
  m_Enabled: 1
  m_CastShadows: 1
  m_ReceiveShadows: 1
  m_DynamicOccludee: 1
  m_StaticShadowCaster: 0
  m_MotionVectors: 1
  m_LightProbeUsage: 1
  m_ReflectionProbeUsage: 1
  m_RayTracingMode: 2
  m_RayTraceProcedural: 0
  m_RenderingLayerMask: 1
  m_RendererPriority: 0
  m_Materials:
  - {fileID: 2100000, guid: cf3ea772efd90164eb766f02911d1009, type: 2}
  m_StaticBatchInfo:
    firstSubMesh: 0
    subMeshCount: 0
  m_StaticBatchRoot: {fileID: 0}
  m_ProbeAnchor: {fileID: 0}
  m_LightProbeVolumeOverride: {fileID: 0}
  m_ScaleInLightmap: 1
  m_ReceiveGI: 1
  m_PreserveUVs: 0
  m_IgnoreNormalsForChartDetection: 0
  m_ImportantGI: 0
  m_StitchLightmapSeams: 0
  m_SelectedEditorRenderState: 3
  m_MinimumChartSize: 4
  m_AutoUVMaxDistance: 0.5
  m_AutoUVMaxAngle: 89
  m_LightmapParameters: {fileID: 0}
  m_SortingLayerID: 0
  m_SortingLayer: 0
  m_SortingOrder: 0
  m_AdditionalVertexStreams: {fileID: 0}
--- !u!1 &5676948298659952588
GameObject:
  m_ObjectHideFlags: 0
  m_CorrespondingSourceObject: {fileID: 0}
  m_PrefabInstance: {fileID: 0}
  m_PrefabAsset: {fileID: 0}
  serializedVersion: 6
  m_Component:
  - component: {fileID: 5676948298659952591}
  - component: {fileID: 4650336334853332705}
  - component: {fileID: 4650336334853332706}
  - component: {fileID: 4650336334853332708}
  m_Layer: 0
  m_Name: PalmUpHandMenu_Side_1x4
  m_TagString: Untagged
  m_Icon: {fileID: 0}
  m_NavMeshLayer: 0
  m_StaticEditorFlags: 0
  m_IsActive: 1
--- !u!4 &5676948298659952591
Transform:
  m_ObjectHideFlags: 0
  m_CorrespondingSourceObject: {fileID: 0}
  m_PrefabInstance: {fileID: 0}
  m_PrefabAsset: {fileID: 0}
  m_GameObject: {fileID: 5676948298659952588}
  m_LocalRotation: {x: 0, y: 0, z: 0, w: 1}
  m_LocalPosition: {x: 0, y: 0, z: 0}
  m_LocalScale: {x: 1, y: 1, z: 1}
  m_Children:
  - {fileID: 5676948298769142206}
  m_Father: {fileID: 0}
  m_RootOrder: 0
  m_LocalEulerAnglesHint: {x: 0, y: 0, z: 0}
--- !u!114 &4650336334853332705
MonoBehaviour:
  m_ObjectHideFlags: 0
  m_CorrespondingSourceObject: {fileID: 0}
  m_PrefabInstance: {fileID: 0}
  m_PrefabAsset: {fileID: 0}
  m_GameObject: {fileID: 5676948298659952588}
  m_Enabled: 1
  m_EditorHideFlags: 0
  m_Script: {fileID: 11500000, guid: 956af6ee031a2eb47b9c0ab5dcd50fd7, type: 3}
  m_Name: 
  m_EditorClassIdentifier: 
  updateLinkedTransform: 0
  moveLerpTime: 0.1
  rotateLerpTime: 0.1
  scaleLerpTime: 0
  maintainScaleOnInitialization: 1
  smoothing: 1
  lifetime: 0
  safeZone: 0
  safeZoneBuffer: 0.15
  updateWhenOppositeHandNear: 0
  hideHandCursorsOnActivate: 1
  rotationBehavior: 2
  offsetBehavior: 0
  forwardOffset: 0
  safeZoneAngleOffset: 0
  onHandActivate:
    m_PersistentCalls:
      m_Calls:
      - m_Target: {fileID: 5676948298769142207}
        m_TargetAssemblyTypeName: 
        m_MethodName: SetActive
        m_Mode: 6
        m_Arguments:
          m_ObjectArgument: {fileID: 0}
          m_ObjectArgumentAssemblyTypeName: UnityEngine.Object, UnityEngine
          m_IntArgument: 0
          m_FloatArgument: 0
          m_StringArgument: 
          m_BoolArgument: 1
        m_CallState: 2
  onHandDeactivate:
    m_PersistentCalls:
      m_Calls:
      - m_Target: {fileID: 5676948298769142207}
        m_TargetAssemblyTypeName: 
        m_MethodName: SetActive
        m_Mode: 6
        m_Arguments:
          m_ObjectArgument: {fileID: 0}
          m_ObjectArgumentAssemblyTypeName: UnityEngine.Object, UnityEngine
          m_IntArgument: 0
          m_FloatArgument: 0
          m_StringArgument: 
          m_BoolArgument: 0
        m_CallState: 2
  onFirstHandDetected:
    m_PersistentCalls:
      m_Calls: []
  onLastHandLost:
    m_PersistentCalls:
      m_Calls: []
  facingCameraTrackingThreshold: 75
  requireFlatHand: 0
  flatHandThreshold: 45
  followHandUntilFacingCamera: 0
  followHandCameraFacingThresholdAngle: 60
  useGazeActivation: 0
  eyeGazeProximityThreshold: 0.01
  headGazeProximityThreshold: 0.04
--- !u!114 &4650336334853332706
MonoBehaviour:
  m_ObjectHideFlags: 0
  m_CorrespondingSourceObject: {fileID: 0}
  m_PrefabInstance: {fileID: 0}
  m_PrefabAsset: {fileID: 0}
  m_GameObject: {fileID: 5676948298659952588}
  m_Enabled: 1
  m_EditorHideFlags: 0
  m_Script: {fileID: 11500000, guid: b55691ad5b034fe6966763a6e23818d2, type: 3}
  m_Name: 
  m_EditorClassIdentifier: 
  trackedTargetType: 6
  trackedHandness: 3
  trackedHandJoint: 2
  transformOverride: {fileID: 0}
  additionalOffset: {x: 0, y: 0, z: 0}
  additionalRotation: {x: 0, y: 0, z: 0}
  updateSolvers: 1
--- !u!114 &4650336334853332708
MonoBehaviour:
  m_ObjectHideFlags: 0
  m_CorrespondingSourceObject: {fileID: 0}
  m_PrefabInstance: {fileID: 0}
  m_PrefabAsset: {fileID: 0}
  m_GameObject: {fileID: 5676948298659952588}
  m_Enabled: 1
  m_EditorHideFlags: 0
  m_Script: {fileID: 11500000, guid: 248664dc0e60dca4fb35d70cd0c5695b, type: 3}
  m_Name: 
  m_EditorClassIdentifier: 
  drawBoundsGizmo: 0
  drawLocalBoundsGizmo: 0
--- !u!1 &5676948298769142207
GameObject:
  m_ObjectHideFlags: 0
  m_CorrespondingSourceObject: {fileID: 0}
  m_PrefabInstance: {fileID: 0}
  m_PrefabAsset: {fileID: 0}
  serializedVersion: 6
  m_Component:
  - component: {fileID: 5676948298769142206}
  m_Layer: 0
  m_Name: Visuals
  m_TagString: Untagged
  m_Icon: {fileID: 0}
  m_NavMeshLayer: 0
  m_StaticEditorFlags: 0
  m_IsActive: 1
--- !u!4 &5676948298769142206
Transform:
  m_ObjectHideFlags: 0
  m_CorrespondingSourceObject: {fileID: 0}
  m_PrefabInstance: {fileID: 0}
  m_PrefabAsset: {fileID: 0}
  m_GameObject: {fileID: 5676948298769142207}
  m_LocalRotation: {x: -0, y: -0, z: -0, w: 1}
  m_LocalPosition: {x: 0, y: 0, z: 0}
  m_LocalScale: {x: 1, y: 1, z: 1}
  m_Children:
  - {fileID: 5676948297681691081}
  - {fileID: 577688385121541680}
  m_Father: {fileID: 5676948298659952591}
  m_RootOrder: 0
  m_LocalEulerAnglesHint: {x: 0, y: 0, z: 0}
--- !u!1001 &5676948297367621677
PrefabInstance:
  m_ObjectHideFlags: 0
  serializedVersion: 2
  m_Modification:
    m_TransformParent: {fileID: 577688385121541680}
    m_Modifications:
    - target: {fileID: 316800718, guid: 45fd0ad89d6d17b4fbe68eb48dbe9de9, type: 3}
      propertyPath: m_Name
      value: PressableButton (1)
      objectReference: {fileID: 0}
    - target: {fileID: 937783102, guid: 45fd0ad89d6d17b4fbe68eb48dbe9de9, type: 3}
      propertyPath: m_textInfo.lineCount
      value: 0
      objectReference: {fileID: 0}
    - target: {fileID: 937783102, guid: 45fd0ad89d6d17b4fbe68eb48dbe9de9, type: 3}
      propertyPath: m_textInfo.pageCount
      value: 0
      objectReference: {fileID: 0}
    - target: {fileID: 937783102, guid: 45fd0ad89d6d17b4fbe68eb48dbe9de9, type: 3}
      propertyPath: m_textInfo.wordCount
      value: 0
      objectReference: {fileID: 0}
    - target: {fileID: 937783102, guid: 45fd0ad89d6d17b4fbe68eb48dbe9de9, type: 3}
      propertyPath: m_textInfo.characterCount
      value: 0
      objectReference: {fileID: 0}
    - target: {fileID: 937783104, guid: 45fd0ad89d6d17b4fbe68eb48dbe9de9, type: 3}
      propertyPath: m_Mesh
      value: 
      objectReference: {fileID: 0}
    - target: {fileID: 1944713263, guid: 45fd0ad89d6d17b4fbe68eb48dbe9de9, type: 3}
      propertyPath: m_RootOrder
      value: 1
      objectReference: {fileID: 0}
    - target: {fileID: 1944713263, guid: 45fd0ad89d6d17b4fbe68eb48dbe9de9, type: 3}
      propertyPath: m_LocalPosition.x
      value: 0
      objectReference: {fileID: 0}
    - target: {fileID: 1944713263, guid: 45fd0ad89d6d17b4fbe68eb48dbe9de9, type: 3}
      propertyPath: m_LocalPosition.y
      value: 0.016
      objectReference: {fileID: 0}
    - target: {fileID: 1944713263, guid: 45fd0ad89d6d17b4fbe68eb48dbe9de9, type: 3}
      propertyPath: m_LocalPosition.z
      value: 0
      objectReference: {fileID: 0}
    - target: {fileID: 1944713263, guid: 45fd0ad89d6d17b4fbe68eb48dbe9de9, type: 3}
      propertyPath: m_LocalRotation.w
      value: 1
      objectReference: {fileID: 0}
    - target: {fileID: 1944713263, guid: 45fd0ad89d6d17b4fbe68eb48dbe9de9, type: 3}
      propertyPath: m_LocalRotation.x
      value: -0
      objectReference: {fileID: 0}
    - target: {fileID: 1944713263, guid: 45fd0ad89d6d17b4fbe68eb48dbe9de9, type: 3}
      propertyPath: m_LocalRotation.y
      value: -0
      objectReference: {fileID: 0}
    - target: {fileID: 1944713263, guid: 45fd0ad89d6d17b4fbe68eb48dbe9de9, type: 3}
      propertyPath: m_LocalRotation.z
      value: -0
      objectReference: {fileID: 0}
    - target: {fileID: 1944713263, guid: 45fd0ad89d6d17b4fbe68eb48dbe9de9, type: 3}
      propertyPath: m_LocalEulerAnglesHint.x
      value: 0
      objectReference: {fileID: 0}
    - target: {fileID: 1944713263, guid: 45fd0ad89d6d17b4fbe68eb48dbe9de9, type: 3}
      propertyPath: m_LocalEulerAnglesHint.y
      value: 0
      objectReference: {fileID: 0}
    - target: {fileID: 1944713263, guid: 45fd0ad89d6d17b4fbe68eb48dbe9de9, type: 3}
      propertyPath: m_LocalEulerAnglesHint.z
      value: 0
      objectReference: {fileID: 0}
    - target: {fileID: 329340111926477333, guid: 45fd0ad89d6d17b4fbe68eb48dbe9de9,
        type: 3}
      propertyPath: m_IsActive
      value: 0
      objectReference: {fileID: 0}
    - target: {fileID: 7652376644636595447, guid: 45fd0ad89d6d17b4fbe68eb48dbe9de9,
        type: 3}
      propertyPath: iconQuadTexture
      value: 
      objectReference: {fileID: 2800000, guid: 114589bc5b891c3488cbb8607b6b9171, type: 3}
    m_RemovedComponents: []
  m_SourcePrefab: {fileID: 100100000, guid: 45fd0ad89d6d17b4fbe68eb48dbe9de9, type: 3}
--- !u!4 &5676948298749110274 stripped
Transform:
  m_CorrespondingSourceObject: {fileID: 1944713263, guid: 45fd0ad89d6d17b4fbe68eb48dbe9de9,
    type: 3}
  m_PrefabInstance: {fileID: 5676948297367621677}
  m_PrefabAsset: {fileID: 0}
--- !u!1001 &5676948297620815375
PrefabInstance:
  m_ObjectHideFlags: 0
  serializedVersion: 2
  m_Modification:
    m_TransformParent: {fileID: 577688385121541680}
    m_Modifications:
    - target: {fileID: 316800718, guid: 45fd0ad89d6d17b4fbe68eb48dbe9de9, type: 3}
      propertyPath: m_Name
      value: PressableButton
      objectReference: {fileID: 0}
    - target: {fileID: 937783102, guid: 45fd0ad89d6d17b4fbe68eb48dbe9de9, type: 3}
      propertyPath: m_textInfo.lineCount
      value: 0
      objectReference: {fileID: 0}
    - target: {fileID: 937783102, guid: 45fd0ad89d6d17b4fbe68eb48dbe9de9, type: 3}
      propertyPath: m_textInfo.pageCount
      value: 0
      objectReference: {fileID: 0}
    - target: {fileID: 937783102, guid: 45fd0ad89d6d17b4fbe68eb48dbe9de9, type: 3}
      propertyPath: m_textInfo.wordCount
      value: 0
      objectReference: {fileID: 0}
    - target: {fileID: 937783102, guid: 45fd0ad89d6d17b4fbe68eb48dbe9de9, type: 3}
      propertyPath: m_textInfo.characterCount
      value: 0
      objectReference: {fileID: 0}
    - target: {fileID: 937783104, guid: 45fd0ad89d6d17b4fbe68eb48dbe9de9, type: 3}
      propertyPath: m_Mesh
      value: 
      objectReference: {fileID: 0}
    - target: {fileID: 1944713263, guid: 45fd0ad89d6d17b4fbe68eb48dbe9de9, type: 3}
      propertyPath: m_RootOrder
      value: 0
      objectReference: {fileID: 0}
    - target: {fileID: 1944713263, guid: 45fd0ad89d6d17b4fbe68eb48dbe9de9, type: 3}
      propertyPath: m_LocalPosition.x
      value: 0
      objectReference: {fileID: 0}
    - target: {fileID: 1944713263, guid: 45fd0ad89d6d17b4fbe68eb48dbe9de9, type: 3}
      propertyPath: m_LocalPosition.y
      value: 0.048
      objectReference: {fileID: 0}
    - target: {fileID: 1944713263, guid: 45fd0ad89d6d17b4fbe68eb48dbe9de9, type: 3}
      propertyPath: m_LocalPosition.z
      value: 0
      objectReference: {fileID: 0}
    - target: {fileID: 1944713263, guid: 45fd0ad89d6d17b4fbe68eb48dbe9de9, type: 3}
      propertyPath: m_LocalRotation.w
      value: 1
      objectReference: {fileID: 0}
    - target: {fileID: 1944713263, guid: 45fd0ad89d6d17b4fbe68eb48dbe9de9, type: 3}
      propertyPath: m_LocalRotation.x
      value: -0
      objectReference: {fileID: 0}
    - target: {fileID: 1944713263, guid: 45fd0ad89d6d17b4fbe68eb48dbe9de9, type: 3}
      propertyPath: m_LocalRotation.y
      value: -0
      objectReference: {fileID: 0}
    - target: {fileID: 1944713263, guid: 45fd0ad89d6d17b4fbe68eb48dbe9de9, type: 3}
      propertyPath: m_LocalRotation.z
      value: -0
      objectReference: {fileID: 0}
    - target: {fileID: 1944713263, guid: 45fd0ad89d6d17b4fbe68eb48dbe9de9, type: 3}
      propertyPath: m_LocalEulerAnglesHint.x
      value: 0
      objectReference: {fileID: 0}
    - target: {fileID: 1944713263, guid: 45fd0ad89d6d17b4fbe68eb48dbe9de9, type: 3}
      propertyPath: m_LocalEulerAnglesHint.y
      value: 0
      objectReference: {fileID: 0}
    - target: {fileID: 1944713263, guid: 45fd0ad89d6d17b4fbe68eb48dbe9de9, type: 3}
      propertyPath: m_LocalEulerAnglesHint.z
      value: 0
      objectReference: {fileID: 0}
    - target: {fileID: 329340111926477333, guid: 45fd0ad89d6d17b4fbe68eb48dbe9de9,
        type: 3}
      propertyPath: m_IsActive
      value: 0
      objectReference: {fileID: 0}
    - target: {fileID: 7652376644636595447, guid: 45fd0ad89d6d17b4fbe68eb48dbe9de9,
        type: 3}
      propertyPath: iconQuadTexture
      value: 
      objectReference: {fileID: 2800000, guid: 559e1da0e65611c4f93ec931e1e6a8a2, type: 3}
    m_RemovedComponents: []
  m_SourcePrefab: {fileID: 100100000, guid: 45fd0ad89d6d17b4fbe68eb48dbe9de9, type: 3}
--- !u!4 &5676948298898572832 stripped
Transform:
  m_CorrespondingSourceObject: {fileID: 1944713263, guid: 45fd0ad89d6d17b4fbe68eb48dbe9de9,
    type: 3}
  m_PrefabInstance: {fileID: 5676948297620815375}
  m_PrefabAsset: {fileID: 0}
--- !u!1001 &5676948299201139957
PrefabInstance:
  m_ObjectHideFlags: 0
  serializedVersion: 2
  m_Modification:
    m_TransformParent: {fileID: 577688385121541680}
    m_Modifications:
    - target: {fileID: 316800718, guid: 45fd0ad89d6d17b4fbe68eb48dbe9de9, type: 3}
      propertyPath: m_Name
      value: PressableButton (2)
      objectReference: {fileID: 0}
    - target: {fileID: 937783102, guid: 45fd0ad89d6d17b4fbe68eb48dbe9de9, type: 3}
      propertyPath: m_textInfo.lineCount
      value: 0
      objectReference: {fileID: 0}
    - target: {fileID: 937783102, guid: 45fd0ad89d6d17b4fbe68eb48dbe9de9, type: 3}
      propertyPath: m_textInfo.pageCount
      value: 0
      objectReference: {fileID: 0}
    - target: {fileID: 937783102, guid: 45fd0ad89d6d17b4fbe68eb48dbe9de9, type: 3}
      propertyPath: m_textInfo.wordCount
      value: 0
      objectReference: {fileID: 0}
    - target: {fileID: 937783102, guid: 45fd0ad89d6d17b4fbe68eb48dbe9de9, type: 3}
      propertyPath: m_textInfo.characterCount
      value: 0
      objectReference: {fileID: 0}
    - target: {fileID: 937783104, guid: 45fd0ad89d6d17b4fbe68eb48dbe9de9, type: 3}
      propertyPath: m_Mesh
      value: 
      objectReference: {fileID: 0}
    - target: {fileID: 1944713263, guid: 45fd0ad89d6d17b4fbe68eb48dbe9de9, type: 3}
      propertyPath: m_RootOrder
      value: 2
      objectReference: {fileID: 0}
    - target: {fileID: 1944713263, guid: 45fd0ad89d6d17b4fbe68eb48dbe9de9, type: 3}
      propertyPath: m_LocalPosition.x
      value: 0
      objectReference: {fileID: 0}
    - target: {fileID: 1944713263, guid: 45fd0ad89d6d17b4fbe68eb48dbe9de9, type: 3}
      propertyPath: m_LocalPosition.y
      value: -0.016
      objectReference: {fileID: 0}
    - target: {fileID: 1944713263, guid: 45fd0ad89d6d17b4fbe68eb48dbe9de9, type: 3}
      propertyPath: m_LocalPosition.z
      value: 0
      objectReference: {fileID: 0}
    - target: {fileID: 1944713263, guid: 45fd0ad89d6d17b4fbe68eb48dbe9de9, type: 3}
      propertyPath: m_LocalRotation.w
      value: 1
      objectReference: {fileID: 0}
    - target: {fileID: 1944713263, guid: 45fd0ad89d6d17b4fbe68eb48dbe9de9, type: 3}
      propertyPath: m_LocalRotation.x
      value: -0
      objectReference: {fileID: 0}
    - target: {fileID: 1944713263, guid: 45fd0ad89d6d17b4fbe68eb48dbe9de9, type: 3}
      propertyPath: m_LocalRotation.y
      value: -0
      objectReference: {fileID: 0}
    - target: {fileID: 1944713263, guid: 45fd0ad89d6d17b4fbe68eb48dbe9de9, type: 3}
      propertyPath: m_LocalRotation.z
      value: -0
      objectReference: {fileID: 0}
    - target: {fileID: 1944713263, guid: 45fd0ad89d6d17b4fbe68eb48dbe9de9, type: 3}
      propertyPath: m_LocalEulerAnglesHint.x
      value: 0
      objectReference: {fileID: 0}
    - target: {fileID: 1944713263, guid: 45fd0ad89d6d17b4fbe68eb48dbe9de9, type: 3}
      propertyPath: m_LocalEulerAnglesHint.y
      value: 0
      objectReference: {fileID: 0}
    - target: {fileID: 1944713263, guid: 45fd0ad89d6d17b4fbe68eb48dbe9de9, type: 3}
      propertyPath: m_LocalEulerAnglesHint.z
      value: 0
      objectReference: {fileID: 0}
    - target: {fileID: 329340111926477333, guid: 45fd0ad89d6d17b4fbe68eb48dbe9de9,
        type: 3}
      propertyPath: m_IsActive
      value: 0
      objectReference: {fileID: 0}
    - target: {fileID: 7652376644636595447, guid: 45fd0ad89d6d17b4fbe68eb48dbe9de9,
        type: 3}
      propertyPath: iconQuadTexture
      value: 
      objectReference: {fileID: 2800000, guid: d6a8d6d764af76740ad06383ee810941, type: 3}
    m_RemovedComponents: []
  m_SourcePrefab: {fileID: 100100000, guid: 45fd0ad89d6d17b4fbe68eb48dbe9de9, type: 3}
--- !u!4 &5676948297316412634 stripped
Transform:
  m_CorrespondingSourceObject: {fileID: 1944713263, guid: 45fd0ad89d6d17b4fbe68eb48dbe9de9,
    type: 3}
  m_PrefabInstance: {fileID: 5676948299201139957}
  m_PrefabAsset: {fileID: 0}
--- !u!1001 &6956195943089561445
PrefabInstance:
  m_ObjectHideFlags: 0
  serializedVersion: 2
  m_Modification:
    m_TransformParent: {fileID: 577688385121541680}
    m_Modifications:
    - target: {fileID: 316800718, guid: 45fd0ad89d6d17b4fbe68eb48dbe9de9, type: 3}
      propertyPath: m_Name
      value: PressableButton (3)
      objectReference: {fileID: 0}
    - target: {fileID: 937783102, guid: 45fd0ad89d6d17b4fbe68eb48dbe9de9, type: 3}
      propertyPath: m_textInfo.lineCount
      value: 0
      objectReference: {fileID: 0}
    - target: {fileID: 937783102, guid: 45fd0ad89d6d17b4fbe68eb48dbe9de9, type: 3}
      propertyPath: m_textInfo.pageCount
      value: 0
      objectReference: {fileID: 0}
    - target: {fileID: 937783102, guid: 45fd0ad89d6d17b4fbe68eb48dbe9de9, type: 3}
      propertyPath: m_textInfo.wordCount
      value: 0
      objectReference: {fileID: 0}
    - target: {fileID: 937783102, guid: 45fd0ad89d6d17b4fbe68eb48dbe9de9, type: 3}
      propertyPath: m_textInfo.characterCount
      value: 0
      objectReference: {fileID: 0}
    - target: {fileID: 937783104, guid: 45fd0ad89d6d17b4fbe68eb48dbe9de9, type: 3}
      propertyPath: m_Mesh
      value: 
      objectReference: {fileID: 0}
    - target: {fileID: 1944713263, guid: 45fd0ad89d6d17b4fbe68eb48dbe9de9, type: 3}
      propertyPath: m_RootOrder
      value: 3
      objectReference: {fileID: 0}
    - target: {fileID: 1944713263, guid: 45fd0ad89d6d17b4fbe68eb48dbe9de9, type: 3}
      propertyPath: m_LocalPosition.x
      value: 0
      objectReference: {fileID: 0}
    - target: {fileID: 1944713263, guid: 45fd0ad89d6d17b4fbe68eb48dbe9de9, type: 3}
      propertyPath: m_LocalPosition.y
      value: -0.048
      objectReference: {fileID: 0}
    - target: {fileID: 1944713263, guid: 45fd0ad89d6d17b4fbe68eb48dbe9de9, type: 3}
      propertyPath: m_LocalPosition.z
      value: 0
      objectReference: {fileID: 0}
    - target: {fileID: 1944713263, guid: 45fd0ad89d6d17b4fbe68eb48dbe9de9, type: 3}
      propertyPath: m_LocalRotation.w
      value: 1
      objectReference: {fileID: 0}
    - target: {fileID: 1944713263, guid: 45fd0ad89d6d17b4fbe68eb48dbe9de9, type: 3}
      propertyPath: m_LocalRotation.x
      value: -0
      objectReference: {fileID: 0}
    - target: {fileID: 1944713263, guid: 45fd0ad89d6d17b4fbe68eb48dbe9de9, type: 3}
      propertyPath: m_LocalRotation.y
      value: -0
      objectReference: {fileID: 0}
    - target: {fileID: 1944713263, guid: 45fd0ad89d6d17b4fbe68eb48dbe9de9, type: 3}
      propertyPath: m_LocalRotation.z
      value: -0
      objectReference: {fileID: 0}
    - target: {fileID: 1944713263, guid: 45fd0ad89d6d17b4fbe68eb48dbe9de9, type: 3}
      propertyPath: m_LocalEulerAnglesHint.x
      value: 0
      objectReference: {fileID: 0}
    - target: {fileID: 1944713263, guid: 45fd0ad89d6d17b4fbe68eb48dbe9de9, type: 3}
      propertyPath: m_LocalEulerAnglesHint.y
      value: 0
      objectReference: {fileID: 0}
    - target: {fileID: 1944713263, guid: 45fd0ad89d6d17b4fbe68eb48dbe9de9, type: 3}
      propertyPath: m_LocalEulerAnglesHint.z
      value: 0
      objectReference: {fileID: 0}
    - target: {fileID: 329340111926477333, guid: 45fd0ad89d6d17b4fbe68eb48dbe9de9,
        type: 3}
      propertyPath: m_IsActive
      value: 0
      objectReference: {fileID: 0}
    - target: {fileID: 7652376644636595447, guid: 45fd0ad89d6d17b4fbe68eb48dbe9de9,
        type: 3}
      propertyPath: iconQuadTexture
      value: 
      objectReference: {fileID: 2800000, guid: ac8550a474419054d9621216812fd098, type: 3}
    m_RemovedComponents: []
  m_SourcePrefab: {fileID: 100100000, guid: 45fd0ad89d6d17b4fbe68eb48dbe9de9, type: 3}
--- !u!4 &6956195942759671626 stripped
Transform:
  m_CorrespondingSourceObject: {fileID: 1944713263, guid: 45fd0ad89d6d17b4fbe68eb48dbe9de9,
    type: 3}
  m_PrefabInstance: {fileID: 6956195943089561445}
  m_PrefabAsset: {fileID: 0}
