%YAML 1.1
%TAG !u! tag:unity3d.com,2011:
--- !u!29 &1
OcclusionCullingSettings:
  m_ObjectHideFlags: 0
  serializedVersion: 2
  m_OcclusionBakeSettings:
    smallestOccluder: 5
    smallestHole: 0.25
    backfaceThreshold: 100
  m_SceneGUID: 00000000000000000000000000000000
  m_OcclusionCullingData: {fileID: 0}
--- !u!104 &2
RenderSettings:
  m_ObjectHideFlags: 0
  serializedVersion: 9
  m_Fog: 0
  m_FogColor: {r: 0.5, g: 0.5, b: 0.5, a: 1}
  m_FogMode: 3
  m_FogDensity: 0.01
  m_LinearFogStart: 0
  m_LinearFogEnd: 300
  m_AmbientSkyColor: {r: 0.212, g: 0.227, b: 0.259, a: 1}
  m_AmbientEquatorColor: {r: 0.114, g: 0.125, b: 0.133, a: 1}
  m_AmbientGroundColor: {r: 0.047, g: 0.043, b: 0.035, a: 1}
  m_AmbientIntensity: 1
  m_AmbientMode: 0
  m_SubtractiveShadowColor: {r: 0.42, g: 0.478, b: 0.627, a: 1}
  m_SkyboxMaterial: {fileID: 10304, guid: 0000000000000000f000000000000000, type: 0}
  m_HaloStrength: 0.5
  m_FlareStrength: 1
  m_FlareFadeSpeed: 3
  m_HaloTexture: {fileID: 0}
  m_SpotCookie: {fileID: 10001, guid: 0000000000000000e000000000000000, type: 0}
  m_DefaultReflectionMode: 0
  m_DefaultReflectionResolution: 128
  m_ReflectionBounces: 1
  m_ReflectionIntensity: 1
  m_CustomReflection: {fileID: 0}
  m_Sun: {fileID: 0}
  m_IndirectSpecularColor: {r: 0, g: 0, b: 0, a: 1}
  m_UseRadianceAmbientProbe: 0
--- !u!157 &3
LightmapSettings:
  m_ObjectHideFlags: 0
  serializedVersion: 12
  m_GIWorkflowMode: 1
  m_GISettings:
    serializedVersion: 2
    m_BounceScale: 1
    m_IndirectOutputScale: 1
    m_AlbedoBoost: 1
    m_EnvironmentLightingMode: 0
    m_EnableBakedLightmaps: 1
    m_EnableRealtimeLightmaps: 0
  m_LightmapEditorSettings:
    serializedVersion: 12
    m_Resolution: 2
    m_BakeResolution: 40
    m_AtlasSize: 1024
    m_AO: 0
    m_AOMaxDistance: 1
    m_CompAOExponent: 1
    m_CompAOExponentDirect: 0
    m_ExtractAmbientOcclusion: 0
    m_Padding: 2
    m_LightmapParameters: {fileID: 0}
    m_LightmapsBakeMode: 1
    m_TextureCompression: 1
    m_FinalGather: 0
    m_FinalGatherFiltering: 1
    m_FinalGatherRayCount: 256
    m_ReflectionCompression: 2
    m_MixedBakeMode: 2
    m_BakeBackend: 1
    m_PVRSampling: 1
    m_PVRDirectSampleCount: 32
    m_PVRSampleCount: 512
    m_PVRBounces: 2
    m_PVREnvironmentSampleCount: 256
    m_PVREnvironmentReferencePointCount: 2048
    m_PVRFilteringMode: 1
    m_PVRDenoiserTypeDirect: 1
    m_PVRDenoiserTypeIndirect: 1
    m_PVRDenoiserTypeAO: 1
    m_PVRFilterTypeDirect: 0
    m_PVRFilterTypeIndirect: 0
    m_PVRFilterTypeAO: 0
    m_PVREnvironmentMIS: 1
    m_PVRCulling: 1
    m_PVRFilteringGaussRadiusDirect: 1
    m_PVRFilteringGaussRadiusIndirect: 5
    m_PVRFilteringGaussRadiusAO: 2
    m_PVRFilteringAtrousPositionSigmaDirect: 0.5
    m_PVRFilteringAtrousPositionSigmaIndirect: 2
    m_PVRFilteringAtrousPositionSigmaAO: 1
    m_ExportTrainingData: 0
    m_TrainingDataDestination: TrainingData
    m_LightProbeSampleCountMultiplier: 4
  m_LightingDataAsset: {fileID: 0}
  m_LightingSettings: {fileID: 0}
--- !u!196 &4
NavMeshSettings:
  serializedVersion: 2
  m_ObjectHideFlags: 0
  m_BuildSettings:
    serializedVersion: 2
    agentTypeID: 0
    agentRadius: 0.5
    agentHeight: 2
    agentSlope: 45
    agentClimb: 0.4
    ledgeDropHeight: 0
    maxJumpAcrossDistance: 0
    minRegionArea: 2
    manualCellSize: 0
    cellSize: 0.16666667
    manualTileSize: 0
    tileSize: 256
    accuratePlacement: 0
    maxJobWorkers: 0
    preserveTilesOutsideBounds: 0
    debug:
      m_Flags: 0
  m_NavMeshData: {fileID: 0}
--- !u!1 &22845854
GameObject:
  m_ObjectHideFlags: 0
  m_CorrespondingSourceObject: {fileID: 0}
  m_PrefabInstance: {fileID: 0}
  m_PrefabAsset: {fileID: 0}
  serializedVersion: 6
  m_Component:
  - component: {fileID: 22845855}
  m_Layer: 0
  m_Name: ButtonContainer
  m_TagString: Untagged
  m_Icon: {fileID: 0}
  m_NavMeshLayer: 0
  m_StaticEditorFlags: 0
  m_IsActive: 1
--- !u!4 &22845855
Transform:
  m_ObjectHideFlags: 0
  m_CorrespondingSourceObject: {fileID: 0}
  m_PrefabInstance: {fileID: 0}
  m_PrefabAsset: {fileID: 0}
  m_GameObject: {fileID: 22845854}
  m_LocalRotation: {x: 0, y: 0, z: 0, w: 1}
  m_LocalPosition: {x: 0.022, y: 0, z: 0}
  m_LocalScale: {x: 1, y: 1, z: 1}
  m_Children:
  - {fileID: 8247056581957576202}
  - {fileID: 3017390278537494183}
  m_Father: {fileID: 887647636}
  m_RootOrder: 1
  m_LocalEulerAnglesHint: {x: 0, y: 0, z: 0}
--- !u!1 &85560911
GameObject:
  m_ObjectHideFlags: 0
  m_CorrespondingSourceObject: {fileID: 0}
  m_PrefabInstance: {fileID: 0}
  m_PrefabAsset: {fileID: 0}
  serializedVersion: 6
  m_Component:
  - component: {fileID: 85560913}
  - component: {fileID: 85560912}
  m_Layer: 0
  m_Name: Directional Light
  m_TagString: Untagged
  m_Icon: {fileID: 0}
  m_NavMeshLayer: 0
  m_StaticEditorFlags: 0
  m_IsActive: 1
--- !u!108 &85560912
Light:
  m_ObjectHideFlags: 0
  m_CorrespondingSourceObject: {fileID: 0}
  m_PrefabInstance: {fileID: 0}
  m_PrefabAsset: {fileID: 0}
  m_GameObject: {fileID: 85560911}
  m_Enabled: 1
  serializedVersion: 10
  m_Type: 1
  m_Shape: 0
  m_Color: {r: 1, g: 0.95686275, b: 0.8392157, a: 1}
  m_Intensity: 1
  m_Range: 10
  m_SpotAngle: 30
  m_InnerSpotAngle: 21.80208
  m_CookieSize: 10
  m_Shadows:
    m_Type: 2
    m_Resolution: -1
    m_CustomResolution: -1
    m_Strength: 1
    m_Bias: 0.05
    m_NormalBias: 0.4
    m_NearPlane: 0.2
    m_CullingMatrixOverride:
      e00: 1
      e01: 0
      e02: 0
      e03: 0
      e10: 0
      e11: 1
      e12: 0
      e13: 0
      e20: 0
      e21: 0
      e22: 1
      e23: 0
      e30: 0
      e31: 0
      e32: 0
      e33: 1
    m_UseCullingMatrixOverride: 0
  m_Cookie: {fileID: 0}
  m_DrawHalo: 0
  m_Flare: {fileID: 0}
  m_RenderMode: 0
  m_CullingMask:
    serializedVersion: 2
    m_Bits: 4294967295
  m_RenderingLayerMask: 1
  m_Lightmapping: 4
  m_LightShadowCasterMode: 0
  m_AreaSize: {x: 1, y: 1}
  m_BounceIntensity: 1
  m_ColorTemperature: 6570
  m_UseColorTemperature: 0
  m_BoundingSphereOverride: {x: 0, y: 0, z: 0, w: 0}
  m_UseBoundingSphereOverride: 0
  m_UseViewFrustumForShadowCasterCull: 1
  m_ShadowRadius: 0
  m_ShadowAngle: 0
--- !u!4 &85560913
Transform:
  m_ObjectHideFlags: 0
  m_CorrespondingSourceObject: {fileID: 0}
  m_PrefabInstance: {fileID: 0}
  m_PrefabAsset: {fileID: 0}
  m_GameObject: {fileID: 85560911}
  m_LocalRotation: {x: 0.40821788, y: -0.23456968, z: 0.10938163, w: 0.8754261}
  m_LocalPosition: {x: 0, y: 3, z: 0}
  m_LocalScale: {x: 1, y: 1, z: 1}
  m_Children: []
  m_Father: {fileID: 0}
  m_RootOrder: 0
  m_LocalEulerAnglesHint: {x: 50, y: -30, z: 0}
--- !u!1001 &397308077
PrefabInstance:
  m_ObjectHideFlags: 0
  serializedVersion: 2
  m_Modification:
    m_TransformParent: {fileID: 922089766}
    m_Modifications:
    - target: {fileID: 1012395828249241974, guid: 247dc8aebe30ca2408e8293a883c75df,
        type: 3}
      propertyPath: m_Mesh
      value: 
      objectReference: {fileID: 0}
    - target: {fileID: 1537115806125884074, guid: 247dc8aebe30ca2408e8293a883c75df,
        type: 3}
      propertyPath: m_textInfo.lineCount
      value: 0
      objectReference: {fileID: 0}
    - target: {fileID: 1537115806125884074, guid: 247dc8aebe30ca2408e8293a883c75df,
        type: 3}
      propertyPath: m_textInfo.pageCount
      value: 0
      objectReference: {fileID: 0}
    - target: {fileID: 1537115806125884074, guid: 247dc8aebe30ca2408e8293a883c75df,
        type: 3}
      propertyPath: m_textInfo.wordCount
      value: 0
      objectReference: {fileID: 0}
    - target: {fileID: 1537115806125884074, guid: 247dc8aebe30ca2408e8293a883c75df,
        type: 3}
      propertyPath: m_textInfo.spaceCount
      value: 0
      objectReference: {fileID: 0}
    - target: {fileID: 1537115806125884074, guid: 247dc8aebe30ca2408e8293a883c75df,
        type: 3}
      propertyPath: m_textInfo.characterCount
      value: 0
      objectReference: {fileID: 0}
    - target: {fileID: 2003711874975278027, guid: 247dc8aebe30ca2408e8293a883c75df,
        type: 3}
      propertyPath: m_Enabled
      value: 0
      objectReference: {fileID: 0}
    - target: {fileID: 8215610606298197891, guid: 247dc8aebe30ca2408e8293a883c75df,
        type: 3}
      propertyPath: m_LocalScale.x
      value: 2.15
      objectReference: {fileID: 0}
    - target: {fileID: 8215610606298197891, guid: 247dc8aebe30ca2408e8293a883c75df,
        type: 3}
      propertyPath: m_LocalScale.y
      value: 2.15
      objectReference: {fileID: 0}
    - target: {fileID: 8215610606298197891, guid: 247dc8aebe30ca2408e8293a883c75df,
        type: 3}
      propertyPath: m_LocalScale.z
      value: 2.15
      objectReference: {fileID: 0}
    - target: {fileID: 8217189920156946147, guid: 247dc8aebe30ca2408e8293a883c75df,
        type: 3}
      propertyPath: m_IsActive
      value: 1
      objectReference: {fileID: 0}
    - target: {fileID: 8219002942482847169, guid: 247dc8aebe30ca2408e8293a883c75df,
        type: 3}
      propertyPath: m_Name
      value: Label
      objectReference: {fileID: 0}
    - target: {fileID: 8222481329602893483, guid: 247dc8aebe30ca2408e8293a883c75df,
        type: 3}
      propertyPath: m_RootOrder
      value: 0
      objectReference: {fileID: 0}
    - target: {fileID: 8222481329602893483, guid: 247dc8aebe30ca2408e8293a883c75df,
        type: 3}
      propertyPath: m_LocalScale.x
      value: 5
      objectReference: {fileID: 0}
    - target: {fileID: 8222481329602893483, guid: 247dc8aebe30ca2408e8293a883c75df,
        type: 3}
      propertyPath: m_LocalScale.y
      value: 5
      objectReference: {fileID: 0}
    - target: {fileID: 8222481329602893483, guid: 247dc8aebe30ca2408e8293a883c75df,
        type: 3}
      propertyPath: m_LocalScale.z
      value: 5
      objectReference: {fileID: 0}
    - target: {fileID: 8222481329602893483, guid: 247dc8aebe30ca2408e8293a883c75df,
        type: 3}
      propertyPath: m_LocalPosition.x
      value: 0
      objectReference: {fileID: 0}
    - target: {fileID: 8222481329602893483, guid: 247dc8aebe30ca2408e8293a883c75df,
        type: 3}
      propertyPath: m_LocalPosition.y
      value: 0
      objectReference: {fileID: 0}
    - target: {fileID: 8222481329602893483, guid: 247dc8aebe30ca2408e8293a883c75df,
        type: 3}
      propertyPath: m_LocalPosition.z
      value: 0
      objectReference: {fileID: 0}
    - target: {fileID: 8222481329602893483, guid: 247dc8aebe30ca2408e8293a883c75df,
        type: 3}
      propertyPath: m_LocalRotation.w
      value: 1
      objectReference: {fileID: 0}
    - target: {fileID: 8222481329602893483, guid: 247dc8aebe30ca2408e8293a883c75df,
        type: 3}
      propertyPath: m_LocalRotation.x
      value: -0
      objectReference: {fileID: 0}
    - target: {fileID: 8222481329602893483, guid: 247dc8aebe30ca2408e8293a883c75df,
        type: 3}
      propertyPath: m_LocalRotation.y
      value: -0
      objectReference: {fileID: 0}
    - target: {fileID: 8222481329602893483, guid: 247dc8aebe30ca2408e8293a883c75df,
        type: 3}
      propertyPath: m_LocalRotation.z
      value: -0
      objectReference: {fileID: 0}
    - target: {fileID: 8222481329602893483, guid: 247dc8aebe30ca2408e8293a883c75df,
        type: 3}
      propertyPath: m_LocalEulerAnglesHint.x
      value: 0
      objectReference: {fileID: 0}
    - target: {fileID: 8222481329602893483, guid: 247dc8aebe30ca2408e8293a883c75df,
        type: 3}
      propertyPath: m_LocalEulerAnglesHint.y
      value: 0
      objectReference: {fileID: 0}
    - target: {fileID: 8222481329602893483, guid: 247dc8aebe30ca2408e8293a883c75df,
        type: 3}
      propertyPath: m_LocalEulerAnglesHint.z
      value: 0
      objectReference: {fileID: 0}
    - target: {fileID: 8222863950748663225, guid: 247dc8aebe30ca2408e8293a883c75df,
        type: 3}
      propertyPath: m_LocalScale.x
      value: 0.119499594
      objectReference: {fileID: 0}
    - target: {fileID: 8222863950748663225, guid: 247dc8aebe30ca2408e8293a883c75df,
        type: 3}
      propertyPath: m_LocalScale.y
      value: 0.023313979
      objectReference: {fileID: 0}
    - target: {fileID: 8328408549162534613, guid: 247dc8aebe30ca2408e8293a883c75df,
        type: 3}
      propertyPath: target
      value: 
      objectReference: {fileID: 922089760}
    - target: {fileID: 8329787883158438443, guid: 247dc8aebe30ca2408e8293a883c75df,
        type: 3}
      propertyPath: fontSize
      value: 25
      objectReference: {fileID: 0}
    - target: {fileID: 8329787883158438443, guid: 247dc8aebe30ca2408e8293a883c75df,
        type: 3}
      propertyPath: toolTipText
      value: Near Far Clicked
      objectReference: {fileID: 0}
    - target: {fileID: 8329787883158438443, guid: 247dc8aebe30ca2408e8293a883c75df,
        type: 3}
      propertyPath: contentScale
      value: 2.15
      objectReference: {fileID: 0}
    m_RemovedComponents: []
  m_SourcePrefab: {fileID: 100100000, guid: 247dc8aebe30ca2408e8293a883c75df, type: 3}
--- !u!1001 &611771254
PrefabInstance:
  m_ObjectHideFlags: 0
  serializedVersion: 2
  m_Modification:
    m_TransformParent: {fileID: 2082767159}
    m_Modifications:
    - target: {fileID: 1012395828249241974, guid: 247dc8aebe30ca2408e8293a883c75df,
        type: 3}
      propertyPath: m_Mesh
      value: 
      objectReference: {fileID: 0}
    - target: {fileID: 1537115806125884074, guid: 247dc8aebe30ca2408e8293a883c75df,
        type: 3}
      propertyPath: m_text
      value: Custom Keyboard State Example
      objectReference: {fileID: 0}
    - target: {fileID: 1537115806125884074, guid: 247dc8aebe30ca2408e8293a883c75df,
        type: 3}
      propertyPath: m_fontSize
      value: 18
      objectReference: {fileID: 0}
    - target: {fileID: 1537115806125884074, guid: 247dc8aebe30ca2408e8293a883c75df,
        type: 3}
      propertyPath: m_fontSizeBase
      value: 18
      objectReference: {fileID: 0}
    - target: {fileID: 1537115806125884074, guid: 247dc8aebe30ca2408e8293a883c75df,
        type: 3}
      propertyPath: m_textInfo.lineCount
      value: 0
      objectReference: {fileID: 0}
    - target: {fileID: 1537115806125884074, guid: 247dc8aebe30ca2408e8293a883c75df,
        type: 3}
      propertyPath: m_textInfo.pageCount
      value: 0
      objectReference: {fileID: 0}
    - target: {fileID: 1537115806125884074, guid: 247dc8aebe30ca2408e8293a883c75df,
        type: 3}
      propertyPath: m_textInfo.wordCount
      value: 0
      objectReference: {fileID: 0}
    - target: {fileID: 1537115806125884074, guid: 247dc8aebe30ca2408e8293a883c75df,
        type: 3}
      propertyPath: m_textInfo.spaceCount
      value: 0
      objectReference: {fileID: 0}
    - target: {fileID: 1537115806125884074, guid: 247dc8aebe30ca2408e8293a883c75df,
        type: 3}
      propertyPath: m_textInfo.characterCount
      value: 0
      objectReference: {fileID: 0}
    - target: {fileID: 2003711874975278027, guid: 247dc8aebe30ca2408e8293a883c75df,
        type: 3}
      propertyPath: m_Enabled
      value: 0
      objectReference: {fileID: 0}
    - target: {fileID: 8217189920156946147, guid: 247dc8aebe30ca2408e8293a883c75df,
        type: 3}
      propertyPath: m_IsActive
      value: 1
      objectReference: {fileID: 0}
    - target: {fileID: 8219002942482847169, guid: 247dc8aebe30ca2408e8293a883c75df,
        type: 3}
      propertyPath: m_Name
      value: Label
      objectReference: {fileID: 0}
    - target: {fileID: 8222481329602893483, guid: 247dc8aebe30ca2408e8293a883c75df,
        type: 3}
      propertyPath: m_RootOrder
      value: 0
      objectReference: {fileID: 0}
    - target: {fileID: 8222481329602893483, guid: 247dc8aebe30ca2408e8293a883c75df,
        type: 3}
      propertyPath: m_LocalScale.x
      value: 5
      objectReference: {fileID: 0}
    - target: {fileID: 8222481329602893483, guid: 247dc8aebe30ca2408e8293a883c75df,
        type: 3}
      propertyPath: m_LocalScale.y
      value: 5
      objectReference: {fileID: 0}
    - target: {fileID: 8222481329602893483, guid: 247dc8aebe30ca2408e8293a883c75df,
        type: 3}
      propertyPath: m_LocalScale.z
      value: 5
      objectReference: {fileID: 0}
    - target: {fileID: 8222481329602893483, guid: 247dc8aebe30ca2408e8293a883c75df,
        type: 3}
      propertyPath: m_LocalPosition.x
      value: 0
      objectReference: {fileID: 0}
    - target: {fileID: 8222481329602893483, guid: 247dc8aebe30ca2408e8293a883c75df,
        type: 3}
      propertyPath: m_LocalPosition.y
      value: 0
      objectReference: {fileID: 0}
    - target: {fileID: 8222481329602893483, guid: 247dc8aebe30ca2408e8293a883c75df,
        type: 3}
      propertyPath: m_LocalPosition.z
      value: 0
      objectReference: {fileID: 0}
    - target: {fileID: 8222481329602893483, guid: 247dc8aebe30ca2408e8293a883c75df,
        type: 3}
      propertyPath: m_LocalRotation.w
      value: 1
      objectReference: {fileID: 0}
    - target: {fileID: 8222481329602893483, guid: 247dc8aebe30ca2408e8293a883c75df,
        type: 3}
      propertyPath: m_LocalRotation.x
      value: -0
      objectReference: {fileID: 0}
    - target: {fileID: 8222481329602893483, guid: 247dc8aebe30ca2408e8293a883c75df,
        type: 3}
      propertyPath: m_LocalRotation.y
      value: -0
      objectReference: {fileID: 0}
    - target: {fileID: 8222481329602893483, guid: 247dc8aebe30ca2408e8293a883c75df,
        type: 3}
      propertyPath: m_LocalRotation.z
      value: -0
      objectReference: {fileID: 0}
    - target: {fileID: 8222481329602893483, guid: 247dc8aebe30ca2408e8293a883c75df,
        type: 3}
      propertyPath: m_LocalEulerAnglesHint.x
      value: 0
      objectReference: {fileID: 0}
    - target: {fileID: 8222481329602893483, guid: 247dc8aebe30ca2408e8293a883c75df,
        type: 3}
      propertyPath: m_LocalEulerAnglesHint.y
      value: 0
      objectReference: {fileID: 0}
    - target: {fileID: 8222481329602893483, guid: 247dc8aebe30ca2408e8293a883c75df,
        type: 3}
      propertyPath: m_LocalEulerAnglesHint.z
      value: 0
      objectReference: {fileID: 0}
    - target: {fileID: 8222863950748663225, guid: 247dc8aebe30ca2408e8293a883c75df,
        type: 3}
      propertyPath: m_LocalScale.x
      value: 0.13944426
      objectReference: {fileID: 0}
    - target: {fileID: 8222863950748663225, guid: 247dc8aebe30ca2408e8293a883c75df,
        type: 3}
      propertyPath: m_LocalScale.y
      value: 0.026972126
      objectReference: {fileID: 0}
    - target: {fileID: 8222863950748663225, guid: 247dc8aebe30ca2408e8293a883c75df,
        type: 3}
      propertyPath: m_LocalScale.z
      value: 1
      objectReference: {fileID: 0}
    - target: {fileID: 8328408549162534613, guid: 247dc8aebe30ca2408e8293a883c75df,
        type: 3}
      propertyPath: target
      value: 
      objectReference: {fileID: 2082767155}
    - target: {fileID: 8329787883158438443, guid: 247dc8aebe30ca2408e8293a883c75df,
        type: 3}
      propertyPath: fontSize
      value: 18
      objectReference: {fileID: 0}
    - target: {fileID: 8329787883158438443, guid: 247dc8aebe30ca2408e8293a883c75df,
        type: 3}
      propertyPath: toolTipText
      value: 'Custom Keyboard State Example

        (Press K Key to set state)'
      objectReference: {fileID: 0}
    - target: {fileID: 8329956899072727607, guid: 247dc8aebe30ca2408e8293a883c75df,
        type: 3}
      propertyPath: endPoint.position.y
      value: 0
      objectReference: {fileID: 0}
    m_RemovedComponents: []
  m_SourcePrefab: {fileID: 100100000, guid: 247dc8aebe30ca2408e8293a883c75df, type: 3}
--- !u!1 &717572603
GameObject:
  m_ObjectHideFlags: 0
  m_CorrespondingSourceObject: {fileID: 0}
  m_PrefabInstance: {fileID: 0}
  m_PrefabAsset: {fileID: 0}
  serializedVersion: 6
  m_Component:
  - component: {fileID: 717572606}
  - component: {fileID: 717572605}
  - component: {fileID: 717572604}
  - component: {fileID: 717572609}
  - component: {fileID: 717572608}
  - component: {fileID: 717572607}
  m_Layer: 0
  m_Name: Main Camera
  m_TagString: MainCamera
  m_Icon: {fileID: 0}
  m_NavMeshLayer: 0
  m_StaticEditorFlags: 0
  m_IsActive: 1
--- !u!81 &717572604
AudioListener:
  m_ObjectHideFlags: 0
  m_CorrespondingSourceObject: {fileID: 0}
  m_PrefabInstance: {fileID: 0}
  m_PrefabAsset: {fileID: 0}
  m_GameObject: {fileID: 717572603}
  m_Enabled: 1
--- !u!20 &717572605
Camera:
  m_ObjectHideFlags: 0
  m_CorrespondingSourceObject: {fileID: 0}
  m_PrefabInstance: {fileID: 0}
  m_PrefabAsset: {fileID: 0}
  m_GameObject: {fileID: 717572603}
  m_Enabled: 1
  serializedVersion: 2
  m_ClearFlags: 1
  m_BackGroundColor: {r: 0, g: 0, b: 0, a: 1}
  m_projectionMatrixMode: 1
  m_GateFitMode: 2
  m_FOVAxisMode: 0
  m_SensorSize: {x: 36, y: 24}
  m_LensShift: {x: 0, y: 0}
  m_FocalLength: 50
  m_NormalizedViewPortRect:
    serializedVersion: 2
    x: 0
    y: 0
    width: 1
    height: 1
  near clip plane: 0.1
  far clip plane: 1000
  field of view: 60
  orthographic: 0
  orthographic size: 5
  m_Depth: -1
  m_CullingMask:
    serializedVersion: 2
    m_Bits: 4294967295
  m_RenderingPath: -1
  m_TargetTexture: {fileID: 0}
  m_TargetDisplay: 0
  m_TargetEye: 3
  m_HDR: 1
  m_AllowMSAA: 1
  m_AllowDynamicResolution: 0
  m_ForceIntoRT: 0
  m_OcclusionCulling: 1
  m_StereoConvergence: 10
  m_StereoSeparation: 0.022
--- !u!4 &717572606
Transform:
  m_ObjectHideFlags: 0
  m_CorrespondingSourceObject: {fileID: 0}
  m_PrefabInstance: {fileID: 0}
  m_PrefabAsset: {fileID: 0}
  m_GameObject: {fileID: 717572603}
  m_LocalRotation: {x: -0, y: -0, z: -0, w: 1}
  m_LocalPosition: {x: 0, y: 0, z: 0}
  m_LocalScale: {x: 1, y: 1, z: 1}
  m_Children: []
  m_Father: {fileID: 2046804824}
  m_RootOrder: 0
  m_LocalEulerAnglesHint: {x: 0, y: 0, z: 0}
--- !u!114 &717572607
MonoBehaviour:
  m_ObjectHideFlags: 0
  m_CorrespondingSourceObject: {fileID: 0}
  m_PrefabInstance: {fileID: 0}
  m_PrefabAsset: {fileID: 0}
  m_GameObject: {fileID: 717572603}
  m_Enabled: 1
  m_EditorHideFlags: 0
  m_Script: {fileID: 11500000, guid: bf98dd1206224111a38765365e98e207, type: 3}
  m_Name: 
  m_EditorClassIdentifier: 
  lockCursorWhenFocusLocked: 1
  setCursorInvisibleWhenFocusLocked: 0
  maxGazeCollisionDistance: 10
  raycastLayerMasks:
  - serializedVersion: 2
    m_Bits: 4294967291
  stabilizer:
    storedStabilitySamples: 60
  gazeTransform: {fileID: 0}
  minHeadVelocityThreshold: 0.5
  maxHeadVelocityThreshold: 2
--- !u!114 &717572608
MonoBehaviour:
  m_ObjectHideFlags: 0
  m_CorrespondingSourceObject: {fileID: 0}
  m_PrefabInstance: {fileID: 0}
  m_PrefabAsset: {fileID: 0}
  m_GameObject: {fileID: 717572603}
  m_Enabled: 1
  m_EditorHideFlags: 0
  m_Script: {fileID: 11500000, guid: 7a21b486d0bb44444b1418aaa38b44de, type: 3}
  m_Name: 
  m_EditorClassIdentifier: 
  m_HorizontalAxis: Horizontal
  m_VerticalAxis: Vertical
  m_SubmitButton: Submit
  m_CancelButton: Cancel
  m_InputActionsPerSecond: 10
  m_RepeatDelay: 0.5
  m_ForceModuleActive: 0
--- !u!114 &717572609
MonoBehaviour:
  m_ObjectHideFlags: 0
  m_CorrespondingSourceObject: {fileID: 0}
  m_PrefabInstance: {fileID: 0}
  m_PrefabAsset: {fileID: 0}
  m_GameObject: {fileID: 717572603}
  m_Enabled: 1
  m_EditorHideFlags: 0
  m_Script: {fileID: 11500000, guid: 76c392e42b5098c458856cdf6ecaaaa1, type: 3}
  m_Name: 
  m_EditorClassIdentifier: 
  m_FirstSelected: {fileID: 0}
  m_sendNavigationEvents: 1
  m_DragThreshold: 10
--- !u!1001 &739718193
PrefabInstance:
  m_ObjectHideFlags: 0
  serializedVersion: 2
  m_Modification:
    m_TransformParent: {fileID: 1279934715}
    m_Modifications:
    - target: {fileID: 1012395828249241974, guid: 247dc8aebe30ca2408e8293a883c75df,
        type: 3}
      propertyPath: m_Mesh
      value: 
      objectReference: {fileID: 0}
    - target: {fileID: 1537115806125884074, guid: 247dc8aebe30ca2408e8293a883c75df,
        type: 3}
      propertyPath: m_textInfo.lineCount
      value: 0
      objectReference: {fileID: 0}
    - target: {fileID: 1537115806125884074, guid: 247dc8aebe30ca2408e8293a883c75df,
        type: 3}
      propertyPath: m_textInfo.pageCount
      value: 0
      objectReference: {fileID: 0}
    - target: {fileID: 1537115806125884074, guid: 247dc8aebe30ca2408e8293a883c75df,
        type: 3}
      propertyPath: m_textInfo.wordCount
      value: 0
      objectReference: {fileID: 0}
    - target: {fileID: 1537115806125884074, guid: 247dc8aebe30ca2408e8293a883c75df,
        type: 3}
      propertyPath: m_textInfo.spaceCount
      value: 0
      objectReference: {fileID: 0}
    - target: {fileID: 1537115806125884074, guid: 247dc8aebe30ca2408e8293a883c75df,
        type: 3}
      propertyPath: m_textInfo.characterCount
      value: 0
      objectReference: {fileID: 0}
    - target: {fileID: 2003711874975278027, guid: 247dc8aebe30ca2408e8293a883c75df,
        type: 3}
      propertyPath: m_Enabled
      value: 0
      objectReference: {fileID: 0}
    - target: {fileID: 8215610606298197891, guid: 247dc8aebe30ca2408e8293a883c75df,
        type: 3}
      propertyPath: m_LocalScale.x
      value: 2.15
      objectReference: {fileID: 0}
    - target: {fileID: 8215610606298197891, guid: 247dc8aebe30ca2408e8293a883c75df,
        type: 3}
      propertyPath: m_LocalScale.y
      value: 2.15
      objectReference: {fileID: 0}
    - target: {fileID: 8215610606298197891, guid: 247dc8aebe30ca2408e8293a883c75df,
        type: 3}
      propertyPath: m_LocalScale.z
      value: 2.15
      objectReference: {fileID: 0}
    - target: {fileID: 8217189920156946147, guid: 247dc8aebe30ca2408e8293a883c75df,
        type: 3}
      propertyPath: m_IsActive
      value: 1
      objectReference: {fileID: 0}
    - target: {fileID: 8219002942482847169, guid: 247dc8aebe30ca2408e8293a883c75df,
        type: 3}
      propertyPath: m_Name
      value: Label
      objectReference: {fileID: 0}
    - target: {fileID: 8222481329602893483, guid: 247dc8aebe30ca2408e8293a883c75df,
        type: 3}
      propertyPath: m_RootOrder
      value: 0
      objectReference: {fileID: 0}
    - target: {fileID: 8222481329602893483, guid: 247dc8aebe30ca2408e8293a883c75df,
        type: 3}
      propertyPath: m_LocalScale.x
      value: 5
      objectReference: {fileID: 0}
    - target: {fileID: 8222481329602893483, guid: 247dc8aebe30ca2408e8293a883c75df,
        type: 3}
      propertyPath: m_LocalScale.y
      value: 5
      objectReference: {fileID: 0}
    - target: {fileID: 8222481329602893483, guid: 247dc8aebe30ca2408e8293a883c75df,
        type: 3}
      propertyPath: m_LocalScale.z
      value: 5
      objectReference: {fileID: 0}
    - target: {fileID: 8222481329602893483, guid: 247dc8aebe30ca2408e8293a883c75df,
        type: 3}
      propertyPath: m_LocalPosition.x
      value: 0
      objectReference: {fileID: 0}
    - target: {fileID: 8222481329602893483, guid: 247dc8aebe30ca2408e8293a883c75df,
        type: 3}
      propertyPath: m_LocalPosition.y
      value: 0
      objectReference: {fileID: 0}
    - target: {fileID: 8222481329602893483, guid: 247dc8aebe30ca2408e8293a883c75df,
        type: 3}
      propertyPath: m_LocalPosition.z
      value: 0
      objectReference: {fileID: 0}
    - target: {fileID: 8222481329602893483, guid: 247dc8aebe30ca2408e8293a883c75df,
        type: 3}
      propertyPath: m_LocalRotation.w
      value: 1
      objectReference: {fileID: 0}
    - target: {fileID: 8222481329602893483, guid: 247dc8aebe30ca2408e8293a883c75df,
        type: 3}
      propertyPath: m_LocalRotation.x
      value: -0
      objectReference: {fileID: 0}
    - target: {fileID: 8222481329602893483, guid: 247dc8aebe30ca2408e8293a883c75df,
        type: 3}
      propertyPath: m_LocalRotation.y
      value: -0
      objectReference: {fileID: 0}
    - target: {fileID: 8222481329602893483, guid: 247dc8aebe30ca2408e8293a883c75df,
        type: 3}
      propertyPath: m_LocalRotation.z
      value: -0
      objectReference: {fileID: 0}
    - target: {fileID: 8222481329602893483, guid: 247dc8aebe30ca2408e8293a883c75df,
        type: 3}
      propertyPath: m_LocalEulerAnglesHint.x
      value: 0
      objectReference: {fileID: 0}
    - target: {fileID: 8222481329602893483, guid: 247dc8aebe30ca2408e8293a883c75df,
        type: 3}
      propertyPath: m_LocalEulerAnglesHint.y
      value: 0
      objectReference: {fileID: 0}
    - target: {fileID: 8222481329602893483, guid: 247dc8aebe30ca2408e8293a883c75df,
        type: 3}
      propertyPath: m_LocalEulerAnglesHint.z
      value: 0
      objectReference: {fileID: 0}
    - target: {fileID: 8222863950748663225, guid: 247dc8aebe30ca2408e8293a883c75df,
        type: 3}
      propertyPath: m_LocalScale.x
      value: 0.14136994
      objectReference: {fileID: 0}
    - target: {fileID: 8222863950748663225, guid: 247dc8aebe30ca2408e8293a883c75df,
        type: 3}
      propertyPath: m_LocalScale.y
      value: 0.024311654
      objectReference: {fileID: 0}
    - target: {fileID: 8328408549162534613, guid: 247dc8aebe30ca2408e8293a883c75df,
        type: 3}
      propertyPath: target
      value: 
      objectReference: {fileID: 1279934714}
    - target: {fileID: 8329787883158438443, guid: 247dc8aebe30ca2408e8293a883c75df,
        type: 3}
      propertyPath: fontSize
      value: 28
      objectReference: {fileID: 0}
    - target: {fileID: 8329787883158438443, guid: 247dc8aebe30ca2408e8293a883c75df,
        type: 3}
      propertyPath: toolTipText
      value: Basic Near Far Toggle
      objectReference: {fileID: 0}
    - target: {fileID: 8329787883158438443, guid: 247dc8aebe30ca2408e8293a883c75df,
        type: 3}
      propertyPath: contentScale
      value: 2.15
      objectReference: {fileID: 0}
    m_RemovedComponents: []
  m_SourcePrefab: {fileID: 100100000, guid: 247dc8aebe30ca2408e8293a883c75df, type: 3}
--- !u!4 &739718194 stripped
Transform:
  m_CorrespondingSourceObject: {fileID: 8222481329602893483, guid: 247dc8aebe30ca2408e8293a883c75df,
    type: 3}
  m_PrefabInstance: {fileID: 739718193}
  m_PrefabAsset: {fileID: 0}
--- !u!4 &757133846 stripped
Transform:
  m_CorrespondingSourceObject: {fileID: 8222481329602893483, guid: 247dc8aebe30ca2408e8293a883c75df,
    type: 3}
  m_PrefabInstance: {fileID: 611771254}
  m_PrefabAsset: {fileID: 0}
--- !u!1 &887647635
GameObject:
  m_ObjectHideFlags: 0
  m_CorrespondingSourceObject: {fileID: 0}
  m_PrefabInstance: {fileID: 0}
  m_PrefabAsset: {fileID: 0}
  serializedVersion: 6
  m_Component:
  - component: {fileID: 887647636}
  m_Layer: 0
  m_Name: InteractiveElement+StateVisualizerExamples
  m_TagString: Untagged
  m_Icon: {fileID: 0}
  m_NavMeshLayer: 0
  m_StaticEditorFlags: 0
  m_IsActive: 1
--- !u!4 &887647636
Transform:
  m_ObjectHideFlags: 0
  m_CorrespondingSourceObject: {fileID: 0}
  m_PrefabInstance: {fileID: 0}
  m_PrefabAsset: {fileID: 0}
  m_GameObject: {fileID: 887647635}
  m_LocalRotation: {x: 0, y: 0, z: 0, w: 1}
  m_LocalPosition: {x: -0.234, y: -0.142, z: 0.56}
  m_LocalScale: {x: 1, y: 1, z: 1}
  m_Children:
  - {fileID: 1535796467}
  - {fileID: 22845855}
  m_Father: {fileID: 0}
  m_RootOrder: 4
  m_LocalEulerAnglesHint: {x: 0, y: 0, z: 0}
--- !u!1 &922089760
GameObject:
  m_ObjectHideFlags: 0
  m_CorrespondingSourceObject: {fileID: 0}
  m_PrefabInstance: {fileID: 0}
  m_PrefabAsset: {fileID: 0}
  serializedVersion: 6
  m_Component:
  - component: {fileID: 922089766}
  - component: {fileID: 922089765}
  - component: {fileID: 922089764}
  - component: {fileID: 922089763}
  - component: {fileID: 922089762}
  - component: {fileID: 922089761}
  - component: {fileID: 922089767}
  m_Layer: 0
  m_Name: BasicNearFarClick
  m_TagString: Untagged
  m_Icon: {fileID: 0}
  m_NavMeshLayer: 0
  m_StaticEditorFlags: 0
  m_IsActive: 1
--- !u!114 &922089761
MonoBehaviour:
  m_ObjectHideFlags: 0
  m_CorrespondingSourceObject: {fileID: 0}
  m_PrefabInstance: {fileID: 0}
  m_PrefabAsset: {fileID: 0}
  m_GameObject: {fileID: 922089760}
  m_Enabled: 1
  m_EditorHideFlags: 0
  m_Script: {fileID: 11500000, guid: 183e8dd8b58276c4a8f2b807059981b8, type: 3}
  m_Name: 
  m_EditorClassIdentifier: 
  eventsToReceive: 0
  debounceThreshold: 0.01
  touchableCollider: {fileID: 922089763}
--- !u!114 &922089762
MonoBehaviour:
  m_ObjectHideFlags: 0
  m_CorrespondingSourceObject: {fileID: 0}
  m_PrefabInstance: {fileID: 0}
  m_PrefabAsset: {fileID: 0}
  m_GameObject: {fileID: 922089760}
  m_Enabled: 1
  m_EditorHideFlags: 0
  m_Script: {fileID: 11500000, guid: 1e797919e540eaa4c82b55c0d0be1a40, type: 3}
  m_Name: 
  m_EditorClassIdentifier: 
  active: 1
  states:
  - stateName: Default
    stateValue: 0
    active: 0
    interactionType: 4
    eventConfiguration:
      id: 0
  - stateName: Focus
    stateValue: 0
    active: 0
    interactionType: 3
    eventConfiguration:
      id: 1
  - stateName: Touch
    stateValue: 0
    active: 0
    interactionType: 1
    eventConfiguration:
      id: 2
  - stateName: SelectFar
    stateValue: 0
    active: 0
    interactionType: 2
    eventConfiguration:
      id: 3
  - stateName: Clicked
    stateValue: 0
    active: 0
    interactionType: 4
    eventConfiguration:
      id: 4
  references:
    version: 1
    00000000:
      type: {class: StateEvents, ns: Microsoft.MixedReality.Toolkit.Experimental.InteractiveElement,
        asm: Microsoft.MixedReality.Toolkit.SDK.Experimental.Interactive}
      data:
        stateName: Default
        OnStateOn:
          m_PersistentCalls:
            m_Calls: []
        OnStateOff:
          m_PersistentCalls:
            m_Calls: []
    00000001:
      type: {class: FocusEvents, ns: Microsoft.MixedReality.Toolkit.Experimental.InteractiveElement,
        asm: Microsoft.MixedReality.Toolkit.SDK.Experimental.Interactive}
      data:
        stateName: Focus
        OnFocusOn:
          m_PersistentCalls:
            m_Calls: []
        OnFocusOff:
          m_PersistentCalls:
            m_Calls: []
    00000002:
      type: {class: TouchEvents, ns: Microsoft.MixedReality.Toolkit.Experimental.InteractiveElement,
        asm: Microsoft.MixedReality.Toolkit.SDK.Experimental.Interactive}
      data:
        stateName: Touch
        OnTouchStarted:
          m_PersistentCalls:
            m_Calls:
            - m_Target: {fileID: 922089762}
              m_TargetAssemblyTypeName: 
              m_MethodName: TriggerClickedState
              m_Mode: 1
              m_Arguments:
                m_ObjectArgument: {fileID: 0}
                m_ObjectArgumentAssemblyTypeName: UnityEngine.Object, UnityEngine
                m_IntArgument: 0
                m_FloatArgument: 0
                m_StringArgument: 
                m_BoolArgument: 0
              m_CallState: 2
        OnTouchCompleted:
          m_PersistentCalls:
            m_Calls: []
        OnTouchUpdated:
          m_PersistentCalls:
            m_Calls: []
    00000003:
      type: {class: SelectFarEvents, ns: Microsoft.MixedReality.Toolkit.Experimental.InteractiveElement,
        asm: Microsoft.MixedReality.Toolkit.SDK.Experimental.Interactive}
      data:
        stateName: SelectFar
        global: 0
        OnGlobalChanged:
          m_PersistentCalls:
            m_Calls: []
        OnSelectDown:
          m_PersistentCalls:
            m_Calls: []
        OnSelectUp:
          m_PersistentCalls:
            m_Calls: []
        OnSelectHold:
          m_PersistentCalls:
            m_Calls: []
        OnSelectClicked:
          m_PersistentCalls:
            m_Calls: []
    00000004:
      type: {class: ClickedEvents, ns: Microsoft.MixedReality.Toolkit.Experimental.InteractiveElement,
        asm: Microsoft.MixedReality.Toolkit.SDK.Experimental.Interactive}
      data:
        stateName: Clicked
        OnClicked:
          m_PersistentCalls:
            m_Calls: []
--- !u!65 &922089763
BoxCollider:
  m_ObjectHideFlags: 0
  m_CorrespondingSourceObject: {fileID: 0}
  m_PrefabInstance: {fileID: 0}
  m_PrefabAsset: {fileID: 0}
  m_GameObject: {fileID: 922089760}
  m_Material: {fileID: 0}
  m_IsTrigger: 0
  m_Enabled: 1
  serializedVersion: 2
  m_Size: {x: 1, y: 1, z: 1}
  m_Center: {x: 0, y: 0, z: 0}
--- !u!23 &922089764
MeshRenderer:
  m_ObjectHideFlags: 0
  m_CorrespondingSourceObject: {fileID: 0}
  m_PrefabInstance: {fileID: 0}
  m_PrefabAsset: {fileID: 0}
  m_GameObject: {fileID: 922089760}
  m_Enabled: 1
  m_CastShadows: 1
  m_ReceiveShadows: 1
  m_DynamicOccludee: 1
  m_StaticShadowCaster: 0
  m_MotionVectors: 1
  m_LightProbeUsage: 1
  m_ReflectionProbeUsage: 1
  m_RayTracingMode: 2
  m_RayTraceProcedural: 0
  m_RenderingLayerMask: 1
  m_RendererPriority: 0
  m_Materials:
  - {fileID: 10303, guid: 0000000000000000f000000000000000, type: 0}
  m_StaticBatchInfo:
    firstSubMesh: 0
    subMeshCount: 0
  m_StaticBatchRoot: {fileID: 0}
  m_ProbeAnchor: {fileID: 0}
  m_LightProbeVolumeOverride: {fileID: 0}
  m_ScaleInLightmap: 1
  m_ReceiveGI: 1
  m_PreserveUVs: 0
  m_IgnoreNormalsForChartDetection: 0
  m_ImportantGI: 0
  m_StitchLightmapSeams: 1
  m_SelectedEditorRenderState: 3
  m_MinimumChartSize: 4
  m_AutoUVMaxDistance: 0.5
  m_AutoUVMaxAngle: 89
  m_LightmapParameters: {fileID: 0}
  m_SortingLayerID: 0
  m_SortingLayer: 0
  m_SortingOrder: 0
  m_AdditionalVertexStreams: {fileID: 0}
--- !u!33 &922089765
MeshFilter:
  m_ObjectHideFlags: 0
  m_CorrespondingSourceObject: {fileID: 0}
  m_PrefabInstance: {fileID: 0}
  m_PrefabAsset: {fileID: 0}
  m_GameObject: {fileID: 922089760}
  m_Mesh: {fileID: 10202, guid: 0000000000000000e000000000000000, type: 0}
--- !u!4 &922089766
Transform:
  m_ObjectHideFlags: 0
  m_CorrespondingSourceObject: {fileID: 0}
  m_PrefabInstance: {fileID: 0}
  m_PrefabAsset: {fileID: 0}
  m_GameObject: {fileID: 922089760}
  m_LocalRotation: {x: -0, y: -0, z: -0, w: 1}
  m_LocalPosition: {x: -0.08899999, y: 0, z: 0}
  m_LocalScale: {x: 0.1, y: 0.1, z: 0.1}
  m_Children:
  - {fileID: 1056779376}
  m_Father: {fileID: 1534546375}
  m_RootOrder: 0
  m_LocalEulerAnglesHint: {x: 0, y: 0, z: 0}
--- !u!114 &922089767
MonoBehaviour:
  m_ObjectHideFlags: 0
  m_CorrespondingSourceObject: {fileID: 0}
  m_PrefabInstance: {fileID: 0}
  m_PrefabAsset: {fileID: 0}
  m_GameObject: {fileID: 922089760}
  m_Enabled: 1
  m_EditorHideFlags: 0
  m_Script: {fileID: 11500000, guid: 1b5a183b8992f494e9dab26c41a5deb3, type: 3}
  m_Name: 
  m_EditorClassIdentifier: 
  InteractiveElement: {fileID: 922089762}
--- !u!4 &1056779376 stripped
Transform:
  m_CorrespondingSourceObject: {fileID: 8222481329602893483, guid: 247dc8aebe30ca2408e8293a883c75df,
    type: 3}
  m_PrefabInstance: {fileID: 397308077}
  m_PrefabAsset: {fileID: 0}
--- !u!1001 &1130848214
PrefabInstance:
  m_ObjectHideFlags: 0
  serializedVersion: 2
  m_Modification:
    m_TransformParent: {fileID: 0}
    m_Modifications:
    - target: {fileID: 1641405841635922537, guid: 18470d71939382448be2ecd06efa9662,
        type: 3}
      propertyPath: m_textInfo.lineCount
      value: 0
      objectReference: {fileID: 0}
    - target: {fileID: 1641405841635922537, guid: 18470d71939382448be2ecd06efa9662,
        type: 3}
      propertyPath: m_textInfo.pageCount
      value: 0
      objectReference: {fileID: 0}
    - target: {fileID: 1641405841635922537, guid: 18470d71939382448be2ecd06efa9662,
        type: 3}
      propertyPath: m_textInfo.wordCount
      value: 0
      objectReference: {fileID: 0}
    - target: {fileID: 1641405841635922537, guid: 18470d71939382448be2ecd06efa9662,
        type: 3}
      propertyPath: m_textInfo.spaceCount
      value: 0
      objectReference: {fileID: 0}
    - target: {fileID: 1641405841635922537, guid: 18470d71939382448be2ecd06efa9662,
        type: 3}
      propertyPath: m_textInfo.characterCount
      value: 0
      objectReference: {fileID: 0}
    - target: {fileID: 1685343061998419463, guid: 18470d71939382448be2ecd06efa9662,
        type: 3}
      propertyPath: m_AnchorMax.y
      value: 0
      objectReference: {fileID: 0}
    - target: {fileID: 1685343061998419463, guid: 18470d71939382448be2ecd06efa9662,
        type: 3}
      propertyPath: m_AnchorMin.y
      value: 0
      objectReference: {fileID: 0}
    - target: {fileID: 1685343061998419463, guid: 18470d71939382448be2ecd06efa9662,
        type: 3}
      propertyPath: m_SizeDelta.x
      value: 0
      objectReference: {fileID: 0}
    - target: {fileID: 1685343061998419463, guid: 18470d71939382448be2ecd06efa9662,
        type: 3}
      propertyPath: m_AnchoredPosition.x
      value: 0
      objectReference: {fileID: 0}
    - target: {fileID: 1685343061998419463, guid: 18470d71939382448be2ecd06efa9662,
        type: 3}
      propertyPath: m_AnchoredPosition.y
      value: 0
      objectReference: {fileID: 0}
    - target: {fileID: 2113875699234556495, guid: 18470d71939382448be2ecd06efa9662,
        type: 3}
      propertyPath: m_text
      value: "<size=42><b>Experimental Interactive Element + State Visualizer</b></size>\n\nInteractive
        Element is a new experimental component that is a centralized simplified
        entry point to the MRTK input system. The State Visualizer is an animation
        component that depends on Interactive Element.  \n\nVisual feedback on the
        active states of an object can be observed in the inspector.  Active states
        will light up with a light blue.\n\nThe Interactive Element + State Visualizer
        components are only supported by Unity 2019.3 and above."
      objectReference: {fileID: 0}
    - target: {fileID: 2113875699234556495, guid: 18470d71939382448be2ecd06efa9662,
        type: 3}
      propertyPath: m_textInfo.lineCount
      value: 14
      objectReference: {fileID: 0}
    - target: {fileID: 2113875699234556495, guid: 18470d71939382448be2ecd06efa9662,
        type: 3}
      propertyPath: m_textInfo.pageCount
      value: 1
      objectReference: {fileID: 0}
    - target: {fileID: 2113875699234556495, guid: 18470d71939382448be2ecd06efa9662,
        type: 3}
      propertyPath: m_textInfo.wordCount
      value: 75
      objectReference: {fileID: 0}
    - target: {fileID: 2113875699234556495, guid: 18470d71939382448be2ecd06efa9662,
        type: 3}
      propertyPath: m_textInfo.spaceCount
      value: 81
      objectReference: {fileID: 0}
    - target: {fileID: 2113875699234556495, guid: 18470d71939382448be2ecd06efa9662,
        type: 3}
      propertyPath: m_textInfo.characterCount
      value: 495
      objectReference: {fileID: 0}
    - target: {fileID: 2113875699234556495, guid: 18470d71939382448be2ecd06efa9662,
        type: 3}
      propertyPath: m_firstOverflowCharacterIndex
      value: 53
      objectReference: {fileID: 0}
    - target: {fileID: 2652140712778390387, guid: 18470d71939382448be2ecd06efa9662,
        type: 3}
      propertyPath: m_LocalScale.y
      value: 0.61171055
      objectReference: {fileID: 0}
    - target: {fileID: 2652140712778390387, guid: 18470d71939382448be2ecd06efa9662,
        type: 3}
      propertyPath: m_LocalPosition.y
      value: -0.251
      objectReference: {fileID: 0}
    - target: {fileID: 3378234012929652230, guid: 18470d71939382448be2ecd06efa9662,
        type: 3}
      propertyPath: m_SizeDelta.y
      value: 0
      objectReference: {fileID: 0}
    - target: {fileID: 3739545933202976518, guid: 18470d71939382448be2ecd06efa9662,
        type: 3}
      propertyPath: hostTransform
      value: 
      objectReference: {fileID: 1130848215}
    - target: {fileID: 3739545933202976518, guid: 18470d71939382448be2ecd06efa9662,
        type: 3}
      propertyPath: constraintsManager
      value: 
      objectReference: {fileID: 1130848217}
    - target: {fileID: 5245681700994389642, guid: 18470d71939382448be2ecd06efa9662,
        type: 3}
      propertyPath: m_Mesh
      value: 
      objectReference: {fileID: 0}
    - target: {fileID: 6520512445149134010, guid: 18470d71939382448be2ecd06efa9662,
        type: 3}
      propertyPath: m_AnchorMax.y
      value: 0
      objectReference: {fileID: 0}
    - target: {fileID: 6520512445149134010, guid: 18470d71939382448be2ecd06efa9662,
        type: 3}
      propertyPath: m_AnchorMin.y
      value: 0
      objectReference: {fileID: 0}
    - target: {fileID: 6520512445149134010, guid: 18470d71939382448be2ecd06efa9662,
        type: 3}
      propertyPath: m_SizeDelta.x
      value: 0
      objectReference: {fileID: 0}
    - target: {fileID: 6520512445149134010, guid: 18470d71939382448be2ecd06efa9662,
        type: 3}
      propertyPath: m_AnchoredPosition.y
      value: 0
      objectReference: {fileID: 0}
    - target: {fileID: 6636591464266677543, guid: 18470d71939382448be2ecd06efa9662,
        type: 3}
      propertyPath: m_AnchorMax.y
      value: 0
      objectReference: {fileID: 0}
    - target: {fileID: 6636591464266677543, guid: 18470d71939382448be2ecd06efa9662,
        type: 3}
      propertyPath: m_AnchorMin.y
      value: 0
      objectReference: {fileID: 0}
    - target: {fileID: 6636591464266677543, guid: 18470d71939382448be2ecd06efa9662,
        type: 3}
      propertyPath: m_SizeDelta.x
      value: 0
      objectReference: {fileID: 0}
    - target: {fileID: 6636591464266677543, guid: 18470d71939382448be2ecd06efa9662,
        type: 3}
      propertyPath: m_SizeDelta.y
      value: 0
      objectReference: {fileID: 0}
    - target: {fileID: 6636591464266677543, guid: 18470d71939382448be2ecd06efa9662,
        type: 3}
      propertyPath: m_AnchoredPosition.y
      value: 0
      objectReference: {fileID: 0}
    - target: {fileID: 7614231224962994365, guid: 18470d71939382448be2ecd06efa9662,
        type: 3}
      propertyPath: m_Mesh
      value: 
      objectReference: {fileID: 0}
    - target: {fileID: 7614231224962994371, guid: 18470d71939382448be2ecd06efa9662,
        type: 3}
      propertyPath: m_textInfo.lineCount
      value: 0
      objectReference: {fileID: 0}
    - target: {fileID: 7614231224962994371, guid: 18470d71939382448be2ecd06efa9662,
        type: 3}
      propertyPath: m_textInfo.pageCount
      value: 0
      objectReference: {fileID: 0}
    - target: {fileID: 7614231224962994371, guid: 18470d71939382448be2ecd06efa9662,
        type: 3}
      propertyPath: m_textInfo.wordCount
      value: 0
      objectReference: {fileID: 0}
    - target: {fileID: 7614231224962994371, guid: 18470d71939382448be2ecd06efa9662,
        type: 3}
      propertyPath: m_textInfo.characterCount
      value: 0
      objectReference: {fileID: 0}
    - target: {fileID: 7614231225992287546, guid: 18470d71939382448be2ecd06efa9662,
        type: 3}
      propertyPath: m_Name
      value: SceneDescriptionPanelRev
      objectReference: {fileID: 0}
    - target: {fileID: 7614231225992287546, guid: 18470d71939382448be2ecd06efa9662,
        type: 3}
      propertyPath: m_IsActive
      value: 1
      objectReference: {fileID: 0}
    - target: {fileID: 7614231225992287547, guid: 18470d71939382448be2ecd06efa9662,
        type: 3}
      propertyPath: m_RootOrder
      value: 3
      objectReference: {fileID: 0}
    - target: {fileID: 7614231225992287547, guid: 18470d71939382448be2ecd06efa9662,
        type: 3}
      propertyPath: m_LocalPosition.x
      value: 0.333
      objectReference: {fileID: 0}
    - target: {fileID: 7614231225992287547, guid: 18470d71939382448be2ecd06efa9662,
        type: 3}
      propertyPath: m_LocalPosition.y
      value: 0.128
      objectReference: {fileID: 0}
    - target: {fileID: 7614231225992287547, guid: 18470d71939382448be2ecd06efa9662,
        type: 3}
      propertyPath: m_LocalPosition.z
      value: 0.438
      objectReference: {fileID: 0}
    - target: {fileID: 7614231225992287547, guid: 18470d71939382448be2ecd06efa9662,
        type: 3}
      propertyPath: m_LocalRotation.w
      value: 0.9657686
      objectReference: {fileID: 0}
    - target: {fileID: 7614231225992287547, guid: 18470d71939382448be2ecd06efa9662,
        type: 3}
      propertyPath: m_LocalRotation.x
      value: -0
      objectReference: {fileID: 0}
    - target: {fileID: 7614231225992287547, guid: 18470d71939382448be2ecd06efa9662,
        type: 3}
      propertyPath: m_LocalRotation.y
      value: 0.25940523
      objectReference: {fileID: 0}
    - target: {fileID: 7614231225992287547, guid: 18470d71939382448be2ecd06efa9662,
        type: 3}
      propertyPath: m_LocalRotation.z
      value: -0
      objectReference: {fileID: 0}
    - target: {fileID: 7614231225992287547, guid: 18470d71939382448be2ecd06efa9662,
        type: 3}
      propertyPath: m_LocalEulerAnglesHint.x
      value: 0
      objectReference: {fileID: 0}
    - target: {fileID: 7614231225992287547, guid: 18470d71939382448be2ecd06efa9662,
        type: 3}
      propertyPath: m_LocalEulerAnglesHint.y
      value: 30.070002
      objectReference: {fileID: 0}
    - target: {fileID: 7614231225992287547, guid: 18470d71939382448be2ecd06efa9662,
        type: 3}
      propertyPath: m_LocalEulerAnglesHint.z
      value: 0
      objectReference: {fileID: 0}
    - target: {fileID: 7614231226555770154, guid: 18470d71939382448be2ecd06efa9662,
        type: 3}
      propertyPath: m_Mesh
      value: 
      objectReference: {fileID: 0}
    - target: {fileID: 7614231226555770156, guid: 18470d71939382448be2ecd06efa9662,
        type: 3}
      propertyPath: m_textInfo.lineCount
      value: 0
      objectReference: {fileID: 0}
    - target: {fileID: 7614231226555770156, guid: 18470d71939382448be2ecd06efa9662,
        type: 3}
      propertyPath: m_textInfo.pageCount
      value: 0
      objectReference: {fileID: 0}
    - target: {fileID: 7614231226555770156, guid: 18470d71939382448be2ecd06efa9662,
        type: 3}
      propertyPath: m_textInfo.wordCount
      value: 0
      objectReference: {fileID: 0}
    - target: {fileID: 7614231226555770156, guid: 18470d71939382448be2ecd06efa9662,
        type: 3}
      propertyPath: m_textInfo.spaceCount
      value: 0
      objectReference: {fileID: 0}
    - target: {fileID: 7614231226555770156, guid: 18470d71939382448be2ecd06efa9662,
        type: 3}
      propertyPath: m_textInfo.characterCount
      value: 0
      objectReference: {fileID: 0}
    - target: {fileID: 8239495094510916357, guid: 18470d71939382448be2ecd06efa9662,
        type: 3}
      propertyPath: m_AnchorMax.y
      value: 0
      objectReference: {fileID: 0}
    - target: {fileID: 8239495094510916357, guid: 18470d71939382448be2ecd06efa9662,
        type: 3}
      propertyPath: m_AnchorMin.y
      value: 0
      objectReference: {fileID: 0}
    - target: {fileID: 8239495094510916357, guid: 18470d71939382448be2ecd06efa9662,
        type: 3}
      propertyPath: m_AnchoredPosition.x
      value: 0
      objectReference: {fileID: 0}
    - target: {fileID: 8239495094510916357, guid: 18470d71939382448be2ecd06efa9662,
        type: 3}
      propertyPath: m_AnchoredPosition.y
      value: 0
      objectReference: {fileID: 0}
    m_RemovedComponents: []
  m_SourcePrefab: {fileID: 100100000, guid: 18470d71939382448be2ecd06efa9662, type: 3}
--- !u!4 &1130848215 stripped
Transform:
  m_CorrespondingSourceObject: {fileID: 7614231225784487121, guid: 18470d71939382448be2ecd06efa9662,
    type: 3}
  m_PrefabInstance: {fileID: 1130848214}
  m_PrefabAsset: {fileID: 0}
--- !u!1 &1130848216 stripped
GameObject:
  m_CorrespondingSourceObject: {fileID: 7614231225784487120, guid: 18470d71939382448be2ecd06efa9662,
    type: 3}
  m_PrefabInstance: {fileID: 1130848214}
  m_PrefabAsset: {fileID: 0}
--- !u!114 &1130848217
MonoBehaviour:
  m_ObjectHideFlags: 0
  m_CorrespondingSourceObject: {fileID: 0}
  m_PrefabInstance: {fileID: 0}
  m_PrefabAsset: {fileID: 0}
  m_GameObject: {fileID: 1130848216}
  m_Enabled: 1
  m_EditorHideFlags: 0
  m_Script: {fileID: 11500000, guid: a98de877dee5fc341b4eb59dfdab266c, type: 3}
  m_Name: 
  m_EditorClassIdentifier: 
  autoConstraintSelection: 1
  selectedConstraints: []
--- !u!1001 &1193725263
PrefabInstance:
  m_ObjectHideFlags: 0
  serializedVersion: 2
  m_Modification:
    m_TransformParent: {fileID: 1671105483}
    m_Modifications:
    - target: {fileID: 1012395828249241974, guid: 247dc8aebe30ca2408e8293a883c75df,
        type: 3}
      propertyPath: m_Mesh
      value: 
      objectReference: {fileID: 0}
    - target: {fileID: 1537115806125884074, guid: 247dc8aebe30ca2408e8293a883c75df,
        type: 3}
      propertyPath: m_textInfo.lineCount
      value: 0
      objectReference: {fileID: 0}
    - target: {fileID: 1537115806125884074, guid: 247dc8aebe30ca2408e8293a883c75df,
        type: 3}
      propertyPath: m_textInfo.pageCount
      value: 0
      objectReference: {fileID: 0}
    - target: {fileID: 1537115806125884074, guid: 247dc8aebe30ca2408e8293a883c75df,
        type: 3}
      propertyPath: m_textInfo.wordCount
      value: 0
      objectReference: {fileID: 0}
    - target: {fileID: 1537115806125884074, guid: 247dc8aebe30ca2408e8293a883c75df,
        type: 3}
      propertyPath: m_textInfo.spaceCount
      value: 0
      objectReference: {fileID: 0}
    - target: {fileID: 1537115806125884074, guid: 247dc8aebe30ca2408e8293a883c75df,
        type: 3}
      propertyPath: m_textInfo.characterCount
      value: 0
      objectReference: {fileID: 0}
    - target: {fileID: 8215610606298197891, guid: 247dc8aebe30ca2408e8293a883c75df,
        type: 3}
      propertyPath: m_LocalScale.x
      value: 1
      objectReference: {fileID: 0}
    - target: {fileID: 8215610606298197891, guid: 247dc8aebe30ca2408e8293a883c75df,
        type: 3}
      propertyPath: m_LocalScale.y
      value: 1
      objectReference: {fileID: 0}
    - target: {fileID: 8215610606298197891, guid: 247dc8aebe30ca2408e8293a883c75df,
        type: 3}
      propertyPath: m_LocalScale.z
      value: 1
      objectReference: {fileID: 0}
    - target: {fileID: 8217189920156946147, guid: 247dc8aebe30ca2408e8293a883c75df,
        type: 3}
      propertyPath: m_IsActive
      value: 1
      objectReference: {fileID: 0}
    - target: {fileID: 8219002942482847169, guid: 247dc8aebe30ca2408e8293a883c75df,
        type: 3}
      propertyPath: m_Name
      value: Title
      objectReference: {fileID: 0}
    - target: {fileID: 8222481329602893483, guid: 247dc8aebe30ca2408e8293a883c75df,
        type: 3}
      propertyPath: m_RootOrder
      value: 0
      objectReference: {fileID: 0}
    - target: {fileID: 8222481329602893483, guid: 247dc8aebe30ca2408e8293a883c75df,
        type: 3}
      propertyPath: m_LocalPosition.x
      value: 0
      objectReference: {fileID: 0}
    - target: {fileID: 8222481329602893483, guid: 247dc8aebe30ca2408e8293a883c75df,
        type: 3}
      propertyPath: m_LocalPosition.y
      value: 0
      objectReference: {fileID: 0}
    - target: {fileID: 8222481329602893483, guid: 247dc8aebe30ca2408e8293a883c75df,
        type: 3}
      propertyPath: m_LocalPosition.z
      value: 0
      objectReference: {fileID: 0}
    - target: {fileID: 8222481329602893483, guid: 247dc8aebe30ca2408e8293a883c75df,
        type: 3}
      propertyPath: m_LocalRotation.w
      value: 1
      objectReference: {fileID: 0}
    - target: {fileID: 8222481329602893483, guid: 247dc8aebe30ca2408e8293a883c75df,
        type: 3}
      propertyPath: m_LocalRotation.x
      value: -0
      objectReference: {fileID: 0}
    - target: {fileID: 8222481329602893483, guid: 247dc8aebe30ca2408e8293a883c75df,
        type: 3}
      propertyPath: m_LocalRotation.y
      value: -0
      objectReference: {fileID: 0}
    - target: {fileID: 8222481329602893483, guid: 247dc8aebe30ca2408e8293a883c75df,
        type: 3}
      propertyPath: m_LocalRotation.z
      value: -0
      objectReference: {fileID: 0}
    - target: {fileID: 8222481329602893483, guid: 247dc8aebe30ca2408e8293a883c75df,
        type: 3}
      propertyPath: m_LocalEulerAnglesHint.x
      value: 0
      objectReference: {fileID: 0}
    - target: {fileID: 8222481329602893483, guid: 247dc8aebe30ca2408e8293a883c75df,
        type: 3}
      propertyPath: m_LocalEulerAnglesHint.y
      value: 0
      objectReference: {fileID: 0}
    - target: {fileID: 8222481329602893483, guid: 247dc8aebe30ca2408e8293a883c75df,
        type: 3}
      propertyPath: m_LocalEulerAnglesHint.z
      value: 0
      objectReference: {fileID: 0}
    - target: {fileID: 8222532591322807229, guid: 247dc8aebe30ca2408e8293a883c75df,
        type: 3}
      propertyPath: m_LocalPosition.x
      value: -0.0013665557
      objectReference: {fileID: 0}
    - target: {fileID: 8222532591322807229, guid: 247dc8aebe30ca2408e8293a883c75df,
        type: 3}
      propertyPath: m_LocalPosition.y
      value: 0.20231265
      objectReference: {fileID: 0}
    - target: {fileID: 8222532591322807229, guid: 247dc8aebe30ca2408e8293a883c75df,
        type: 3}
      propertyPath: m_LocalPosition.z
      value: 0.008024573
      objectReference: {fileID: 0}
    - target: {fileID: 8222863950748663225, guid: 247dc8aebe30ca2408e8293a883c75df,
        type: 3}
      propertyPath: m_LocalScale.x
      value: 0.17524663
      objectReference: {fileID: 0}
    - target: {fileID: 8222863950748663225, guid: 247dc8aebe30ca2408e8293a883c75df,
        type: 3}
      propertyPath: m_LocalScale.y
      value: 0.04692568
      objectReference: {fileID: 0}
    - target: {fileID: 8329787883158438443, guid: 247dc8aebe30ca2408e8293a883c75df,
        type: 3}
      propertyPath: fontSize
      value: 24
      objectReference: {fileID: 0}
    - target: {fileID: 8329787883158438443, guid: 247dc8aebe30ca2408e8293a883c75df,
        type: 3}
      propertyPath: toolTipText
      value: Interactive Element Examples
      objectReference: {fileID: 0}
    - target: {fileID: 8329787883158438443, guid: 247dc8aebe30ca2408e8293a883c75df,
        type: 3}
      propertyPath: contentScale
      value: 1
      objectReference: {fileID: 0}
    m_RemovedComponents: []
  m_SourcePrefab: {fileID: 100100000, guid: 247dc8aebe30ca2408e8293a883c75df, type: 3}
--- !u!4 &1193725264 stripped
Transform:
  m_CorrespondingSourceObject: {fileID: 8222481329602893483, guid: 247dc8aebe30ca2408e8293a883c75df,
    type: 3}
  m_PrefabInstance: {fileID: 1193725263}
  m_PrefabAsset: {fileID: 0}
--- !u!1 &1279934714
GameObject:
  m_ObjectHideFlags: 0
  m_CorrespondingSourceObject: {fileID: 0}
  m_PrefabInstance: {fileID: 0}
  m_PrefabAsset: {fileID: 0}
  serializedVersion: 6
  m_Component:
  - component: {fileID: 1279934715}
  - component: {fileID: 1279934721}
  - component: {fileID: 1279934720}
  - component: {fileID: 1279934719}
  - component: {fileID: 1279934718}
  - component: {fileID: 1279934717}
  m_Layer: 0
  m_Name: BasicNearFarTouchToggle
  m_TagString: Untagged
  m_Icon: {fileID: 0}
  m_NavMeshLayer: 0
  m_StaticEditorFlags: 0
  m_IsActive: 1
--- !u!4 &1279934715
Transform:
  m_ObjectHideFlags: 0
  m_CorrespondingSourceObject: {fileID: 0}
  m_PrefabInstance: {fileID: 0}
  m_PrefabAsset: {fileID: 0}
  m_GameObject: {fileID: 1279934714}
  m_LocalRotation: {x: -0, y: -0, z: -0, w: 1}
  m_LocalPosition: {x: 0.111, y: 0, z: 0}
  m_LocalScale: {x: 0.1, y: 0.1, z: 0.1}
  m_Children:
  - {fileID: 739718194}
  m_Father: {fileID: 1534546375}
  m_RootOrder: 1
  m_LocalEulerAnglesHint: {x: 0, y: 0, z: 0}
--- !u!114 &1279934717
MonoBehaviour:
  m_ObjectHideFlags: 0
  m_CorrespondingSourceObject: {fileID: 0}
  m_PrefabInstance: {fileID: 0}
  m_PrefabAsset: {fileID: 0}
  m_GameObject: {fileID: 1279934714}
  m_Enabled: 1
  m_EditorHideFlags: 0
  m_Script: {fileID: 11500000, guid: 183e8dd8b58276c4a8f2b807059981b8, type: 3}
  m_Name: 
  m_EditorClassIdentifier: 
  eventsToReceive: 0
  debounceThreshold: 0.01
  touchableCollider: {fileID: 1279934719}
--- !u!114 &1279934718
MonoBehaviour:
  m_ObjectHideFlags: 0
  m_CorrespondingSourceObject: {fileID: 0}
  m_PrefabInstance: {fileID: 0}
  m_PrefabAsset: {fileID: 0}
  m_GameObject: {fileID: 1279934714}
  m_Enabled: 1
  m_EditorHideFlags: 0
  m_Script: {fileID: 11500000, guid: 1e797919e540eaa4c82b55c0d0be1a40, type: 3}
  m_Name: 
  m_EditorClassIdentifier: 
  active: 1
  states:
  - stateName: Default
    stateValue: 0
    active: 0
    interactionType: 4
    eventConfiguration:
      id: 0
  - stateName: Focus
    stateValue: 0
    active: 0
    interactionType: 3
    eventConfiguration:
      id: 1
  - stateName: Touch
    stateValue: 0
    active: 0
    interactionType: 1
    eventConfiguration:
      id: 2
  - stateName: SelectFar
    stateValue: 0
    active: 0
    interactionType: 2
    eventConfiguration:
      id: 3
  - stateName: Clicked
    stateValue: 0
    active: 0
    interactionType: 4
    eventConfiguration:
      id: 4
  - stateName: ToggleOn
    stateValue: 0
    active: 0
    interactionType: 4
    eventConfiguration:
      id: 5
  - stateName: ToggleOff
    stateValue: 0
    active: 0
    interactionType: 4
    eventConfiguration:
      id: 6
  references:
    version: 1
    00000000:
      type: {class: StateEvents, ns: Microsoft.MixedReality.Toolkit.Experimental.InteractiveElement,
        asm: Microsoft.MixedReality.Toolkit.SDK.Experimental.Interactive}
      data:
        stateName: Default
        OnStateOn:
          m_PersistentCalls:
            m_Calls: []
        OnStateOff:
          m_PersistentCalls:
            m_Calls: []
    00000001:
      type: {class: FocusEvents, ns: Microsoft.MixedReality.Toolkit.Experimental.InteractiveElement,
        asm: Microsoft.MixedReality.Toolkit.SDK.Experimental.Interactive}
      data:
        stateName: Focus
        OnFocusOn:
          m_PersistentCalls:
            m_Calls: []
        OnFocusOff:
          m_PersistentCalls:
            m_Calls: []
    00000002:
      type: {class: TouchEvents, ns: Microsoft.MixedReality.Toolkit.Experimental.InteractiveElement,
        asm: Microsoft.MixedReality.Toolkit.SDK.Experimental.Interactive}
      data:
        stateName: Touch
        OnTouchStarted:
          m_PersistentCalls:
            m_Calls: []
        OnTouchCompleted:
          m_PersistentCalls:
            m_Calls:
            - m_Target: {fileID: 1279934718}
              m_TargetAssemblyTypeName: 
              m_MethodName: SetToggleStates
              m_Mode: 1
              m_Arguments:
                m_ObjectArgument: {fileID: 0}
                m_ObjectArgumentAssemblyTypeName: UnityEngine.Object, UnityEngine
                m_IntArgument: 0
                m_FloatArgument: 0
                m_StringArgument: 
                m_BoolArgument: 0
              m_CallState: 2
        OnTouchUpdated:
          m_PersistentCalls:
            m_Calls: []
    00000003:
      type: {class: SelectFarEvents, ns: Microsoft.MixedReality.Toolkit.Experimental.InteractiveElement,
        asm: Microsoft.MixedReality.Toolkit.SDK.Experimental.Interactive}
      data:
        stateName: SelectFar
        global: 0
        OnGlobalChanged:
          m_PersistentCalls:
            m_Calls: []
        OnSelectDown:
          m_PersistentCalls:
            m_Calls: []
        OnSelectUp:
          m_PersistentCalls:
            m_Calls: []
        OnSelectHold:
          m_PersistentCalls:
            m_Calls: []
        OnSelectClicked:
          m_PersistentCalls:
            m_Calls: []
    00000004:
      type: {class: ClickedEvents, ns: Microsoft.MixedReality.Toolkit.Experimental.InteractiveElement,
        asm: Microsoft.MixedReality.Toolkit.SDK.Experimental.Interactive}
      data:
        stateName: Clicked
        OnClicked:
          m_PersistentCalls:
            m_Calls: []
    00000005:
      type: {class: ToggleOnEvents, ns: Microsoft.MixedReality.Toolkit.Experimental.InteractiveElement,
        asm: Microsoft.MixedReality.Toolkit.SDK.Experimental.Interactive}
      data:
        stateName: ToggleOn
        isSelectedOnStart: 0
        OnToggleOn:
          m_PersistentCalls:
            m_Calls:
            - m_Target: {fileID: 1279934720}
              m_TargetAssemblyTypeName: 
              m_MethodName: set_material
              m_Mode: 2
              m_Arguments:
                m_ObjectArgument: {fileID: 2100000, guid: b0fcdc3322e34d9ea83e8399bd9f4031,
                  type: 2}
                m_ObjectArgumentAssemblyTypeName: UnityEngine.Material, UnityEngine
                m_IntArgument: 0
                m_FloatArgument: 0
                m_StringArgument: 
                m_BoolArgument: 0
              m_CallState: 2
    00000006:
      type: {class: ToggleOffEvents, ns: Microsoft.MixedReality.Toolkit.Experimental.InteractiveElement,
        asm: Microsoft.MixedReality.Toolkit.SDK.Experimental.Interactive}
      data:
        stateName: ToggleOff
        OnToggleOff:
          m_PersistentCalls:
            m_Calls:
            - m_Target: {fileID: 1279934720}
              m_TargetAssemblyTypeName: 
              m_MethodName: set_material
              m_Mode: 2
              m_Arguments:
                m_ObjectArgument: {fileID: 2100000, guid: 835cb4a58f172d7478801db95e510f56,
                  type: 2}
                m_ObjectArgumentAssemblyTypeName: UnityEngine.Material, UnityEngine
                m_IntArgument: 0
                m_FloatArgument: 0
                m_StringArgument: 
                m_BoolArgument: 0
              m_CallState: 2
--- !u!65 &1279934719
BoxCollider:
  m_ObjectHideFlags: 0
  m_CorrespondingSourceObject: {fileID: 0}
  m_PrefabInstance: {fileID: 0}
  m_PrefabAsset: {fileID: 0}
  m_GameObject: {fileID: 1279934714}
  m_Material: {fileID: 0}
  m_IsTrigger: 0
  m_Enabled: 1
  serializedVersion: 2
  m_Size: {x: 1, y: 1, z: 1}
  m_Center: {x: 0, y: 0, z: 0}
--- !u!23 &1279934720
MeshRenderer:
  m_ObjectHideFlags: 0
  m_CorrespondingSourceObject: {fileID: 0}
  m_PrefabInstance: {fileID: 0}
  m_PrefabAsset: {fileID: 0}
  m_GameObject: {fileID: 1279934714}
  m_Enabled: 1
  m_CastShadows: 1
  m_ReceiveShadows: 1
  m_DynamicOccludee: 1
  m_StaticShadowCaster: 0
  m_MotionVectors: 1
  m_LightProbeUsage: 1
  m_ReflectionProbeUsage: 1
  m_RayTracingMode: 2
  m_RayTraceProcedural: 0
  m_RenderingLayerMask: 1
  m_RendererPriority: 0
  m_Materials:
  - {fileID: 10303, guid: 0000000000000000f000000000000000, type: 0}
  m_StaticBatchInfo:
    firstSubMesh: 0
    subMeshCount: 0
  m_StaticBatchRoot: {fileID: 0}
  m_ProbeAnchor: {fileID: 0}
  m_LightProbeVolumeOverride: {fileID: 0}
  m_ScaleInLightmap: 1
  m_ReceiveGI: 1
  m_PreserveUVs: 0
  m_IgnoreNormalsForChartDetection: 0
  m_ImportantGI: 0
  m_StitchLightmapSeams: 1
  m_SelectedEditorRenderState: 3
  m_MinimumChartSize: 4
  m_AutoUVMaxDistance: 0.5
  m_AutoUVMaxAngle: 89
  m_LightmapParameters: {fileID: 0}
  m_SortingLayerID: 0
  m_SortingLayer: 0
  m_SortingOrder: 0
  m_AdditionalVertexStreams: {fileID: 0}
--- !u!33 &1279934721
MeshFilter:
  m_ObjectHideFlags: 0
  m_CorrespondingSourceObject: {fileID: 0}
  m_PrefabInstance: {fileID: 0}
  m_PrefabAsset: {fileID: 0}
  m_GameObject: {fileID: 1279934714}
  m_Mesh: {fileID: 10202, guid: 0000000000000000e000000000000000, type: 0}
--- !u!1 &1534546374
GameObject:
  m_ObjectHideFlags: 0
  m_CorrespondingSourceObject: {fileID: 0}
  m_PrefabInstance: {fileID: 0}
  m_PrefabAsset: {fileID: 0}
  serializedVersion: 6
  m_Component:
  - component: {fileID: 1534546375}
  m_Layer: 0
  m_Name: InteractiveElementContainer
  m_TagString: Untagged
  m_Icon: {fileID: 0}
  m_NavMeshLayer: 0
  m_StaticEditorFlags: 0
  m_IsActive: 1
--- !u!4 &1534546375
Transform:
  m_ObjectHideFlags: 0
  m_CorrespondingSourceObject: {fileID: 0}
  m_PrefabInstance: {fileID: 0}
  m_PrefabAsset: {fileID: 0}
  m_GameObject: {fileID: 1534546374}
  m_LocalRotation: {x: 0, y: 0, z: 0, w: 1}
  m_LocalPosition: {x: -0.115, y: 0, z: 0}
  m_LocalScale: {x: 1, y: 1, z: 1}
  m_Children:
  - {fileID: 922089766}
  - {fileID: 1279934715}
  - {fileID: 2082767159}
  m_Father: {fileID: 1671105483}
  m_RootOrder: 1
  m_LocalEulerAnglesHint: {x: 0, y: 0, z: 0}
--- !u!1001 &1535796466
PrefabInstance:
  m_ObjectHideFlags: 0
  serializedVersion: 2
  m_Modification:
    m_TransformParent: {fileID: 887647636}
    m_Modifications:
    - target: {fileID: 1012395828249241974, guid: 247dc8aebe30ca2408e8293a883c75df,
        type: 3}
      propertyPath: m_Mesh
      value: 
      objectReference: {fileID: 0}
    - target: {fileID: 1537115806125884074, guid: 247dc8aebe30ca2408e8293a883c75df,
        type: 3}
      propertyPath: m_textInfo.lineCount
      value: 0
      objectReference: {fileID: 0}
    - target: {fileID: 1537115806125884074, guid: 247dc8aebe30ca2408e8293a883c75df,
        type: 3}
      propertyPath: m_textInfo.pageCount
      value: 0
      objectReference: {fileID: 0}
    - target: {fileID: 1537115806125884074, guid: 247dc8aebe30ca2408e8293a883c75df,
        type: 3}
      propertyPath: m_textInfo.wordCount
      value: 0
      objectReference: {fileID: 0}
    - target: {fileID: 1537115806125884074, guid: 247dc8aebe30ca2408e8293a883c75df,
        type: 3}
      propertyPath: m_textInfo.spaceCount
      value: 0
      objectReference: {fileID: 0}
    - target: {fileID: 1537115806125884074, guid: 247dc8aebe30ca2408e8293a883c75df,
        type: 3}
      propertyPath: m_textInfo.characterCount
      value: 0
      objectReference: {fileID: 0}
    - target: {fileID: 8215610606298197891, guid: 247dc8aebe30ca2408e8293a883c75df,
        type: 3}
      propertyPath: m_LocalScale.x
      value: 1
      objectReference: {fileID: 0}
    - target: {fileID: 8215610606298197891, guid: 247dc8aebe30ca2408e8293a883c75df,
        type: 3}
      propertyPath: m_LocalScale.y
      value: 1
      objectReference: {fileID: 0}
    - target: {fileID: 8215610606298197891, guid: 247dc8aebe30ca2408e8293a883c75df,
        type: 3}
      propertyPath: m_LocalScale.z
      value: 1
      objectReference: {fileID: 0}
    - target: {fileID: 8217189920156946147, guid: 247dc8aebe30ca2408e8293a883c75df,
        type: 3}
      propertyPath: m_IsActive
      value: 1
      objectReference: {fileID: 0}
    - target: {fileID: 8219002942482847169, guid: 247dc8aebe30ca2408e8293a883c75df,
        type: 3}
      propertyPath: m_Name
      value: Title
      objectReference: {fileID: 0}
    - target: {fileID: 8222481329602893483, guid: 247dc8aebe30ca2408e8293a883c75df,
        type: 3}
      propertyPath: m_RootOrder
      value: 0
      objectReference: {fileID: 0}
    - target: {fileID: 8222481329602893483, guid: 247dc8aebe30ca2408e8293a883c75df,
        type: 3}
      propertyPath: m_LocalPosition.x
      value: 0
      objectReference: {fileID: 0}
    - target: {fileID: 8222481329602893483, guid: 247dc8aebe30ca2408e8293a883c75df,
        type: 3}
      propertyPath: m_LocalPosition.y
      value: 0
      objectReference: {fileID: 0}
    - target: {fileID: 8222481329602893483, guid: 247dc8aebe30ca2408e8293a883c75df,
        type: 3}
      propertyPath: m_LocalPosition.z
      value: 0.054
      objectReference: {fileID: 0}
    - target: {fileID: 8222481329602893483, guid: 247dc8aebe30ca2408e8293a883c75df,
        type: 3}
      propertyPath: m_LocalRotation.w
      value: 1
      objectReference: {fileID: 0}
    - target: {fileID: 8222481329602893483, guid: 247dc8aebe30ca2408e8293a883c75df,
        type: 3}
      propertyPath: m_LocalRotation.x
      value: 0
      objectReference: {fileID: 0}
    - target: {fileID: 8222481329602893483, guid: 247dc8aebe30ca2408e8293a883c75df,
        type: 3}
      propertyPath: m_LocalRotation.y
      value: 0
      objectReference: {fileID: 0}
    - target: {fileID: 8222481329602893483, guid: 247dc8aebe30ca2408e8293a883c75df,
        type: 3}
      propertyPath: m_LocalRotation.z
      value: 0
      objectReference: {fileID: 0}
    - target: {fileID: 8222481329602893483, guid: 247dc8aebe30ca2408e8293a883c75df,
        type: 3}
      propertyPath: m_LocalEulerAnglesHint.x
      value: 0
      objectReference: {fileID: 0}
    - target: {fileID: 8222481329602893483, guid: 247dc8aebe30ca2408e8293a883c75df,
        type: 3}
      propertyPath: m_LocalEulerAnglesHint.y
      value: 0
      objectReference: {fileID: 0}
    - target: {fileID: 8222481329602893483, guid: 247dc8aebe30ca2408e8293a883c75df,
        type: 3}
      propertyPath: m_LocalEulerAnglesHint.z
      value: 0
      objectReference: {fileID: 0}
    - target: {fileID: 8222532591322807229, guid: 247dc8aebe30ca2408e8293a883c75df,
        type: 3}
      propertyPath: m_LocalPosition.x
      value: -0.009601593
      objectReference: {fileID: 0}
    - target: {fileID: 8222532591322807229, guid: 247dc8aebe30ca2408e8293a883c75df,
        type: 3}
      propertyPath: m_LocalPosition.y
      value: 0.07782328
      objectReference: {fileID: 0}
    - target: {fileID: 8222532591322807229, guid: 247dc8aebe30ca2408e8293a883c75df,
        type: 3}
      propertyPath: m_LocalPosition.z
      value: -0.046150446
      objectReference: {fileID: 0}
    - target: {fileID: 8222863950748663225, guid: 247dc8aebe30ca2408e8293a883c75df,
        type: 3}
      propertyPath: m_LocalScale.x
      value: 0.21690203
      objectReference: {fileID: 0}
    - target: {fileID: 8222863950748663225, guid: 247dc8aebe30ca2408e8293a883c75df,
        type: 3}
      propertyPath: m_LocalScale.y
      value: 0.04692568
      objectReference: {fileID: 0}
    - target: {fileID: 8329787883158438443, guid: 247dc8aebe30ca2408e8293a883c75df,
        type: 3}
      propertyPath: fontSize
      value: 24
      objectReference: {fileID: 0}
    - target: {fileID: 8329787883158438443, guid: 247dc8aebe30ca2408e8293a883c75df,
        type: 3}
      propertyPath: toolTipText
      value: Interactive Element + State Visualizer Buttons
      objectReference: {fileID: 0}
    - target: {fileID: 8329787883158438443, guid: 247dc8aebe30ca2408e8293a883c75df,
        type: 3}
      propertyPath: contentScale
      value: 1
      objectReference: {fileID: 0}
    m_RemovedComponents: []
  m_SourcePrefab: {fileID: 100100000, guid: 247dc8aebe30ca2408e8293a883c75df, type: 3}
--- !u!4 &1535796467 stripped
Transform:
  m_CorrespondingSourceObject: {fileID: 8222481329602893483, guid: 247dc8aebe30ca2408e8293a883c75df,
    type: 3}
  m_PrefabInstance: {fileID: 1535796466}
  m_PrefabAsset: {fileID: 0}
--- !u!1 &1671105482
GameObject:
  m_ObjectHideFlags: 0
  m_CorrespondingSourceObject: {fileID: 0}
  m_PrefabInstance: {fileID: 0}
  m_PrefabAsset: {fileID: 0}
  serializedVersion: 6
  m_Component:
  - component: {fileID: 1671105483}
  m_Layer: 0
  m_Name: InteractiveElementExamples
  m_TagString: Untagged
  m_Icon: {fileID: 0}
  m_NavMeshLayer: 0
  m_StaticEditorFlags: 0
  m_IsActive: 1
--- !u!4 &1671105483
Transform:
  m_ObjectHideFlags: 0
  m_CorrespondingSourceObject: {fileID: 0}
  m_PrefabInstance: {fileID: 0}
  m_PrefabAsset: {fileID: 0}
  m_GameObject: {fileID: 1671105482}
  m_LocalRotation: {x: 0, y: 0, z: 0, w: 1}
  m_LocalPosition: {x: -0.2597, y: 0.073, z: 0.592}
  m_LocalScale: {x: 1, y: 1, z: 1}
  m_Children:
  - {fileID: 1193725264}
  - {fileID: 1534546375}
  m_Father: {fileID: 0}
  m_RootOrder: 5
  m_LocalEulerAnglesHint: {x: 0, y: 0, z: 0}
--- !u!1 &1749137387
GameObject:
  m_ObjectHideFlags: 0
  m_CorrespondingSourceObject: {fileID: 0}
  m_PrefabInstance: {fileID: 0}
  m_PrefabAsset: {fileID: 0}
  serializedVersion: 6
  m_Component:
  - component: {fileID: 1749137389}
  - component: {fileID: 1749137388}
  m_Layer: 0
  m_Name: MixedRealityToolkit
  m_TagString: Untagged
  m_Icon: {fileID: 0}
  m_NavMeshLayer: 0
  m_StaticEditorFlags: 0
  m_IsActive: 1
--- !u!114 &1749137388
MonoBehaviour:
  m_ObjectHideFlags: 0
  m_CorrespondingSourceObject: {fileID: 0}
  m_PrefabInstance: {fileID: 0}
  m_PrefabAsset: {fileID: 0}
  m_GameObject: {fileID: 1749137387}
  m_Enabled: 1
  m_EditorHideFlags: 0
  m_Script: {fileID: 11500000, guid: 83d9acc7968244a8886f3af591305bcb, type: 3}
  m_Name: 
  m_EditorClassIdentifier: 
  activeProfile: {fileID: 11400000, guid: 31a611a779d3499e8e35f1a2018ca841, type: 2}
--- !u!4 &1749137389
Transform:
  m_ObjectHideFlags: 0
  m_CorrespondingSourceObject: {fileID: 0}
  m_PrefabInstance: {fileID: 0}
  m_PrefabAsset: {fileID: 0}
  m_GameObject: {fileID: 1749137387}
  m_LocalRotation: {x: 0, y: 0, z: 0, w: 1}
  m_LocalPosition: {x: 0, y: 0, z: 0}
  m_LocalScale: {x: 1, y: 1, z: 1}
  m_Children: []
  m_Father: {fileID: 0}
  m_RootOrder: 1
  m_LocalEulerAnglesHint: {x: 0, y: 0, z: 0}
--- !u!1 &2046804823
GameObject:
  m_ObjectHideFlags: 0
  m_CorrespondingSourceObject: {fileID: 0}
  m_PrefabInstance: {fileID: 0}
  m_PrefabAsset: {fileID: 0}
  serializedVersion: 6
  m_Component:
  - component: {fileID: 2046804824}
  m_Layer: 0
  m_Name: MixedRealityPlayspace
  m_TagString: Untagged
  m_Icon: {fileID: 0}
  m_NavMeshLayer: 0
  m_StaticEditorFlags: 0
  m_IsActive: 1
--- !u!4 &2046804824
Transform:
  m_ObjectHideFlags: 0
  m_CorrespondingSourceObject: {fileID: 0}
  m_PrefabInstance: {fileID: 0}
  m_PrefabAsset: {fileID: 0}
  m_GameObject: {fileID: 2046804823}
  m_LocalRotation: {x: 0, y: 0, z: 0, w: 1}
  m_LocalPosition: {x: 0, y: 0, z: 0}
  m_LocalScale: {x: 1, y: 1, z: 1}
  m_Children:
  - {fileID: 717572606}
  m_Father: {fileID: 0}
  m_RootOrder: 2
  m_LocalEulerAnglesHint: {x: 0, y: 0, z: 0}
--- !u!1 &2082767155
GameObject:
  m_ObjectHideFlags: 0
  m_CorrespondingSourceObject: {fileID: 0}
  m_PrefabInstance: {fileID: 0}
  m_PrefabAsset: {fileID: 0}
  serializedVersion: 6
  m_Component:
  - component: {fileID: 2082767159}
  - component: {fileID: 2082767158}
  - component: {fileID: 2082767157}
  - component: {fileID: 2082767156}
  - component: {fileID: 2082767161}
  - component: {fileID: 2082767160}
  - component: {fileID: 2082767162}
  m_Layer: 0
  m_Name: CustomKeyboardStateExample
  m_TagString: Untagged
  m_Icon: {fileID: 0}
  m_NavMeshLayer: 0
  m_StaticEditorFlags: 0
  m_IsActive: 1
--- !u!65 &2082767156
BoxCollider:
  m_ObjectHideFlags: 0
  m_CorrespondingSourceObject: {fileID: 0}
  m_PrefabInstance: {fileID: 0}
  m_PrefabAsset: {fileID: 0}
  m_GameObject: {fileID: 2082767155}
  m_Material: {fileID: 0}
  m_IsTrigger: 0
  m_Enabled: 1
  serializedVersion: 2
  m_Size: {x: 1, y: 1, z: 1}
  m_Center: {x: 0, y: 0, z: 0}
--- !u!23 &2082767157
MeshRenderer:
  m_ObjectHideFlags: 0
  m_CorrespondingSourceObject: {fileID: 0}
  m_PrefabInstance: {fileID: 0}
  m_PrefabAsset: {fileID: 0}
  m_GameObject: {fileID: 2082767155}
  m_Enabled: 1
  m_CastShadows: 1
  m_ReceiveShadows: 1
  m_DynamicOccludee: 1
  m_StaticShadowCaster: 0
  m_MotionVectors: 1
  m_LightProbeUsage: 1
  m_ReflectionProbeUsage: 1
  m_RayTracingMode: 2
  m_RayTraceProcedural: 0
  m_RenderingLayerMask: 1
  m_RendererPriority: 0
  m_Materials:
  - {fileID: 10303, guid: 0000000000000000f000000000000000, type: 0}
  m_StaticBatchInfo:
    firstSubMesh: 0
    subMeshCount: 0
  m_StaticBatchRoot: {fileID: 0}
  m_ProbeAnchor: {fileID: 0}
  m_LightProbeVolumeOverride: {fileID: 0}
  m_ScaleInLightmap: 1
  m_ReceiveGI: 1
  m_PreserveUVs: 0
  m_IgnoreNormalsForChartDetection: 0
  m_ImportantGI: 0
  m_StitchLightmapSeams: 1
  m_SelectedEditorRenderState: 3
  m_MinimumChartSize: 4
  m_AutoUVMaxDistance: 0.5
  m_AutoUVMaxAngle: 89
  m_LightmapParameters: {fileID: 0}
  m_SortingLayerID: 0
  m_SortingLayer: 0
  m_SortingOrder: 0
  m_AdditionalVertexStreams: {fileID: 0}
--- !u!33 &2082767158
MeshFilter:
  m_ObjectHideFlags: 0
  m_CorrespondingSourceObject: {fileID: 0}
  m_PrefabInstance: {fileID: 0}
  m_PrefabAsset: {fileID: 0}
  m_GameObject: {fileID: 2082767155}
  m_Mesh: {fileID: 10202, guid: 0000000000000000e000000000000000, type: 0}
--- !u!4 &2082767159
Transform:
  m_ObjectHideFlags: 0
  m_CorrespondingSourceObject: {fileID: 0}
  m_PrefabInstance: {fileID: 0}
  m_PrefabAsset: {fileID: 0}
  m_GameObject: {fileID: 2082767155}
  m_LocalRotation: {x: -0, y: -0, z: -0, w: 1}
  m_LocalPosition: {x: 0.311, y: 0, z: 0}
  m_LocalScale: {x: 0.1, y: 0.1, z: 0.1}
  m_Children:
  - {fileID: 757133846}
  m_Father: {fileID: 1534546375}
  m_RootOrder: 2
  m_LocalEulerAnglesHint: {x: 0, y: 0, z: 0}
--- !u!114 &2082767160
MonoBehaviour:
  m_ObjectHideFlags: 0
  m_CorrespondingSourceObject: {fileID: 0}
  m_PrefabInstance: {fileID: 0}
  m_PrefabAsset: {fileID: 0}
  m_GameObject: {fileID: 2082767155}
  m_Enabled: 1
  m_EditorHideFlags: 0
  m_Script: {fileID: 11500000, guid: 183e8dd8b58276c4a8f2b807059981b8, type: 3}
  m_Name: 
  m_EditorClassIdentifier: 
  eventsToReceive: 0
  debounceThreshold: 0.01
  touchableCollider: {fileID: 2082767156}
--- !u!114 &2082767161
MonoBehaviour:
  m_ObjectHideFlags: 0
  m_CorrespondingSourceObject: {fileID: 0}
  m_PrefabInstance: {fileID: 0}
  m_PrefabAsset: {fileID: 0}
  m_GameObject: {fileID: 2082767155}
  m_Enabled: 1
  m_EditorHideFlags: 0
  m_Script: {fileID: 11500000, guid: 1e797919e540eaa4c82b55c0d0be1a40, type: 3}
  m_Name: 
  m_EditorClassIdentifier: 
  active: 1
  states:
  - stateName: Default
    stateValue: 0
    active: 0
    interactionType: 4
    eventConfiguration:
      id: 0
  - stateName: Focus
    stateValue: 0
    active: 0
    interactionType: 3
    eventConfiguration:
      id: 1
  - stateName: Touch
    stateValue: 0
    active: 0
    interactionType: 1
    eventConfiguration:
      id: 2
  - stateName: SelectFar
    stateValue: 0
    active: 0
    interactionType: 2
    eventConfiguration:
      id: 3
  - stateName: Keyboard
    stateValue: 0
    active: 0
    interactionType: 4
    eventConfiguration:
      id: 4
  references:
    version: 1
    00000000:
      type: {class: StateEvents, ns: Microsoft.MixedReality.Toolkit.Experimental.InteractiveElement,
        asm: Microsoft.MixedReality.Toolkit.SDK.Experimental.Interactive}
      data:
        stateName: Default
        OnStateOn:
          m_PersistentCalls:
            m_Calls: []
        OnStateOff:
          m_PersistentCalls:
            m_Calls: []
    00000001:
      type: {class: FocusEvents, ns: Microsoft.MixedReality.Toolkit.Experimental.InteractiveElement,
        asm: Microsoft.MixedReality.Toolkit.SDK.Experimental.Interactive}
      data:
        stateName: Focus
        OnFocusOn:
          m_PersistentCalls:
            m_Calls: []
        OnFocusOff:
          m_PersistentCalls:
            m_Calls: []
    00000002:
      type: {class: TouchEvents, ns: Microsoft.MixedReality.Toolkit.Experimental.InteractiveElement,
        asm: Microsoft.MixedReality.Toolkit.SDK.Experimental.Interactive}
      data:
        stateName: Touch
        OnTouchStarted:
          m_PersistentCalls:
            m_Calls: []
        OnTouchCompleted:
          m_PersistentCalls:
            m_Calls: []
        OnTouchUpdated:
          m_PersistentCalls:
            m_Calls: []
    00000003:
      type: {class: SelectFarEvents, ns: Microsoft.MixedReality.Toolkit.Experimental.InteractiveElement,
        asm: Microsoft.MixedReality.Toolkit.SDK.Experimental.Interactive}
      data:
        stateName: SelectFar
        global: 0
        OnGlobalChanged:
          m_PersistentCalls:
            m_Calls: []
        OnSelectDown:
          m_PersistentCalls:
            m_Calls: []
        OnSelectUp:
          m_PersistentCalls:
            m_Calls: []
        OnSelectHold:
          m_PersistentCalls:
            m_Calls: []
        OnSelectClicked:
          m_PersistentCalls:
            m_Calls: []
    00000004:
      type: {class: KeyboardEvents, ns: Microsoft.MixedReality.Toolkit.Experimental.InteractiveElement.Examples,
        asm: Microsoft.MixedReality.Toolkit.SDK.Experimental.Interactive}
      data:
        stateName: Keyboard
        OnKKeyPressed:
          m_PersistentCalls:
            m_Calls: []
--- !u!114 &2082767162
MonoBehaviour:
  m_ObjectHideFlags: 0
  m_CorrespondingSourceObject: {fileID: 0}
  m_PrefabInstance: {fileID: 0}
  m_PrefabAsset: {fileID: 0}
  m_GameObject: {fileID: 2082767155}
  m_Enabled: 1
  m_EditorHideFlags: 0
  m_Script: {fileID: 11500000, guid: 97c0921b728fe6f41b2d88ad46b61bee, type: 3}
  m_Name: 
  m_EditorClassIdentifier: 
--- !u!1001 &740360504105110647
PrefabInstance:
  m_ObjectHideFlags: 0
  serializedVersion: 2
  m_Modification:
    m_TransformParent: {fileID: 22845855}
    m_Modifications:
    - target: {fileID: 215870208462939016, guid: 445915dc8698413468747c2fb539f935,
        type: 3}
      propertyPath: m_Mesh
      value: 
      objectReference: {fileID: 0}
    - target: {fileID: 2565263483480027856, guid: 445915dc8698413468747c2fb539f935,
        type: 3}
      propertyPath: m_RootOrder
      value: 1
      objectReference: {fileID: 0}
    - target: {fileID: 2565263483480027856, guid: 445915dc8698413468747c2fb539f935,
        type: 3}
      propertyPath: m_LocalPosition.x
      value: -0.008000001
      objectReference: {fileID: 0}
    - target: {fileID: 2565263483480027856, guid: 445915dc8698413468747c2fb539f935,
        type: 3}
      propertyPath: m_LocalPosition.y
      value: 0
      objectReference: {fileID: 0}
    - target: {fileID: 2565263483480027856, guid: 445915dc8698413468747c2fb539f935,
        type: 3}
      propertyPath: m_LocalPosition.z
      value: 0
      objectReference: {fileID: 0}
    - target: {fileID: 2565263483480027856, guid: 445915dc8698413468747c2fb539f935,
        type: 3}
      propertyPath: m_LocalRotation.w
      value: 1
      objectReference: {fileID: 0}
    - target: {fileID: 2565263483480027856, guid: 445915dc8698413468747c2fb539f935,
        type: 3}
      propertyPath: m_LocalRotation.x
      value: -0
      objectReference: {fileID: 0}
    - target: {fileID: 2565263483480027856, guid: 445915dc8698413468747c2fb539f935,
        type: 3}
      propertyPath: m_LocalRotation.y
      value: -0
      objectReference: {fileID: 0}
    - target: {fileID: 2565263483480027856, guid: 445915dc8698413468747c2fb539f935,
        type: 3}
      propertyPath: m_LocalRotation.z
      value: -0
      objectReference: {fileID: 0}
    - target: {fileID: 2565263483480027856, guid: 445915dc8698413468747c2fb539f935,
        type: 3}
      propertyPath: m_LocalEulerAnglesHint.x
      value: 0
      objectReference: {fileID: 0}
    - target: {fileID: 2565263483480027856, guid: 445915dc8698413468747c2fb539f935,
        type: 3}
      propertyPath: m_LocalEulerAnglesHint.y
      value: 0
      objectReference: {fileID: 0}
    - target: {fileID: 2565263483480027856, guid: 445915dc8698413468747c2fb539f935,
        type: 3}
      propertyPath: m_LocalEulerAnglesHint.z
      value: 0
      objectReference: {fileID: 0}
    - target: {fileID: 2565263484620580287, guid: 445915dc8698413468747c2fb539f935,
        type: 3}
      propertyPath: m_Mesh
      value: 
      objectReference: {fileID: 0}
    - target: {fileID: 2565263485106893873, guid: 445915dc8698413468747c2fb539f935,
        type: 3}
      propertyPath: m_Name
      value: CompressableButton
      objectReference: {fileID: 0}
    m_RemovedComponents: []
  m_SourcePrefab: {fileID: 100100000, guid: 445915dc8698413468747c2fb539f935, type: 3}
--- !u!1001 &1458556030319426973
PrefabInstance:
  m_ObjectHideFlags: 0
  serializedVersion: 2
  m_Modification:
    m_TransformParent: {fileID: 22845855}
    m_Modifications:
    - target: {fileID: 5127897918540335823, guid: 92195f9c5fa2a794fb2973255c7fd874,
        type: 3}
      propertyPath: m_Mesh
      value: 
      objectReference: {fileID: 0}
    - target: {fileID: 7372034969605610870, guid: 92195f9c5fa2a794fb2973255c7fd874,
        type: 3}
      propertyPath: m_Name
      value: CompressableButtonToggle
      objectReference: {fileID: 0}
    - target: {fileID: 7372034970193038584, guid: 92195f9c5fa2a794fb2973255c7fd874,
        type: 3}
      propertyPath: m_Mesh
      value: 
      objectReference: {fileID: 0}
    - target: {fileID: 7372034971198921623, guid: 92195f9c5fa2a794fb2973255c7fd874,
        type: 3}
      propertyPath: m_RootOrder
      value: 0
      objectReference: {fileID: 0}
    - target: {fileID: 7372034971198921623, guid: 92195f9c5fa2a794fb2973255c7fd874,
        type: 3}
      propertyPath: m_LocalPosition.x
      value: -0.06290001
      objectReference: {fileID: 0}
    - target: {fileID: 7372034971198921623, guid: 92195f9c5fa2a794fb2973255c7fd874,
        type: 3}
      propertyPath: m_LocalPosition.y
      value: 0
      objectReference: {fileID: 0}
    - target: {fileID: 7372034971198921623, guid: 92195f9c5fa2a794fb2973255c7fd874,
        type: 3}
      propertyPath: m_LocalPosition.z
      value: 0
      objectReference: {fileID: 0}
    - target: {fileID: 7372034971198921623, guid: 92195f9c5fa2a794fb2973255c7fd874,
        type: 3}
      propertyPath: m_LocalRotation.w
      value: 1
      objectReference: {fileID: 0}
    - target: {fileID: 7372034971198921623, guid: 92195f9c5fa2a794fb2973255c7fd874,
        type: 3}
      propertyPath: m_LocalRotation.x
      value: -0
      objectReference: {fileID: 0}
    - target: {fileID: 7372034971198921623, guid: 92195f9c5fa2a794fb2973255c7fd874,
        type: 3}
      propertyPath: m_LocalRotation.y
      value: -0
      objectReference: {fileID: 0}
    - target: {fileID: 7372034971198921623, guid: 92195f9c5fa2a794fb2973255c7fd874,
        type: 3}
      propertyPath: m_LocalRotation.z
      value: -0
      objectReference: {fileID: 0}
    - target: {fileID: 7372034971198921623, guid: 92195f9c5fa2a794fb2973255c7fd874,
        type: 3}
      propertyPath: m_LocalEulerAnglesHint.x
      value: 0
      objectReference: {fileID: 0}
    - target: {fileID: 7372034971198921623, guid: 92195f9c5fa2a794fb2973255c7fd874,
        type: 3}
      propertyPath: m_LocalEulerAnglesHint.y
      value: 0
      objectReference: {fileID: 0}
    - target: {fileID: 7372034971198921623, guid: 92195f9c5fa2a794fb2973255c7fd874,
        type: 3}
      propertyPath: m_LocalEulerAnglesHint.z
      value: 0
      objectReference: {fileID: 0}
    m_RemovedComponents: []
  m_SourcePrefab: {fileID: 100100000, guid: 92195f9c5fa2a794fb2973255c7fd874, type: 3}
--- !u!4 &3017390278537494183 stripped
Transform:
  m_CorrespondingSourceObject: {fileID: 2565263483480027856, guid: 445915dc8698413468747c2fb539f935,
    type: 3}
  m_PrefabInstance: {fileID: 740360504105110647}
  m_PrefabAsset: {fileID: 0}
--- !u!4 &8247056581957576202 stripped
Transform:
  m_CorrespondingSourceObject: {fileID: 7372034971198921623, guid: 92195f9c5fa2a794fb2973255c7fd874,
    type: 3}
  m_PrefabInstance: {fileID: 1458556030319426973}
  m_PrefabAsset: {fileID: 0}
