%YAML 1.1
%TAG !u! tag:unity3d.com,2011:
--- !u!29 &1
OcclusionCullingSettings:
  m_ObjectHideFlags: 0
  serializedVersion: 2
  m_OcclusionBakeSettings:
    smallestOccluder: 5
    smallestHole: 0.25
    backfaceThreshold: 100
  m_SceneGUID: 00000000000000000000000000000000
  m_OcclusionCullingData: {fileID: 0}
--- !u!104 &2
RenderSettings:
  m_ObjectHideFlags: 0
  serializedVersion: 9
  m_Fog: 0
  m_FogColor: {r: 0.5, g: 0.5, b: 0.5, a: 1}
  m_FogMode: 3
  m_FogDensity: 0.01
  m_LinearFogStart: 0
  m_LinearFogEnd: 300
  m_AmbientSkyColor: {r: 0.212, g: 0.227, b: 0.259, a: 1}
  m_AmbientEquatorColor: {r: 0.114, g: 0.125, b: 0.133, a: 1}
  m_AmbientGroundColor: {r: 0.047, g: 0.043, b: 0.035, a: 1}
  m_AmbientIntensity: 1
  m_AmbientMode: 0
  m_SubtractiveShadowColor: {r: 0.42, g: 0.478, b: 0.627, a: 1}
  m_SkyboxMaterial: {fileID: 0}
  m_HaloStrength: 0.5
  m_FlareStrength: 1
  m_FlareFadeSpeed: 3
  m_HaloTexture: {fileID: 0}
  m_SpotCookie: {fileID: 10001, guid: 0000000000000000e000000000000000, type: 0}
  m_DefaultReflectionMode: 0
  m_DefaultReflectionResolution: 128
  m_ReflectionBounces: 1
  m_ReflectionIntensity: 1
  m_CustomReflection: {fileID: 0}
  m_Sun: {fileID: 0}
  m_IndirectSpecularColor: {r: 0, g: 0, b: 0, a: 1}
  m_UseRadianceAmbientProbe: 0
--- !u!157 &3
LightmapSettings:
  m_ObjectHideFlags: 0
  serializedVersion: 12
  m_GIWorkflowMode: 0
  m_GISettings:
    serializedVersion: 2
    m_BounceScale: 1
    m_IndirectOutputScale: 1
    m_AlbedoBoost: 1
    m_EnvironmentLightingMode: 0
    m_EnableBakedLightmaps: 1
    m_EnableRealtimeLightmaps: 1
  m_LightmapEditorSettings:
    serializedVersion: 12
    m_Resolution: 2
    m_BakeResolution: 40
    m_AtlasSize: 1024
    m_AO: 0
    m_AOMaxDistance: 1
    m_CompAOExponent: 1
    m_CompAOExponentDirect: 0
    m_ExtractAmbientOcclusion: 0
    m_Padding: 2
    m_LightmapParameters: {fileID: 0}
    m_LightmapsBakeMode: 1
    m_TextureCompression: 1
    m_FinalGather: 0
    m_FinalGatherFiltering: 1
    m_FinalGatherRayCount: 256
    m_ReflectionCompression: 2
    m_MixedBakeMode: 2
    m_BakeBackend: 1
    m_PVRSampling: 1
    m_PVRDirectSampleCount: 32
    m_PVRSampleCount: 500
    m_PVRBounces: 2
    m_PVREnvironmentSampleCount: 500
    m_PVREnvironmentReferencePointCount: 2048
    m_PVRFilteringMode: 2
    m_PVRDenoiserTypeDirect: 0
    m_PVRDenoiserTypeIndirect: 0
    m_PVRDenoiserTypeAO: 0
    m_PVRFilterTypeDirect: 0
    m_PVRFilterTypeIndirect: 0
    m_PVRFilterTypeAO: 0
    m_PVREnvironmentMIS: 0
    m_PVRCulling: 1
    m_PVRFilteringGaussRadiusDirect: 1
    m_PVRFilteringGaussRadiusIndirect: 5
    m_PVRFilteringGaussRadiusAO: 2
    m_PVRFilteringAtrousPositionSigmaDirect: 0.5
    m_PVRFilteringAtrousPositionSigmaIndirect: 2
    m_PVRFilteringAtrousPositionSigmaAO: 1
    m_ExportTrainingData: 0
    m_TrainingDataDestination: TrainingData
    m_LightProbeSampleCountMultiplier: 4
  m_LightingDataAsset: {fileID: 0}
  m_LightingSettings: {fileID: 4890085278179872738, guid: fc16599281dc3014c9e9dc0908602bfd,
    type: 2}
--- !u!196 &4
NavMeshSettings:
  serializedVersion: 2
  m_ObjectHideFlags: 0
  m_BuildSettings:
    serializedVersion: 2
    agentTypeID: 0
    agentRadius: 0.5
    agentHeight: 2
    agentSlope: 45
    agentClimb: 0.4
    ledgeDropHeight: 0
    maxJumpAcrossDistance: 0
    minRegionArea: 2
    manualCellSize: 0
    cellSize: 0.16666667
    manualTileSize: 0
    tileSize: 256
    accuratePlacement: 0
    maxJobWorkers: 0
    preserveTilesOutsideBounds: 0
    debug:
      m_Flags: 0
  m_NavMeshData: {fileID: 0}
--- !u!1 &158935818
GameObject:
  m_ObjectHideFlags: 0
  m_CorrespondingSourceObject: {fileID: 0}
  m_PrefabInstance: {fileID: 0}
  m_PrefabAsset: {fileID: 0}
  serializedVersion: 6
  m_Component:
  - component: {fileID: 158935819}
  m_Layer: 0
  m_Name: MixedRealityPlayspace
  m_TagString: Untagged
  m_Icon: {fileID: 0}
  m_NavMeshLayer: 0
  m_StaticEditorFlags: 0
  m_IsActive: 1
--- !u!4 &158935819
Transform:
  m_ObjectHideFlags: 0
  m_CorrespondingSourceObject: {fileID: 0}
  m_PrefabInstance: {fileID: 0}
  m_PrefabAsset: {fileID: 0}
  m_GameObject: {fileID: 158935818}
  m_LocalRotation: {x: 0, y: 0, z: 0, w: 1}
  m_LocalPosition: {x: 0, y: 0, z: 0}
  m_LocalScale: {x: 1, y: 1, z: 1}
  m_Children:
  - {fileID: 720845025}
  m_Father: {fileID: 0}
  m_RootOrder: 2
  m_LocalEulerAnglesHint: {x: 0, y: 0, z: 0}
--- !u!1 &167935244
GameObject:
  m_ObjectHideFlags: 0
  m_CorrespondingSourceObject: {fileID: 0}
  m_PrefabInstance: {fileID: 0}
  m_PrefabAsset: {fileID: 0}
  serializedVersion: 6
  m_Component:
  - component: {fileID: 167935245}
  - component: {fileID: 167935248}
  m_Layer: 0
  m_Name: OpenDialogButtonsNear
  m_TagString: Untagged
  m_Icon: {fileID: 0}
  m_NavMeshLayer: 0
  m_StaticEditorFlags: 0
  m_IsActive: 1
--- !u!4 &167935245
Transform:
  m_ObjectHideFlags: 0
  m_CorrespondingSourceObject: {fileID: 0}
  m_PrefabInstance: {fileID: 0}
  m_PrefabAsset: {fileID: 0}
  m_GameObject: {fileID: 167935244}
  m_LocalRotation: {x: -0, y: -0, z: -0, w: 1}
  m_LocalPosition: {x: -0.087, y: -0.93, z: 0.021}
  m_LocalScale: {x: 3.667213, y: 3.6672127, z: 3.667213}
  m_Children:
  - {fileID: 1388026288}
  - {fileID: 1090116488}
  - {fileID: 597920795}
  m_Father: {fileID: 871504264}
  m_RootOrder: 3
  m_LocalEulerAnglesHint: {x: 0, y: 0, z: 0}
--- !u!114 &167935248
MonoBehaviour:
  m_ObjectHideFlags: 0
  m_CorrespondingSourceObject: {fileID: 0}
  m_PrefabInstance: {fileID: 0}
  m_PrefabAsset: {fileID: 0}
  m_GameObject: {fileID: 167935244}
  m_Enabled: 1
  m_EditorHideFlags: 0
  m_Script: {fileID: 11500000, guid: cf12ee76e7e00a44a9a84256760020e6, type: 3}
  m_Name: 
  m_EditorClassIdentifier: 
  nodeList:
  - Name: PressableButtonHoloLens2_32x96 (2)
    Offset: {x: 0, y: 0}
    Radius: 0
    Transform: {fileID: 1388026288}
    Colliders: []
  - Name: PressableButtonHoloLens2_32x96 (3)
    Offset: {x: 0, y: 0}
    Radius: 0
    Transform: {fileID: 1090116488}
    Colliders: []
  - Name: PressableButtonHoloLens2_32x96 (5)
    Offset: {x: 0, y: 0}
    Radius: 0
    Transform: {fileID: 597920795}
    Colliders: []
  - Name: PressableButtonHoloLens2_32x96
    Offset: {x: 0, y: 0}
    Radius: 0
    Transform: {fileID: 0}
    Colliders: []
  - Name: PressableButtonHoloLens2_32x96 (4)
    Offset: {x: 0, y: 0}
    Radius: 0
    Transform: {fileID: 0}
    Colliders: []
  - Name: PressableButtonHoloLens2_32x96 (1)
    Offset: {x: 0, y: 0}
    Radius: 0
    Transform: {fileID: 0}
    Colliders: []
  ignoreInactiveTransforms: 1
  sortType: 1
  surfaceType: 1
  orientType: 0
  layout: 1
  anchor: 4
  anchorAlongAxis: 0
  columnAlignment: 0
  rowAlignment: 0
  radius: 2
  radialRange: 180
  distance: 0
  rows: 3
  columns: 2
  cellWidth: 0.096
  cellHeight: 0.032
  assetVersion: 1
--- !u!1 &172924235
GameObject:
  m_ObjectHideFlags: 0
  m_CorrespondingSourceObject: {fileID: 0}
  m_PrefabInstance: {fileID: 0}
  m_PrefabAsset: {fileID: 0}
  serializedVersion: 6
  m_Component:
  - component: {fileID: 172924236}
  - component: {fileID: 172924237}
  m_Layer: 0
  m_Name: OpenDialogButtonsFar
  m_TagString: Untagged
  m_Icon: {fileID: 0}
  m_NavMeshLayer: 0
  m_StaticEditorFlags: 0
  m_IsActive: 1
--- !u!4 &172924236
Transform:
  m_ObjectHideFlags: 0
  m_CorrespondingSourceObject: {fileID: 0}
  m_PrefabInstance: {fileID: 0}
  m_PrefabAsset: {fileID: 0}
  m_GameObject: {fileID: 172924235}
  m_LocalRotation: {x: -0, y: -0, z: -0, w: 1}
  m_LocalPosition: {x: -0.06, y: -0.93, z: 0.021}
  m_LocalScale: {x: 3.667213, y: 3.6672127, z: 3.667213}
  m_Children:
  - {fileID: 1992556757}
  - {fileID: 1323577139}
  - {fileID: 1700882516}
  m_Father: {fileID: 871504264}
  m_RootOrder: 4
  m_LocalEulerAnglesHint: {x: 0, y: 0, z: 0}
--- !u!114 &172924237
MonoBehaviour:
  m_ObjectHideFlags: 0
  m_CorrespondingSourceObject: {fileID: 0}
  m_PrefabInstance: {fileID: 0}
  m_PrefabAsset: {fileID: 0}
  m_GameObject: {fileID: 172924235}
  m_Enabled: 1
  m_EditorHideFlags: 0
  m_Script: {fileID: 11500000, guid: cf12ee76e7e00a44a9a84256760020e6, type: 3}
  m_Name: 
  m_EditorClassIdentifier: 
  nodeList:
  - Name: PressableButtonHoloLens2_32x96 (2)
    Offset: {x: 0, y: 0}
    Radius: 0
    Transform: {fileID: 0}
    Colliders: []
  - Name: PressableButtonHoloLens2_32x96 (3)
    Offset: {x: 0, y: 0}
    Radius: 0
    Transform: {fileID: 0}
    Colliders: []
  - Name: PressableButtonHoloLens2_32x96 (5)
    Offset: {x: 0, y: 0}
    Radius: 0
    Transform: {fileID: 0}
    Colliders: []
  - Name: PressableButtonHoloLens2_32x96
    Offset: {x: 0, y: 0}
    Radius: 0
    Transform: {fileID: 1992556757}
    Colliders: []
  - Name: PressableButtonHoloLens2_32x96 (4)
    Offset: {x: 0, y: 0}
    Radius: 0
    Transform: {fileID: 1323577139}
    Colliders: []
  - Name: PressableButtonHoloLens2_32x96 (1)
    Offset: {x: 0, y: 0}
    Radius: 0
    Transform: {fileID: 1700882516}
    Colliders: []
  ignoreInactiveTransforms: 1
  sortType: 1
  surfaceType: 1
  orientType: 0
  layout: 1
  anchor: 4
  anchorAlongAxis: 0
  columnAlignment: 0
  rowAlignment: 0
  radius: 2
  radialRange: 180
  distance: 0
  rows: 3
  columns: 2
  cellWidth: 0.096
  cellHeight: 0.032
  assetVersion: 1
--- !u!1 &198949297
GameObject:
  m_ObjectHideFlags: 0
  m_CorrespondingSourceObject: {fileID: 0}
  m_PrefabInstance: {fileID: 0}
  m_PrefabAsset: {fileID: 0}
  serializedVersion: 6
  m_Component:
  - component: {fileID: 198949298}
  m_Layer: 0
  m_Name: SceneContent
  m_TagString: Untagged
  m_Icon: {fileID: 0}
  m_NavMeshLayer: 0
  m_StaticEditorFlags: 0
  m_IsActive: 1
--- !u!4 &198949298
Transform:
  m_ObjectHideFlags: 0
  m_CorrespondingSourceObject: {fileID: 0}
  m_PrefabInstance: {fileID: 0}
  m_PrefabAsset: {fileID: 0}
  m_GameObject: {fileID: 198949297}
  m_LocalRotation: {x: 0, y: 0, z: 0, w: 1}
  m_LocalPosition: {x: 0, y: 0, z: 0}
  m_LocalScale: {x: 1, y: 1, z: 1}
  m_Children:
  - {fileID: 769440710}
  - {fileID: 871504264}
  m_Father: {fileID: 0}
  m_RootOrder: 3
  m_LocalEulerAnglesHint: {x: 0, y: 0, z: 0}
--- !u!1 &359639982
GameObject:
  m_ObjectHideFlags: 0
  m_CorrespondingSourceObject: {fileID: 0}
  m_PrefabInstance: {fileID: 0}
  m_PrefabAsset: {fileID: 0}
  serializedVersion: 6
  m_Component:
  - component: {fileID: 359639984}
  - component: {fileID: 359639983}
  m_Layer: 0
  m_Name: Directional Light
  m_TagString: Untagged
  m_Icon: {fileID: 0}
  m_NavMeshLayer: 0
  m_StaticEditorFlags: 0
  m_IsActive: 1
--- !u!108 &359639983
Light:
  m_ObjectHideFlags: 0
  m_CorrespondingSourceObject: {fileID: 0}
  m_PrefabInstance: {fileID: 0}
  m_PrefabAsset: {fileID: 0}
  m_GameObject: {fileID: 359639982}
  m_Enabled: 1
  serializedVersion: 10
  m_Type: 1
  m_Shape: 0
  m_Color: {r: 1, g: 0.95686275, b: 0.8392157, a: 1}
  m_Intensity: 1
  m_Range: 10
  m_SpotAngle: 30
  m_InnerSpotAngle: 21.80208
  m_CookieSize: 10
  m_Shadows:
    m_Type: 2
    m_Resolution: -1
    m_CustomResolution: -1
    m_Strength: 1
    m_Bias: 0.05
    m_NormalBias: 0.4
    m_NearPlane: 0.2
    m_CullingMatrixOverride:
      e00: 1
      e01: 0
      e02: 0
      e03: 0
      e10: 0
      e11: 1
      e12: 0
      e13: 0
      e20: 0
      e21: 0
      e22: 1
      e23: 0
      e30: 0
      e31: 0
      e32: 0
      e33: 1
    m_UseCullingMatrixOverride: 0
  m_Cookie: {fileID: 0}
  m_DrawHalo: 0
  m_Flare: {fileID: 0}
  m_RenderMode: 0
  m_CullingMask:
    serializedVersion: 2
    m_Bits: 4294967295
  m_RenderingLayerMask: 1
  m_Lightmapping: 4
  m_LightShadowCasterMode: 0
  m_AreaSize: {x: 1, y: 1}
  m_BounceIntensity: 1
  m_ColorTemperature: 6570
  m_UseColorTemperature: 0
  m_BoundingSphereOverride: {x: 0, y: 0, z: 0, w: 0}
  m_UseBoundingSphereOverride: 0
  m_UseViewFrustumForShadowCasterCull: 1
  m_ShadowRadius: 0
  m_ShadowAngle: 0
--- !u!4 &359639984
Transform:
  m_ObjectHideFlags: 0
  m_CorrespondingSourceObject: {fileID: 0}
  m_PrefabInstance: {fileID: 0}
  m_PrefabAsset: {fileID: 0}
  m_GameObject: {fileID: 359639982}
  m_LocalRotation: {x: 0.40821788, y: -0.23456968, z: 0.10938163, w: 0.8754261}
  m_LocalPosition: {x: 0, y: 3, z: 0}
  m_LocalScale: {x: 1, y: 1, z: 1}
  m_Children: []
  m_Father: {fileID: 0}
  m_RootOrder: 0
  m_LocalEulerAnglesHint: {x: 50, y: -30, z: 0}
--- !u!1001 &597920794
PrefabInstance:
  m_ObjectHideFlags: 0
  serializedVersion: 2
  m_Modification:
    m_TransformParent: {fileID: 167935245}
    m_Modifications:
    - target: {fileID: 221594249052139623, guid: 4f44c0d070528944c9bff425c6932763,
        type: 3}
      propertyPath: m_IsActive
      value: 0
      objectReference: {fileID: 0}
    - target: {fileID: 721660114511089077, guid: 4f44c0d070528944c9bff425c6932763,
        type: 3}
      propertyPath: m_Mesh
      value: 
      objectReference: {fileID: 0}
    - target: {fileID: 3126786008848669196, guid: 4f44c0d070528944c9bff425c6932763,
        type: 3}
      propertyPath: m_Name
      value: PressableButtonHoloLens2_32x96 (5)
      objectReference: {fileID: 0}
    - target: {fileID: 3126786009469193090, guid: 4f44c0d070528944c9bff425c6932763,
        type: 3}
      propertyPath: m_Mesh
      value: 
      objectReference: {fileID: 0}
    - target: {fileID: 3126786009469193212, guid: 4f44c0d070528944c9bff425c6932763,
        type: 3}
      propertyPath: m_text
      value: 'Choice Dialog

        Small / Near'
      objectReference: {fileID: 0}
    - target: {fileID: 3126786009469193212, guid: 4f44c0d070528944c9bff425c6932763,
        type: 3}
      propertyPath: m_textInfo.lineCount
      value: 2
      objectReference: {fileID: 0}
    - target: {fileID: 3126786009469193212, guid: 4f44c0d070528944c9bff425c6932763,
        type: 3}
      propertyPath: m_textInfo.pageCount
      value: 1
      objectReference: {fileID: 0}
    - target: {fileID: 3126786009469193212, guid: 4f44c0d070528944c9bff425c6932763,
        type: 3}
      propertyPath: m_textInfo.wordCount
      value: 4
      objectReference: {fileID: 0}
    - target: {fileID: 3126786009469193212, guid: 4f44c0d070528944c9bff425c6932763,
        type: 3}
      propertyPath: m_textInfo.spaceCount
      value: 4
      objectReference: {fileID: 0}
    - target: {fileID: 3126786009469193212, guid: 4f44c0d070528944c9bff425c6932763,
        type: 3}
      propertyPath: m_textInfo.characterCount
      value: 26
      objectReference: {fileID: 0}
    - target: {fileID: 3126786009469193212, guid: 4f44c0d070528944c9bff425c6932763,
        type: 3}
      propertyPath: m_firstOverflowCharacterIndex
      value: 14
      objectReference: {fileID: 0}
    - target: {fileID: 3126786010476584173, guid: 4f44c0d070528944c9bff425c6932763,
        type: 3}
      propertyPath: m_RootOrder
      value: 2
      objectReference: {fileID: 0}
    - target: {fileID: 3126786010476584173, guid: 4f44c0d070528944c9bff425c6932763,
        type: 3}
      propertyPath: m_LocalPosition.x
      value: -0.048
      objectReference: {fileID: 0}
    - target: {fileID: 3126786010476584173, guid: 4f44c0d070528944c9bff425c6932763,
        type: 3}
      propertyPath: m_LocalPosition.y
      value: -0.032000005
      objectReference: {fileID: 0}
    - target: {fileID: 3126786010476584173, guid: 4f44c0d070528944c9bff425c6932763,
        type: 3}
      propertyPath: m_LocalPosition.z
      value: 0
      objectReference: {fileID: 0}
    - target: {fileID: 3126786010476584173, guid: 4f44c0d070528944c9bff425c6932763,
        type: 3}
      propertyPath: m_LocalRotation.w
      value: 1
      objectReference: {fileID: 0}
    - target: {fileID: 3126786010476584173, guid: 4f44c0d070528944c9bff425c6932763,
        type: 3}
      propertyPath: m_LocalRotation.x
      value: -0
      objectReference: {fileID: 0}
    - target: {fileID: 3126786010476584173, guid: 4f44c0d070528944c9bff425c6932763,
        type: 3}
      propertyPath: m_LocalRotation.y
      value: -0
      objectReference: {fileID: 0}
    - target: {fileID: 3126786010476584173, guid: 4f44c0d070528944c9bff425c6932763,
        type: 3}
      propertyPath: m_LocalRotation.z
      value: -0
      objectReference: {fileID: 0}
    - target: {fileID: 3126786010476584173, guid: 4f44c0d070528944c9bff425c6932763,
        type: 3}
      propertyPath: m_LocalEulerAnglesHint.x
      value: 0
      objectReference: {fileID: 0}
    - target: {fileID: 3126786010476584173, guid: 4f44c0d070528944c9bff425c6932763,
        type: 3}
      propertyPath: m_LocalEulerAnglesHint.y
      value: 0
      objectReference: {fileID: 0}
    - target: {fileID: 3126786010476584173, guid: 4f44c0d070528944c9bff425c6932763,
        type: 3}
      propertyPath: m_LocalEulerAnglesHint.z
      value: 0
      objectReference: {fileID: 0}
    - target: {fileID: 3456123869903824599, guid: 4f44c0d070528944c9bff425c6932763,
        type: 3}
      propertyPath: m_IsActive
      value: 0
      objectReference: {fileID: 0}
    - target: {fileID: 4707993670919958581, guid: 4f44c0d070528944c9bff425c6932763,
        type: 3}
      propertyPath: iconQuadTexture
      value: 
      objectReference: {fileID: 2800000, guid: 937867e9be7912d4a903cd401ee0a959, type: 3}
    - target: {fileID: 5487525929659315375, guid: 4f44c0d070528944c9bff425c6932763,
        type: 3}
      propertyPath: OnClick.m_PersistentCalls.m_Calls.Array.data[0].m_Target
      value: 
      objectReference: {fileID: 769440711}
    - target: {fileID: 5487525929659315375, guid: 4f44c0d070528944c9bff425c6932763,
        type: 3}
      propertyPath: OnClick.m_PersistentCalls.m_Calls.Array.data[0].m_MethodName
      value: OpenChoiceDialogSmall
      objectReference: {fileID: 0}
    - target: {fileID: 6055314345997109590, guid: 4f44c0d070528944c9bff425c6932763,
        type: 3}
      propertyPath: m_textInfo.lineCount
      value: 0
      objectReference: {fileID: 0}
    - target: {fileID: 6055314345997109590, guid: 4f44c0d070528944c9bff425c6932763,
        type: 3}
      propertyPath: m_textInfo.pageCount
      value: 0
      objectReference: {fileID: 0}
    - target: {fileID: 6055314345997109590, guid: 4f44c0d070528944c9bff425c6932763,
        type: 3}
      propertyPath: m_textInfo.wordCount
      value: 0
      objectReference: {fileID: 0}
    - target: {fileID: 6055314345997109590, guid: 4f44c0d070528944c9bff425c6932763,
        type: 3}
      propertyPath: m_textInfo.spaceCount
      value: 0
      objectReference: {fileID: 0}
    - target: {fileID: 6055314345997109590, guid: 4f44c0d070528944c9bff425c6932763,
        type: 3}
      propertyPath: m_textInfo.characterCount
      value: 0
      objectReference: {fileID: 0}
    m_RemovedComponents: []
  m_SourcePrefab: {fileID: 100100000, guid: 4f44c0d070528944c9bff425c6932763, type: 3}
--- !u!4 &597920795 stripped
Transform:
  m_CorrespondingSourceObject: {fileID: 3126786010476584173, guid: 4f44c0d070528944c9bff425c6932763,
    type: 3}
  m_PrefabInstance: {fileID: 597920794}
  m_PrefabAsset: {fileID: 0}
--- !u!1 &720845022
GameObject:
  m_ObjectHideFlags: 0
  m_CorrespondingSourceObject: {fileID: 0}
  m_PrefabInstance: {fileID: 0}
  m_PrefabAsset: {fileID: 0}
  serializedVersion: 6
  m_Component:
  - component: {fileID: 720845025}
  - component: {fileID: 720845024}
  - component: {fileID: 720845023}
  - component: {fileID: 720845028}
  - component: {fileID: 720845027}
  - component: {fileID: 720845026}
  m_Layer: 0
  m_Name: Main Camera
  m_TagString: MainCamera
  m_Icon: {fileID: 0}
  m_NavMeshLayer: 0
  m_StaticEditorFlags: 0
  m_IsActive: 1
--- !u!81 &720845023
AudioListener:
  m_ObjectHideFlags: 0
  m_CorrespondingSourceObject: {fileID: 0}
  m_PrefabInstance: {fileID: 0}
  m_PrefabAsset: {fileID: 0}
  m_GameObject: {fileID: 720845022}
  m_Enabled: 1
--- !u!20 &720845024
Camera:
  m_ObjectHideFlags: 0
  m_CorrespondingSourceObject: {fileID: 0}
  m_PrefabInstance: {fileID: 0}
  m_PrefabAsset: {fileID: 0}
  m_GameObject: {fileID: 720845022}
  m_Enabled: 1
  serializedVersion: 2
  m_ClearFlags: 2
  m_BackGroundColor: {r: 0, g: 0, b: 0, a: 1}
  m_projectionMatrixMode: 1
  m_GateFitMode: 2
  m_FOVAxisMode: 0
  m_SensorSize: {x: 36, y: 24}
  m_LensShift: {x: 0, y: 0}
  m_FocalLength: 50
  m_NormalizedViewPortRect:
    serializedVersion: 2
    x: 0
    y: 0
    width: 1
    height: 1
  near clip plane: 0.1
  far clip plane: 1000
  field of view: 60
  orthographic: 0
  orthographic size: 5
  m_Depth: -1
  m_CullingMask:
    serializedVersion: 2
    m_Bits: 4294967295
  m_RenderingPath: -1
  m_TargetTexture: {fileID: 0}
  m_TargetDisplay: 0
  m_TargetEye: 3
  m_HDR: 1
  m_AllowMSAA: 1
  m_AllowDynamicResolution: 0
  m_ForceIntoRT: 0
  m_OcclusionCulling: 1
  m_StereoConvergence: 10
  m_StereoSeparation: 0.022
--- !u!4 &720845025
Transform:
  m_ObjectHideFlags: 0
  m_CorrespondingSourceObject: {fileID: 0}
  m_PrefabInstance: {fileID: 0}
  m_PrefabAsset: {fileID: 0}
  m_GameObject: {fileID: 720845022}
  m_LocalRotation: {x: -0, y: -0, z: -0, w: 1}
  m_LocalPosition: {x: 0, y: 0, z: 0}
  m_LocalScale: {x: 1, y: 1, z: 1}
  m_Children: []
  m_Father: {fileID: 158935819}
  m_RootOrder: 0
  m_LocalEulerAnglesHint: {x: 0, y: 0, z: 0}
--- !u!114 &720845026
MonoBehaviour:
  m_ObjectHideFlags: 0
  m_CorrespondingSourceObject: {fileID: 0}
  m_PrefabInstance: {fileID: 0}
  m_PrefabAsset: {fileID: 0}
  m_GameObject: {fileID: 720845022}
  m_Enabled: 1
  m_EditorHideFlags: 0
  m_Script: {fileID: 11500000, guid: bf98dd1206224111a38765365e98e207, type: 3}
  m_Name: 
  m_EditorClassIdentifier: 
  lockCursorWhenFocusLocked: 1
  setCursorInvisibleWhenFocusLocked: 0
  maxGazeCollisionDistance: 10
  raycastLayerMasks:
  - serializedVersion: 2
    m_Bits: 4294967291
  stabilizer:
    storedStabilitySamples: 60
  gazeTransform: {fileID: 0}
  minHeadVelocityThreshold: 0.5
  maxHeadVelocityThreshold: 2
--- !u!114 &720845027
MonoBehaviour:
  m_ObjectHideFlags: 0
  m_CorrespondingSourceObject: {fileID: 0}
  m_PrefabInstance: {fileID: 0}
  m_PrefabAsset: {fileID: 0}
  m_GameObject: {fileID: 720845022}
  m_Enabled: 1
  m_EditorHideFlags: 0
  m_Script: {fileID: 11500000, guid: 7a21b486d0bb44444b1418aaa38b44de, type: 3}
  m_Name: 
  m_EditorClassIdentifier: 
  m_HorizontalAxis: Horizontal
  m_VerticalAxis: Vertical
  m_SubmitButton: Submit
  m_CancelButton: Cancel
  m_InputActionsPerSecond: 10
  m_RepeatDelay: 0.5
  m_ForceModuleActive: 0
--- !u!114 &720845028
MonoBehaviour:
  m_ObjectHideFlags: 0
  m_CorrespondingSourceObject: {fileID: 0}
  m_PrefabInstance: {fileID: 0}
  m_PrefabAsset: {fileID: 0}
  m_GameObject: {fileID: 720845022}
  m_Enabled: 1
  m_EditorHideFlags: 0
  m_Script: {fileID: 11500000, guid: 76c392e42b5098c458856cdf6ecaaaa1, type: 3}
  m_Name: 
  m_EditorClassIdentifier: 
  m_FirstSelected: {fileID: 0}
  m_sendNavigationEvents: 1
  m_DragThreshold: 10
--- !u!1 &769440709
GameObject:
  m_ObjectHideFlags: 0
  m_CorrespondingSourceObject: {fileID: 0}
  m_PrefabInstance: {fileID: 0}
  m_PrefabAsset: {fileID: 0}
  serializedVersion: 6
  m_Component:
  - component: {fileID: 769440710}
  - component: {fileID: 769440711}
  m_Layer: 0
  m_Name: DialogExampleController
  m_TagString: Untagged
  m_Icon: {fileID: 0}
  m_NavMeshLayer: 0
  m_StaticEditorFlags: 0
  m_IsActive: 1
--- !u!4 &769440710
Transform:
  m_ObjectHideFlags: 0
  m_CorrespondingSourceObject: {fileID: 0}
  m_PrefabInstance: {fileID: 0}
  m_PrefabAsset: {fileID: 0}
  m_GameObject: {fileID: 769440709}
  m_LocalRotation: {x: 0, y: 0, z: 0, w: 1}
  m_LocalPosition: {x: 0, y: 0, z: 1.5}
  m_LocalScale: {x: 1, y: 1, z: 1}
  m_Children: []
  m_Father: {fileID: 198949298}
  m_RootOrder: 0
  m_LocalEulerAnglesHint: {x: 0, y: 0, z: 0}
--- !u!114 &769440711
MonoBehaviour:
  m_ObjectHideFlags: 0
  m_CorrespondingSourceObject: {fileID: 0}
  m_PrefabInstance: {fileID: 0}
  m_PrefabAsset: {fileID: 0}
  m_GameObject: {fileID: 769440709}
  m_Enabled: 1
  m_EditorHideFlags: 0
  m_Script: {fileID: 11500000, guid: 17b5aa22bcf647a4880a453574b84f3b, type: 3}
  m_Name: 
  m_EditorClassIdentifier: 
  dialogPrefabLarge: {fileID: 8451469530216736246, guid: 478732197b53dee4694480aac1a7c98c,
    type: 3}
  dialogPrefabMedium: {fileID: 1231799312788918984, guid: a0ef6c45c87675f4abf9738395165413,
    type: 3}
  dialogPrefabSmall: {fileID: 2680377478557818543, guid: 8e686c90124b8e14cbf8093893109e9a,
    type: 3}
--- !u!1001 &871504263
PrefabInstance:
  m_ObjectHideFlags: 0
  serializedVersion: 2
  m_Modification:
    m_TransformParent: {fileID: 198949298}
    m_Modifications:
    - target: {fileID: 4776066136358859, guid: 18470d71939382448be2ecd06efa9662, type: 3}
      propertyPath: m_text
      value: <size=42><b>Dialog Examples</b></size>
      objectReference: {fileID: 0}
    - target: {fileID: 4776066136358859, guid: 18470d71939382448be2ecd06efa9662, type: 3}
      propertyPath: m_textInfo.lineCount
      value: 1
      objectReference: {fileID: 0}
    - target: {fileID: 4776066136358859, guid: 18470d71939382448be2ecd06efa9662, type: 3}
      propertyPath: m_textInfo.pageCount
      value: 1
      objectReference: {fileID: 0}
    - target: {fileID: 4776066136358859, guid: 18470d71939382448be2ecd06efa9662, type: 3}
      propertyPath: m_textInfo.wordCount
      value: 2
      objectReference: {fileID: 0}
    - target: {fileID: 4776066136358859, guid: 18470d71939382448be2ecd06efa9662, type: 3}
      propertyPath: m_textInfo.spaceCount
      value: 1
      objectReference: {fileID: 0}
    - target: {fileID: 4776066136358859, guid: 18470d71939382448be2ecd06efa9662, type: 3}
      propertyPath: m_textInfo.characterCount
      value: 15
      objectReference: {fileID: 0}
    - target: {fileID: 1600130203466990489, guid: 18470d71939382448be2ecd06efa9662,
        type: 3}
      propertyPath: m_IsActive
      value: 0
      objectReference: {fileID: 0}
    - target: {fileID: 1641405841635922537, guid: 18470d71939382448be2ecd06efa9662,
        type: 3}
      propertyPath: m_textInfo.lineCount
      value: 0
      objectReference: {fileID: 0}
    - target: {fileID: 1641405841635922537, guid: 18470d71939382448be2ecd06efa9662,
        type: 3}
      propertyPath: m_textInfo.pageCount
      value: 0
      objectReference: {fileID: 0}
    - target: {fileID: 1641405841635922537, guid: 18470d71939382448be2ecd06efa9662,
        type: 3}
      propertyPath: m_textInfo.wordCount
      value: 0
      objectReference: {fileID: 0}
    - target: {fileID: 1641405841635922537, guid: 18470d71939382448be2ecd06efa9662,
        type: 3}
      propertyPath: m_textInfo.spaceCount
      value: 0
      objectReference: {fileID: 0}
    - target: {fileID: 1641405841635922537, guid: 18470d71939382448be2ecd06efa9662,
        type: 3}
      propertyPath: m_textInfo.characterCount
      value: 0
      objectReference: {fileID: 0}
    - target: {fileID: 1685343061998419463, guid: 18470d71939382448be2ecd06efa9662,
        type: 3}
      propertyPath: m_AnchorMax.y
      value: 0
      objectReference: {fileID: 0}
    - target: {fileID: 1685343061998419463, guid: 18470d71939382448be2ecd06efa9662,
        type: 3}
      propertyPath: m_AnchorMin.y
      value: 0
      objectReference: {fileID: 0}
    - target: {fileID: 1685343061998419463, guid: 18470d71939382448be2ecd06efa9662,
        type: 3}
      propertyPath: m_SizeDelta.x
      value: 0
      objectReference: {fileID: 0}
    - target: {fileID: 1685343061998419463, guid: 18470d71939382448be2ecd06efa9662,
        type: 3}
      propertyPath: m_AnchoredPosition.x
      value: 0
      objectReference: {fileID: 0}
    - target: {fileID: 1685343061998419463, guid: 18470d71939382448be2ecd06efa9662,
        type: 3}
      propertyPath: m_AnchoredPosition.y
      value: 0
      objectReference: {fileID: 0}
    - target: {fileID: 2113875699234556495, guid: 18470d71939382448be2ecd06efa9662,
        type: 3}
      propertyPath: m_text
      value: '<size=42><b>Dialog Examples</b></size>


        This scene demonstrates
        use of the Dialog control. <color=yellow>DialogExampleController.cs</color>
        shows how to open Dialog controls in the code. You can specify the title,
        description text, and the placement location - near or far. Use near placement
        option for HoloLens 2.


        <size="32"><b>Dialog Prefabs</b></size>

        DialogLarge_192x192.prefab

        DialogMedium_192x128

        DialogSmall_192x96.prefab


        <size="32"><b>Dialog
        Examples</b></size>

        Use these buttons to open dialog examples. See
        DialogExampleController.cs to see the details.'
      objectReference: {fileID: 0}
    - target: {fileID: 2113875699234556495, guid: 18470d71939382448be2ecd06efa9662,
        type: 3}
      propertyPath: m_textInfo.lineCount
      value: 16
      objectReference: {fileID: 0}
    - target: {fileID: 2113875699234556495, guid: 18470d71939382448be2ecd06efa9662,
        type: 3}
      propertyPath: m_textInfo.pageCount
      value: 1
      objectReference: {fileID: 0}
    - target: {fileID: 2113875699234556495, guid: 18470d71939382448be2ecd06efa9662,
        type: 3}
      propertyPath: m_textInfo.wordCount
      value: 69
      objectReference: {fileID: 0}
    - target: {fileID: 2113875699234556495, guid: 18470d71939382448be2ecd06efa9662,
        type: 3}
      propertyPath: m_textInfo.spaceCount
      value: 64
      objectReference: {fileID: 0}
    - target: {fileID: 2113875699234556495, guid: 18470d71939382448be2ecd06efa9662,
        type: 3}
      propertyPath: m_textInfo.characterCount
      value: 472
      objectReference: {fileID: 0}
    - target: {fileID: 2113875699234556495, guid: 18470d71939382448be2ecd06efa9662,
        type: 3}
      propertyPath: m_firstOverflowCharacterIndex
      value: 121
      objectReference: {fileID: 0}
    - target: {fileID: 2652140712778390387, guid: 18470d71939382448be2ecd06efa9662,
        type: 3}
      propertyPath: m_LocalScale.x
      value: 0.8228702
      objectReference: {fileID: 0}
    - target: {fileID: 2652140712778390387, guid: 18470d71939382448be2ecd06efa9662,
        type: 3}
      propertyPath: m_LocalScale.y
      value: 1.2127256
      objectReference: {fileID: 0}
    - target: {fileID: 2652140712778390387, guid: 18470d71939382448be2ecd06efa9662,
        type: 3}
      propertyPath: m_LocalScale.z
      value: 0.035200037
      objectReference: {fileID: 0}
    - target: {fileID: 2652140712778390387, guid: 18470d71939382448be2ecd06efa9662,
        type: 3}
      propertyPath: m_LocalPosition.x
      value: -0.073
      objectReference: {fileID: 0}
    - target: {fileID: 2652140712778390387, guid: 18470d71939382448be2ecd06efa9662,
        type: 3}
      propertyPath: m_LocalPosition.y
      value: -0.5414
      objectReference: {fileID: 0}
    - target: {fileID: 3378234012929652230, guid: 18470d71939382448be2ecd06efa9662,
        type: 3}
      propertyPath: m_SizeDelta.y
      value: 0
      objectReference: {fileID: 0}
    - target: {fileID: 5245681700994389642, guid: 18470d71939382448be2ecd06efa9662,
        type: 3}
      propertyPath: m_Mesh
      value: 
      objectReference: {fileID: 0}
    - target: {fileID: 6520512445149134010, guid: 18470d71939382448be2ecd06efa9662,
        type: 3}
      propertyPath: m_AnchorMax.y
      value: 0
      objectReference: {fileID: 0}
    - target: {fileID: 6520512445149134010, guid: 18470d71939382448be2ecd06efa9662,
        type: 3}
      propertyPath: m_AnchorMin.y
      value: 0
      objectReference: {fileID: 0}
    - target: {fileID: 6520512445149134010, guid: 18470d71939382448be2ecd06efa9662,
        type: 3}
      propertyPath: m_SizeDelta.x
      value: 0
      objectReference: {fileID: 0}
    - target: {fileID: 6520512445149134010, guid: 18470d71939382448be2ecd06efa9662,
        type: 3}
      propertyPath: m_AnchoredPosition.y
      value: 0
      objectReference: {fileID: 0}
    - target: {fileID: 6636591464266677543, guid: 18470d71939382448be2ecd06efa9662,
        type: 3}
      propertyPath: m_AnchorMax.y
      value: 0
      objectReference: {fileID: 0}
    - target: {fileID: 6636591464266677543, guid: 18470d71939382448be2ecd06efa9662,
        type: 3}
      propertyPath: m_AnchorMin.y
      value: 0
      objectReference: {fileID: 0}
    - target: {fileID: 6636591464266677543, guid: 18470d71939382448be2ecd06efa9662,
        type: 3}
      propertyPath: m_SizeDelta.x
      value: 0
      objectReference: {fileID: 0}
    - target: {fileID: 6636591464266677543, guid: 18470d71939382448be2ecd06efa9662,
        type: 3}
      propertyPath: m_SizeDelta.y
      value: 0
      objectReference: {fileID: 0}
    - target: {fileID: 6636591464266677543, guid: 18470d71939382448be2ecd06efa9662,
        type: 3}
      propertyPath: m_AnchoredPosition.y
      value: 0
      objectReference: {fileID: 0}
    - target: {fileID: 7222516727875101447, guid: 18470d71939382448be2ecd06efa9662,
        type: 3}
      propertyPath: m_AnchorMax.y
      value: 0
      objectReference: {fileID: 0}
    - target: {fileID: 7222516727875101447, guid: 18470d71939382448be2ecd06efa9662,
        type: 3}
      propertyPath: m_AnchorMin.y
      value: 0
      objectReference: {fileID: 0}
    - target: {fileID: 7222516727875101447, guid: 18470d71939382448be2ecd06efa9662,
        type: 3}
      propertyPath: m_SizeDelta.x
      value: 0
      objectReference: {fileID: 0}
    - target: {fileID: 7222516727875101447, guid: 18470d71939382448be2ecd06efa9662,
        type: 3}
      propertyPath: m_AnchoredPosition.x
      value: 0
      objectReference: {fileID: 0}
    - target: {fileID: 7222516727875101447, guid: 18470d71939382448be2ecd06efa9662,
        type: 3}
      propertyPath: m_AnchoredPosition.y
      value: 0
      objectReference: {fileID: 0}
    - target: {fileID: 7614231224962994365, guid: 18470d71939382448be2ecd06efa9662,
        type: 3}
      propertyPath: m_Mesh
      value: 
      objectReference: {fileID: 0}
    - target: {fileID: 7614231224962994371, guid: 18470d71939382448be2ecd06efa9662,
        type: 3}
      propertyPath: m_textInfo.lineCount
      value: 0
      objectReference: {fileID: 0}
    - target: {fileID: 7614231224962994371, guid: 18470d71939382448be2ecd06efa9662,
        type: 3}
      propertyPath: m_textInfo.pageCount
      value: 0
      objectReference: {fileID: 0}
    - target: {fileID: 7614231224962994371, guid: 18470d71939382448be2ecd06efa9662,
        type: 3}
      propertyPath: m_textInfo.wordCount
      value: 0
      objectReference: {fileID: 0}
    - target: {fileID: 7614231224962994371, guid: 18470d71939382448be2ecd06efa9662,
        type: 3}
      propertyPath: m_textInfo.characterCount
      value: 0
      objectReference: {fileID: 0}
    - target: {fileID: 7614231225784487120, guid: 18470d71939382448be2ecd06efa9662,
        type: 3}
      propertyPath: m_IsActive
      value: 0
      objectReference: {fileID: 0}
    - target: {fileID: 7614231225992287546, guid: 18470d71939382448be2ecd06efa9662,
        type: 3}
      propertyPath: m_Name
      value: SceneDescriptionPanelRev
      objectReference: {fileID: 0}
    - target: {fileID: 7614231225992287547, guid: 18470d71939382448be2ecd06efa9662,
        type: 3}
      propertyPath: m_RootOrder
      value: 1
      objectReference: {fileID: 0}
    - target: {fileID: 7614231225992287547, guid: 18470d71939382448be2ecd06efa9662,
        type: 3}
      propertyPath: m_LocalPosition.x
      value: 0.772
      objectReference: {fileID: 0}
    - target: {fileID: 7614231225992287547, guid: 18470d71939382448be2ecd06efa9662,
        type: 3}
      propertyPath: m_LocalPosition.y
      value: 0.33
      objectReference: {fileID: 0}
    - target: {fileID: 7614231225992287547, guid: 18470d71939382448be2ecd06efa9662,
        type: 3}
      propertyPath: m_LocalPosition.z
      value: 0.802
      objectReference: {fileID: 0}
    - target: {fileID: 7614231225992287547, guid: 18470d71939382448be2ecd06efa9662,
        type: 3}
      propertyPath: m_LocalRotation.w
      value: 0.953717
      objectReference: {fileID: 0}
    - target: {fileID: 7614231225992287547, guid: 18470d71939382448be2ecd06efa9662,
        type: 3}
      propertyPath: m_LocalRotation.x
      value: 0
      objectReference: {fileID: 0}
    - target: {fileID: 7614231225992287547, guid: 18470d71939382448be2ecd06efa9662,
        type: 3}
      propertyPath: m_LocalRotation.y
      value: 0.30070576
      objectReference: {fileID: 0}
    - target: {fileID: 7614231225992287547, guid: 18470d71939382448be2ecd06efa9662,
        type: 3}
      propertyPath: m_LocalRotation.z
      value: 0
      objectReference: {fileID: 0}
    - target: {fileID: 7614231225992287547, guid: 18470d71939382448be2ecd06efa9662,
        type: 3}
      propertyPath: m_LocalEulerAnglesHint.x
      value: 0
      objectReference: {fileID: 0}
    - target: {fileID: 7614231225992287547, guid: 18470d71939382448be2ecd06efa9662,
        type: 3}
      propertyPath: m_LocalEulerAnglesHint.y
      value: 35
      objectReference: {fileID: 0}
    - target: {fileID: 7614231225992287547, guid: 18470d71939382448be2ecd06efa9662,
        type: 3}
      propertyPath: m_LocalEulerAnglesHint.z
      value: 0
      objectReference: {fileID: 0}
    - target: {fileID: 7614231226555770154, guid: 18470d71939382448be2ecd06efa9662,
        type: 3}
      propertyPath: m_Mesh
      value: 
      objectReference: {fileID: 0}
    - target: {fileID: 7614231226555770156, guid: 18470d71939382448be2ecd06efa9662,
        type: 3}
      propertyPath: m_textInfo.lineCount
      value: 0
      objectReference: {fileID: 0}
    - target: {fileID: 7614231226555770156, guid: 18470d71939382448be2ecd06efa9662,
        type: 3}
      propertyPath: m_textInfo.pageCount
      value: 0
      objectReference: {fileID: 0}
    - target: {fileID: 7614231226555770156, guid: 18470d71939382448be2ecd06efa9662,
        type: 3}
      propertyPath: m_textInfo.wordCount
      value: 0
      objectReference: {fileID: 0}
    - target: {fileID: 7614231226555770156, guid: 18470d71939382448be2ecd06efa9662,
        type: 3}
      propertyPath: m_textInfo.spaceCount
      value: 0
      objectReference: {fileID: 0}
    - target: {fileID: 7614231226555770156, guid: 18470d71939382448be2ecd06efa9662,
        type: 3}
      propertyPath: m_textInfo.characterCount
      value: 0
      objectReference: {fileID: 0}
    - target: {fileID: 8239495094510916357, guid: 18470d71939382448be2ecd06efa9662,
        type: 3}
      propertyPath: m_AnchorMax.y
      value: 0
      objectReference: {fileID: 0}
    - target: {fileID: 8239495094510916357, guid: 18470d71939382448be2ecd06efa9662,
        type: 3}
      propertyPath: m_AnchorMin.y
      value: 0
      objectReference: {fileID: 0}
    - target: {fileID: 8239495094510916357, guid: 18470d71939382448be2ecd06efa9662,
        type: 3}
      propertyPath: m_AnchoredPosition.x
      value: 0
      objectReference: {fileID: 0}
    - target: {fileID: 8239495094510916357, guid: 18470d71939382448be2ecd06efa9662,
        type: 3}
      propertyPath: m_AnchoredPosition.y
      value: 0
      objectReference: {fileID: 0}
    m_RemovedComponents: []
  m_SourcePrefab: {fileID: 100100000, guid: 18470d71939382448be2ecd06efa9662, type: 3}
--- !u!4 &871504264 stripped
Transform:
  m_CorrespondingSourceObject: {fileID: 7614231225992287547, guid: 18470d71939382448be2ecd06efa9662,
    type: 3}
  m_PrefabInstance: {fileID: 871504263}
  m_PrefabAsset: {fileID: 0}
--- !u!1001 &1090116487
PrefabInstance:
  m_ObjectHideFlags: 0
  serializedVersion: 2
  m_Modification:
    m_TransformParent: {fileID: 167935245}
    m_Modifications:
    - target: {fileID: 221594249052139623, guid: 4f44c0d070528944c9bff425c6932763,
        type: 3}
      propertyPath: m_IsActive
      value: 1
      objectReference: {fileID: 0}
    - target: {fileID: 721660114511089077, guid: 4f44c0d070528944c9bff425c6932763,
        type: 3}
      propertyPath: m_Mesh
      value: 
      objectReference: {fileID: 0}
    - target: {fileID: 3126786008848669196, guid: 4f44c0d070528944c9bff425c6932763,
        type: 3}
      propertyPath: m_Name
      value: PressableButtonHoloLens2_32x96 (3)
      objectReference: {fileID: 0}
    - target: {fileID: 3126786009469193090, guid: 4f44c0d070528944c9bff425c6932763,
        type: 3}
      propertyPath: m_Mesh
      value: 
      objectReference: {fileID: 0}
    - target: {fileID: 3126786009469193212, guid: 4f44c0d070528944c9bff425c6932763,
        type: 3}
      propertyPath: m_text
      value: 'Confirmation Dialog

        Medium / Near'
      objectReference: {fileID: 0}
    - target: {fileID: 3126786009469193212, guid: 4f44c0d070528944c9bff425c6932763,
        type: 3}
      propertyPath: m_textInfo.lineCount
      value: 2
      objectReference: {fileID: 0}
    - target: {fileID: 3126786009469193212, guid: 4f44c0d070528944c9bff425c6932763,
        type: 3}
      propertyPath: m_textInfo.pageCount
      value: 1
      objectReference: {fileID: 0}
    - target: {fileID: 3126786009469193212, guid: 4f44c0d070528944c9bff425c6932763,
        type: 3}
      propertyPath: m_textInfo.wordCount
      value: 4
      objectReference: {fileID: 0}
    - target: {fileID: 3126786009469193212, guid: 4f44c0d070528944c9bff425c6932763,
        type: 3}
      propertyPath: m_textInfo.spaceCount
      value: 4
      objectReference: {fileID: 0}
    - target: {fileID: 3126786009469193212, guid: 4f44c0d070528944c9bff425c6932763,
        type: 3}
      propertyPath: m_textInfo.characterCount
      value: 33
      objectReference: {fileID: 0}
    - target: {fileID: 3126786009469193212, guid: 4f44c0d070528944c9bff425c6932763,
        type: 3}
      propertyPath: m_firstOverflowCharacterIndex
      value: 20
      objectReference: {fileID: 0}
    - target: {fileID: 3126786010476584173, guid: 4f44c0d070528944c9bff425c6932763,
        type: 3}
      propertyPath: m_RootOrder
      value: 1
      objectReference: {fileID: 0}
    - target: {fileID: 3126786010476584173, guid: 4f44c0d070528944c9bff425c6932763,
        type: 3}
      propertyPath: m_LocalPosition.x
      value: -0.048
      objectReference: {fileID: 0}
    - target: {fileID: 3126786010476584173, guid: 4f44c0d070528944c9bff425c6932763,
        type: 3}
      propertyPath: m_LocalPosition.y
      value: -0.0000000018626451
      objectReference: {fileID: 0}
    - target: {fileID: 3126786010476584173, guid: 4f44c0d070528944c9bff425c6932763,
        type: 3}
      propertyPath: m_LocalPosition.z
      value: 0
      objectReference: {fileID: 0}
    - target: {fileID: 3126786010476584173, guid: 4f44c0d070528944c9bff425c6932763,
        type: 3}
      propertyPath: m_LocalRotation.w
      value: 1
      objectReference: {fileID: 0}
    - target: {fileID: 3126786010476584173, guid: 4f44c0d070528944c9bff425c6932763,
        type: 3}
      propertyPath: m_LocalRotation.x
      value: -0
      objectReference: {fileID: 0}
    - target: {fileID: 3126786010476584173, guid: 4f44c0d070528944c9bff425c6932763,
        type: 3}
      propertyPath: m_LocalRotation.y
      value: -0
      objectReference: {fileID: 0}
    - target: {fileID: 3126786010476584173, guid: 4f44c0d070528944c9bff425c6932763,
        type: 3}
      propertyPath: m_LocalRotation.z
      value: -0
      objectReference: {fileID: 0}
    - target: {fileID: 3126786010476584173, guid: 4f44c0d070528944c9bff425c6932763,
        type: 3}
      propertyPath: m_LocalEulerAnglesHint.x
      value: 0
      objectReference: {fileID: 0}
    - target: {fileID: 3126786010476584173, guid: 4f44c0d070528944c9bff425c6932763,
        type: 3}
      propertyPath: m_LocalEulerAnglesHint.y
      value: 0
      objectReference: {fileID: 0}
    - target: {fileID: 3126786010476584173, guid: 4f44c0d070528944c9bff425c6932763,
        type: 3}
      propertyPath: m_LocalEulerAnglesHint.z
      value: 0
      objectReference: {fileID: 0}
    - target: {fileID: 3456123869903824599, guid: 4f44c0d070528944c9bff425c6932763,
        type: 3}
      propertyPath: m_IsActive
      value: 0
      objectReference: {fileID: 0}
    - target: {fileID: 3640519426667357854, guid: 4f44c0d070528944c9bff425c6932763,
        type: 3}
      propertyPath: m_LocalScale.x
      value: 0.032
      objectReference: {fileID: 0}
    - target: {fileID: 3640519426667357854, guid: 4f44c0d070528944c9bff425c6932763,
        type: 3}
      propertyPath: m_LocalScale.y
      value: 0.096
      objectReference: {fileID: 0}
    - target: {fileID: 3640519426667357854, guid: 4f44c0d070528944c9bff425c6932763,
        type: 3}
      propertyPath: m_LocalPosition.x
      value: 0
      objectReference: {fileID: 0}
    - target: {fileID: 4707993670919958581, guid: 4f44c0d070528944c9bff425c6932763,
        type: 3}
      propertyPath: iconQuadTexture
      value: 
      objectReference: {fileID: 2800000, guid: 937867e9be7912d4a903cd401ee0a959, type: 3}
    - target: {fileID: 5487525929659315375, guid: 4f44c0d070528944c9bff425c6932763,
        type: 3}
      propertyPath: OnClick.m_PersistentCalls.m_Calls.Array.data[0].m_Target
      value: 
      objectReference: {fileID: 769440711}
    - target: {fileID: 5487525929659315375, guid: 4f44c0d070528944c9bff425c6932763,
        type: 3}
      propertyPath: OnClick.m_PersistentCalls.m_Calls.Array.data[0].m_MethodName
      value: OpenConfirmationDialogMedium
      objectReference: {fileID: 0}
    - target: {fileID: 6055314345997109590, guid: 4f44c0d070528944c9bff425c6932763,
        type: 3}
      propertyPath: m_textInfo.lineCount
      value: 0
      objectReference: {fileID: 0}
    - target: {fileID: 6055314345997109590, guid: 4f44c0d070528944c9bff425c6932763,
        type: 3}
      propertyPath: m_textInfo.pageCount
      value: 0
      objectReference: {fileID: 0}
    - target: {fileID: 6055314345997109590, guid: 4f44c0d070528944c9bff425c6932763,
        type: 3}
      propertyPath: m_textInfo.wordCount
      value: 0
      objectReference: {fileID: 0}
    - target: {fileID: 6055314345997109590, guid: 4f44c0d070528944c9bff425c6932763,
        type: 3}
      propertyPath: m_textInfo.spaceCount
      value: 0
      objectReference: {fileID: 0}
    - target: {fileID: 6055314345997109590, guid: 4f44c0d070528944c9bff425c6932763,
        type: 3}
      propertyPath: m_textInfo.characterCount
      value: 0
      objectReference: {fileID: 0}
    m_RemovedComponents: []
  m_SourcePrefab: {fileID: 100100000, guid: 4f44c0d070528944c9bff425c6932763, type: 3}
--- !u!4 &1090116488 stripped
Transform:
  m_CorrespondingSourceObject: {fileID: 3126786010476584173, guid: 4f44c0d070528944c9bff425c6932763,
    type: 3}
  m_PrefabInstance: {fileID: 1090116487}
  m_PrefabAsset: {fileID: 0}
--- !u!1 &1237224295
GameObject:
  m_ObjectHideFlags: 0
  m_CorrespondingSourceObject: {fileID: 0}
  m_PrefabInstance: {fileID: 0}
  m_PrefabAsset: {fileID: 0}
  serializedVersion: 6
  m_Component:
  - component: {fileID: 1237224296}
  - component: {fileID: 1237224300}
  - component: {fileID: 1237224298}
  - component: {fileID: 1237224297}
  m_Layer: 0
  m_Name: SectionTitle
  m_TagString: Untagged
  m_Icon: {fileID: 0}
  m_NavMeshLayer: 0
  m_StaticEditorFlags: 0
  m_IsActive: 1
--- !u!224 &1237224296
RectTransform:
  m_ObjectHideFlags: 0
  m_CorrespondingSourceObject: {fileID: 0}
  m_PrefabInstance: {fileID: 0}
  m_PrefabAsset: {fileID: 0}
  m_GameObject: {fileID: 1237224295}
  m_LocalRotation: {x: -0, y: -0, z: -0, w: 1}
  m_LocalPosition: {x: 0, y: 0, z: 0.049}
  m_LocalScale: {x: 0.010678955, y: 0.010678955, z: 0.010678955}
  m_Children: []
  m_Father: {fileID: 871504264}
  m_RootOrder: 5
  m_LocalEulerAnglesHint: {x: 0, y: 0, z: 0}
  m_AnchorMin: {x: 0.5, y: 0.5}
  m_AnchorMax: {x: 0.5, y: 0.5}
  m_AnchoredPosition: {x: -0.047, y: -0.645}
  m_SizeDelta: {x: 20, y: 5}
  m_Pivot: {x: 0.5, y: 0.5}
--- !u!114 &1237224297
MonoBehaviour:
  m_ObjectHideFlags: 0
  m_CorrespondingSourceObject: {fileID: 0}
  m_PrefabInstance: {fileID: 0}
  m_PrefabAsset: {fileID: 0}
  m_GameObject: {fileID: 1237224295}
  m_Enabled: 1
  m_EditorHideFlags: 0
  m_Script: {fileID: 11500000, guid: 9541d86e2fd84c1d9990edf0852d74ab, type: 3}
  m_Name: 
  m_EditorClassIdentifier: 
  m_Material: {fileID: 0}
  m_Color: {r: 1, g: 1, b: 1, a: 1}
  m_RaycastTarget: 1
  m_RaycastPadding: {x: 0, y: 0, z: 0, w: 0}
  m_Maskable: 1
  m_OnCullStateChanged:
    m_PersistentCalls:
      m_Calls: []
  m_text: "Near interaction\n<size=22>Direct interaction with hands. \ne.g. HoloLens
    2</size>"
  m_isRightToLeft: 0
  m_fontAsset: {fileID: 11400000, guid: 6a84f857bec7e7345843ae29404c57ce, type: 2}
  m_sharedMaterial: {fileID: 21202819797275496, guid: 6a84f857bec7e7345843ae29404c57ce,
    type: 2}
  m_fontSharedMaterials: []
  m_fontMaterial: {fileID: 0}
  m_fontMaterials: []
  m_fontColor32:
    serializedVersion: 2
    rgba: 4294967295
  m_fontColor: {r: 1, g: 1, b: 1, a: 1}
  m_enableVertexGradient: 0
  m_colorMode: 3
  m_fontColorGradient:
    topLeft: {r: 1, g: 1, b: 1, a: 1}
    topRight: {r: 1, g: 1, b: 1, a: 1}
    bottomLeft: {r: 1, g: 1, b: 1, a: 1}
    bottomRight: {r: 1, g: 1, b: 1, a: 1}
  m_fontColorGradientPreset: {fileID: 0}
  m_spriteAsset: {fileID: 0}
  m_tintAllSprites: 0
  m_StyleSheet: {fileID: 0}
  m_TextStyleHashCode: 0
  m_overrideHtmlColors: 0
  m_faceColor:
    serializedVersion: 2
    rgba: 4294967295
  m_fontSize: 32
  m_fontSizeBase: 32
  m_fontWeight: 400
  m_enableAutoSizing: 0
  m_fontSizeMin: 18
  m_fontSizeMax: 72
  m_fontStyle: 0
  m_HorizontalAlignment: 1
  m_VerticalAlignment: 256
  m_textAlignment: 65535
  m_characterSpacing: 0
  m_wordSpacing: 0
  m_lineSpacing: 0
  m_lineSpacingMax: 0
  m_paragraphSpacing: 0
  m_charWidthMaxAdj: 0
  m_enableWordWrapping: 1
  m_wordWrappingRatios: 0.4
  m_overflowMode: 0
  m_linkedTextComponent: {fileID: 0}
  parentLinkedComponent: {fileID: 0}
  m_enableKerning: 1
  m_enableExtraPadding: 0
  checkPaddingRequired: 0
  m_isRichText: 1
  m_parseCtrlCharacters: 1
  m_isOrthographic: 0
  m_isCullingEnabled: 0
  m_horizontalMapping: 0
  m_verticalMapping: 0
  m_uvLineOffset: 0
  m_geometrySortingOrder: 0
  m_IsTextObjectScaleStatic: 0
  m_VertexBufferAutoSizeReduction: 1
  m_useMaxVisibleDescender: 1
  m_pageToDisplay: 1
  m_margin: {x: -26.810488, y: 0, z: 14.093259, w: 0}
  m_isUsingLegacyAnimationComponent: 0
  m_isVolumetricText: 0
  _SortingLayer: 0
  _SortingLayerID: 0
  _SortingOrder: 0
  m_hasFontAssetChanged: 0
  m_renderer: {fileID: 1237224300}
  m_maskType: 0
--- !u!222 &1237224298
CanvasRenderer:
  m_ObjectHideFlags: 0
  m_CorrespondingSourceObject: {fileID: 0}
  m_PrefabInstance: {fileID: 0}
  m_PrefabAsset: {fileID: 0}
  m_GameObject: {fileID: 1237224295}
  m_CullTransparentMesh: 0
--- !u!23 &1237224300
MeshRenderer:
  m_ObjectHideFlags: 0
  m_CorrespondingSourceObject: {fileID: 0}
  m_PrefabInstance: {fileID: 0}
  m_PrefabAsset: {fileID: 0}
  m_GameObject: {fileID: 1237224295}
  m_Enabled: 1
  m_CastShadows: 0
  m_ReceiveShadows: 0
  m_DynamicOccludee: 1
  m_StaticShadowCaster: 0
  m_MotionVectors: 1
  m_LightProbeUsage: 1
  m_ReflectionProbeUsage: 1
  m_RayTracingMode: 2
  m_RayTraceProcedural: 0
  m_RenderingLayerMask: 1
  m_RendererPriority: 0
  m_Materials:
  - {fileID: 21202819797275496, guid: 6a84f857bec7e7345843ae29404c57ce, type: 2}
  m_StaticBatchInfo:
    firstSubMesh: 0
    subMeshCount: 0
  m_StaticBatchRoot: {fileID: 0}
  m_ProbeAnchor: {fileID: 0}
  m_LightProbeVolumeOverride: {fileID: 0}
  m_ScaleInLightmap: 1
  m_ReceiveGI: 1
  m_PreserveUVs: 0
  m_IgnoreNormalsForChartDetection: 0
  m_ImportantGI: 0
  m_StitchLightmapSeams: 0
  m_SelectedEditorRenderState: 3
  m_MinimumChartSize: 4
  m_AutoUVMaxDistance: 0.5
  m_AutoUVMaxAngle: 89
  m_LightmapParameters: {fileID: 0}
  m_SortingLayerID: 0
  m_SortingLayer: 0
  m_SortingOrder: 0
  m_AdditionalVertexStreams: {fileID: 0}
--- !u!1001 &1323577138
PrefabInstance:
  m_ObjectHideFlags: 0
  serializedVersion: 2
  m_Modification:
    m_TransformParent: {fileID: 172924236}
    m_Modifications:
    - target: {fileID: 221594249052139623, guid: 4f44c0d070528944c9bff425c6932763,
        type: 3}
      propertyPath: m_IsActive
      value: 1
      objectReference: {fileID: 0}
    - target: {fileID: 721660114511089077, guid: 4f44c0d070528944c9bff425c6932763,
        type: 3}
      propertyPath: m_Mesh
      value: 
      objectReference: {fileID: 0}
    - target: {fileID: 3126786008848669196, guid: 4f44c0d070528944c9bff425c6932763,
        type: 3}
      propertyPath: m_Name
      value: PressableButtonHoloLens2_32x96 (4)
      objectReference: {fileID: 0}
    - target: {fileID: 3126786009469193090, guid: 4f44c0d070528944c9bff425c6932763,
        type: 3}
      propertyPath: m_Mesh
      value: 
      objectReference: {fileID: 0}
    - target: {fileID: 3126786009469193212, guid: 4f44c0d070528944c9bff425c6932763,
        type: 3}
      propertyPath: m_text
      value: 'Choice Dialog

        Medium / Far'
      objectReference: {fileID: 0}
    - target: {fileID: 3126786009469193212, guid: 4f44c0d070528944c9bff425c6932763,
        type: 3}
      propertyPath: m_textInfo.lineCount
      value: 0
      objectReference: {fileID: 0}
    - target: {fileID: 3126786009469193212, guid: 4f44c0d070528944c9bff425c6932763,
        type: 3}
      propertyPath: m_textInfo.pageCount
      value: 0
      objectReference: {fileID: 0}
    - target: {fileID: 3126786009469193212, guid: 4f44c0d070528944c9bff425c6932763,
        type: 3}
      propertyPath: m_textInfo.wordCount
      value: 0
      objectReference: {fileID: 0}
    - target: {fileID: 3126786009469193212, guid: 4f44c0d070528944c9bff425c6932763,
        type: 3}
      propertyPath: m_textInfo.spaceCount
      value: 0
      objectReference: {fileID: 0}
    - target: {fileID: 3126786009469193212, guid: 4f44c0d070528944c9bff425c6932763,
        type: 3}
      propertyPath: m_textInfo.characterCount
      value: 0
      objectReference: {fileID: 0}
    - target: {fileID: 3126786009469193212, guid: 4f44c0d070528944c9bff425c6932763,
        type: 3}
      propertyPath: m_firstOverflowCharacterIndex
      value: 14
      objectReference: {fileID: 0}
    - target: {fileID: 3126786010476584173, guid: 4f44c0d070528944c9bff425c6932763,
        type: 3}
      propertyPath: m_RootOrder
      value: 1
      objectReference: {fileID: 0}
    - target: {fileID: 3126786010476584173, guid: 4f44c0d070528944c9bff425c6932763,
        type: 3}
      propertyPath: m_LocalPosition.x
      value: 0.048
      objectReference: {fileID: 0}
    - target: {fileID: 3126786010476584173, guid: 4f44c0d070528944c9bff425c6932763,
        type: 3}
      propertyPath: m_LocalPosition.y
      value: -0.0000000018626451
      objectReference: {fileID: 0}
    - target: {fileID: 3126786010476584173, guid: 4f44c0d070528944c9bff425c6932763,
        type: 3}
      propertyPath: m_LocalPosition.z
      value: 0
      objectReference: {fileID: 0}
    - target: {fileID: 3126786010476584173, guid: 4f44c0d070528944c9bff425c6932763,
        type: 3}
      propertyPath: m_LocalRotation.w
      value: 1
      objectReference: {fileID: 0}
    - target: {fileID: 3126786010476584173, guid: 4f44c0d070528944c9bff425c6932763,
        type: 3}
      propertyPath: m_LocalRotation.x
      value: -0
      objectReference: {fileID: 0}
    - target: {fileID: 3126786010476584173, guid: 4f44c0d070528944c9bff425c6932763,
        type: 3}
      propertyPath: m_LocalRotation.y
      value: -0
      objectReference: {fileID: 0}
    - target: {fileID: 3126786010476584173, guid: 4f44c0d070528944c9bff425c6932763,
        type: 3}
      propertyPath: m_LocalRotation.z
      value: -0
      objectReference: {fileID: 0}
    - target: {fileID: 3126786010476584173, guid: 4f44c0d070528944c9bff425c6932763,
        type: 3}
      propertyPath: m_LocalEulerAnglesHint.x
      value: 0
      objectReference: {fileID: 0}
    - target: {fileID: 3126786010476584173, guid: 4f44c0d070528944c9bff425c6932763,
        type: 3}
      propertyPath: m_LocalEulerAnglesHint.y
      value: 0
      objectReference: {fileID: 0}
    - target: {fileID: 3126786010476584173, guid: 4f44c0d070528944c9bff425c6932763,
        type: 3}
      propertyPath: m_LocalEulerAnglesHint.z
      value: 0
      objectReference: {fileID: 0}
    - target: {fileID: 3456123869903824599, guid: 4f44c0d070528944c9bff425c6932763,
        type: 3}
      propertyPath: m_IsActive
      value: 0
      objectReference: {fileID: 0}
    - target: {fileID: 3640519426667357854, guid: 4f44c0d070528944c9bff425c6932763,
        type: 3}
      propertyPath: m_LocalScale.y
      value: 0.096
      objectReference: {fileID: 0}
    - target: {fileID: 4707993670919958581, guid: 4f44c0d070528944c9bff425c6932763,
        type: 3}
      propertyPath: iconQuadTexture
      value: 
      objectReference: {fileID: 2800000, guid: 937867e9be7912d4a903cd401ee0a959, type: 3}
    - target: {fileID: 5487525929659315375, guid: 4f44c0d070528944c9bff425c6932763,
        type: 3}
      propertyPath: OnClick.m_PersistentCalls.m_Calls.Array.data[0].m_Target
      value: 
      objectReference: {fileID: 769440711}
    - target: {fileID: 5487525929659315375, guid: 4f44c0d070528944c9bff425c6932763,
        type: 3}
      propertyPath: OnClick.m_PersistentCalls.m_Calls.Array.data[0].m_MethodName
      value: OpenChoiceDialogMedium
      objectReference: {fileID: 0}
    - target: {fileID: 6055314345997109590, guid: 4f44c0d070528944c9bff425c6932763,
        type: 3}
      propertyPath: m_textInfo.lineCount
      value: 0
      objectReference: {fileID: 0}
    - target: {fileID: 6055314345997109590, guid: 4f44c0d070528944c9bff425c6932763,
        type: 3}
      propertyPath: m_textInfo.pageCount
      value: 0
      objectReference: {fileID: 0}
    - target: {fileID: 6055314345997109590, guid: 4f44c0d070528944c9bff425c6932763,
        type: 3}
      propertyPath: m_textInfo.wordCount
      value: 0
      objectReference: {fileID: 0}
    - target: {fileID: 6055314345997109590, guid: 4f44c0d070528944c9bff425c6932763,
        type: 3}
      propertyPath: m_textInfo.spaceCount
      value: 0
      objectReference: {fileID: 0}
    - target: {fileID: 6055314345997109590, guid: 4f44c0d070528944c9bff425c6932763,
        type: 3}
      propertyPath: m_textInfo.characterCount
      value: 0
      objectReference: {fileID: 0}
    m_RemovedComponents: []
  m_SourcePrefab: {fileID: 100100000, guid: 4f44c0d070528944c9bff425c6932763, type: 3}
--- !u!4 &1323577139 stripped
Transform:
  m_CorrespondingSourceObject: {fileID: 3126786010476584173, guid: 4f44c0d070528944c9bff425c6932763,
    type: 3}
  m_PrefabInstance: {fileID: 1323577138}
  m_PrefabAsset: {fileID: 0}
--- !u!1001 &1388026287
PrefabInstance:
  m_ObjectHideFlags: 0
  serializedVersion: 2
  m_Modification:
    m_TransformParent: {fileID: 167935245}
    m_Modifications:
    - target: {fileID: 221594249052139623, guid: 4f44c0d070528944c9bff425c6932763,
        type: 3}
      propertyPath: m_IsActive
      value: 0
      objectReference: {fileID: 0}
    - target: {fileID: 721660114511089077, guid: 4f44c0d070528944c9bff425c6932763,
        type: 3}
      propertyPath: m_Mesh
      value: 
      objectReference: {fileID: 0}
    - target: {fileID: 3126786008848669196, guid: 4f44c0d070528944c9bff425c6932763,
        type: 3}
      propertyPath: m_Name
      value: PressableButtonHoloLens2_32x96 (2)
      objectReference: {fileID: 0}
    - target: {fileID: 3126786009469193090, guid: 4f44c0d070528944c9bff425c6932763,
        type: 3}
      propertyPath: m_Mesh
      value: 
      objectReference: {fileID: 0}
    - target: {fileID: 3126786009469193212, guid: 4f44c0d070528944c9bff425c6932763,
        type: 3}
      propertyPath: m_text
      value: 'Choice Dialog

        Large / Near'
      objectReference: {fileID: 0}
    - target: {fileID: 3126786009469193212, guid: 4f44c0d070528944c9bff425c6932763,
        type: 3}
      propertyPath: m_textInfo.lineCount
      value: 2
      objectReference: {fileID: 0}
    - target: {fileID: 3126786009469193212, guid: 4f44c0d070528944c9bff425c6932763,
        type: 3}
      propertyPath: m_textInfo.pageCount
      value: 1
      objectReference: {fileID: 0}
    - target: {fileID: 3126786009469193212, guid: 4f44c0d070528944c9bff425c6932763,
        type: 3}
      propertyPath: m_textInfo.wordCount
      value: 4
      objectReference: {fileID: 0}
    - target: {fileID: 3126786009469193212, guid: 4f44c0d070528944c9bff425c6932763,
        type: 3}
      propertyPath: m_textInfo.spaceCount
      value: 4
      objectReference: {fileID: 0}
    - target: {fileID: 3126786009469193212, guid: 4f44c0d070528944c9bff425c6932763,
        type: 3}
      propertyPath: m_textInfo.characterCount
      value: 26
      objectReference: {fileID: 0}
    - target: {fileID: 3126786009469193212, guid: 4f44c0d070528944c9bff425c6932763,
        type: 3}
      propertyPath: m_firstOverflowCharacterIndex
      value: 14
      objectReference: {fileID: 0}
    - target: {fileID: 3126786010476584173, guid: 4f44c0d070528944c9bff425c6932763,
        type: 3}
      propertyPath: m_RootOrder
      value: 0
      objectReference: {fileID: 0}
    - target: {fileID: 3126786010476584173, guid: 4f44c0d070528944c9bff425c6932763,
        type: 3}
      propertyPath: m_LocalPosition.x
      value: -0.048
      objectReference: {fileID: 0}
    - target: {fileID: 3126786010476584173, guid: 4f44c0d070528944c9bff425c6932763,
        type: 3}
      propertyPath: m_LocalPosition.y
      value: 0.031999998
      objectReference: {fileID: 0}
    - target: {fileID: 3126786010476584173, guid: 4f44c0d070528944c9bff425c6932763,
        type: 3}
      propertyPath: m_LocalPosition.z
      value: 0
      objectReference: {fileID: 0}
    - target: {fileID: 3126786010476584173, guid: 4f44c0d070528944c9bff425c6932763,
        type: 3}
      propertyPath: m_LocalRotation.w
      value: 1
      objectReference: {fileID: 0}
    - target: {fileID: 3126786010476584173, guid: 4f44c0d070528944c9bff425c6932763,
        type: 3}
      propertyPath: m_LocalRotation.x
      value: -0
      objectReference: {fileID: 0}
    - target: {fileID: 3126786010476584173, guid: 4f44c0d070528944c9bff425c6932763,
        type: 3}
      propertyPath: m_LocalRotation.y
      value: -0
      objectReference: {fileID: 0}
    - target: {fileID: 3126786010476584173, guid: 4f44c0d070528944c9bff425c6932763,
        type: 3}
      propertyPath: m_LocalRotation.z
      value: -0
      objectReference: {fileID: 0}
    - target: {fileID: 3126786010476584173, guid: 4f44c0d070528944c9bff425c6932763,
        type: 3}
      propertyPath: m_LocalEulerAnglesHint.x
      value: 0
      objectReference: {fileID: 0}
    - target: {fileID: 3126786010476584173, guid: 4f44c0d070528944c9bff425c6932763,
        type: 3}
      propertyPath: m_LocalEulerAnglesHint.y
      value: 0
      objectReference: {fileID: 0}
    - target: {fileID: 3126786010476584173, guid: 4f44c0d070528944c9bff425c6932763,
        type: 3}
      propertyPath: m_LocalEulerAnglesHint.z
      value: 0
      objectReference: {fileID: 0}
    - target: {fileID: 3456123869903824599, guid: 4f44c0d070528944c9bff425c6932763,
        type: 3}
      propertyPath: m_IsActive
      value: 0
      objectReference: {fileID: 0}
    - target: {fileID: 4707993670919958581, guid: 4f44c0d070528944c9bff425c6932763,
        type: 3}
      propertyPath: iconQuadTexture
      value: 
      objectReference: {fileID: 2800000, guid: 937867e9be7912d4a903cd401ee0a959, type: 3}
    - target: {fileID: 5487525929659315375, guid: 4f44c0d070528944c9bff425c6932763,
        type: 3}
      propertyPath: OnClick.m_PersistentCalls.m_Calls.Array.data[0].m_Target
      value: 
      objectReference: {fileID: 769440711}
    - target: {fileID: 5487525929659315375, guid: 4f44c0d070528944c9bff425c6932763,
        type: 3}
      propertyPath: OnClick.m_PersistentCalls.m_Calls.Array.data[0].m_MethodName
      value: OpenChoiceDialogLarge
      objectReference: {fileID: 0}
    - target: {fileID: 6055314345997109590, guid: 4f44c0d070528944c9bff425c6932763,
        type: 3}
      propertyPath: m_textInfo.lineCount
      value: 0
      objectReference: {fileID: 0}
    - target: {fileID: 6055314345997109590, guid: 4f44c0d070528944c9bff425c6932763,
        type: 3}
      propertyPath: m_textInfo.pageCount
      value: 0
      objectReference: {fileID: 0}
    - target: {fileID: 6055314345997109590, guid: 4f44c0d070528944c9bff425c6932763,
        type: 3}
      propertyPath: m_textInfo.wordCount
      value: 0
      objectReference: {fileID: 0}
    - target: {fileID: 6055314345997109590, guid: 4f44c0d070528944c9bff425c6932763,
        type: 3}
      propertyPath: m_textInfo.spaceCount
      value: 0
      objectReference: {fileID: 0}
    - target: {fileID: 6055314345997109590, guid: 4f44c0d070528944c9bff425c6932763,
        type: 3}
      propertyPath: m_textInfo.characterCount
      value: 0
      objectReference: {fileID: 0}
    m_RemovedComponents: []
  m_SourcePrefab: {fileID: 100100000, guid: 4f44c0d070528944c9bff425c6932763, type: 3}
--- !u!4 &1388026288 stripped
Transform:
  m_CorrespondingSourceObject: {fileID: 3126786010476584173, guid: 4f44c0d070528944c9bff425c6932763,
    type: 3}
  m_PrefabInstance: {fileID: 1388026287}
  m_PrefabAsset: {fileID: 0}
--- !u!1001 &1700882515
PrefabInstance:
  m_ObjectHideFlags: 0
  serializedVersion: 2
  m_Modification:
    m_TransformParent: {fileID: 172924236}
    m_Modifications:
    - target: {fileID: 221594249052139623, guid: 4f44c0d070528944c9bff425c6932763,
        type: 3}
      propertyPath: m_IsActive
      value: 0
      objectReference: {fileID: 0}
    - target: {fileID: 721660114511089077, guid: 4f44c0d070528944c9bff425c6932763,
        type: 3}
      propertyPath: m_Mesh
      value: 
      objectReference: {fileID: 0}
    - target: {fileID: 3126786008848669196, guid: 4f44c0d070528944c9bff425c6932763,
        type: 3}
      propertyPath: m_Name
      value: PressableButtonHoloLens2_32x96 (1)
      objectReference: {fileID: 0}
    - target: {fileID: 3126786009469193090, guid: 4f44c0d070528944c9bff425c6932763,
        type: 3}
      propertyPath: m_Mesh
      value: 
      objectReference: {fileID: 0}
    - target: {fileID: 3126786009469193212, guid: 4f44c0d070528944c9bff425c6932763,
        type: 3}
      propertyPath: m_text
      value: 'Confirmation Dialog

        Small / Far'
      objectReference: {fileID: 0}
    - target: {fileID: 3126786009469193212, guid: 4f44c0d070528944c9bff425c6932763,
        type: 3}
      propertyPath: m_textInfo.lineCount
      value: 0
      objectReference: {fileID: 0}
    - target: {fileID: 3126786009469193212, guid: 4f44c0d070528944c9bff425c6932763,
        type: 3}
      propertyPath: m_textInfo.pageCount
      value: 0
      objectReference: {fileID: 0}
    - target: {fileID: 3126786009469193212, guid: 4f44c0d070528944c9bff425c6932763,
        type: 3}
      propertyPath: m_textInfo.wordCount
      value: 0
      objectReference: {fileID: 0}
    - target: {fileID: 3126786009469193212, guid: 4f44c0d070528944c9bff425c6932763,
        type: 3}
      propertyPath: m_textInfo.spaceCount
      value: 0
      objectReference: {fileID: 0}
    - target: {fileID: 3126786009469193212, guid: 4f44c0d070528944c9bff425c6932763,
        type: 3}
      propertyPath: m_textInfo.characterCount
      value: 0
      objectReference: {fileID: 0}
    - target: {fileID: 3126786009469193212, guid: 4f44c0d070528944c9bff425c6932763,
        type: 3}
      propertyPath: m_firstOverflowCharacterIndex
      value: 20
      objectReference: {fileID: 0}
    - target: {fileID: 3126786010476584173, guid: 4f44c0d070528944c9bff425c6932763,
        type: 3}
      propertyPath: m_RootOrder
      value: 2
      objectReference: {fileID: 0}
    - target: {fileID: 3126786010476584173, guid: 4f44c0d070528944c9bff425c6932763,
        type: 3}
      propertyPath: m_LocalPosition.x
      value: 0.048
      objectReference: {fileID: 0}
    - target: {fileID: 3126786010476584173, guid: 4f44c0d070528944c9bff425c6932763,
        type: 3}
      propertyPath: m_LocalPosition.y
      value: -0.032000005
      objectReference: {fileID: 0}
    - target: {fileID: 3126786010476584173, guid: 4f44c0d070528944c9bff425c6932763,
        type: 3}
      propertyPath: m_LocalPosition.z
      value: 0
      objectReference: {fileID: 0}
    - target: {fileID: 3126786010476584173, guid: 4f44c0d070528944c9bff425c6932763,
        type: 3}
      propertyPath: m_LocalRotation.w
      value: 1
      objectReference: {fileID: 0}
    - target: {fileID: 3126786010476584173, guid: 4f44c0d070528944c9bff425c6932763,
        type: 3}
      propertyPath: m_LocalRotation.x
      value: -0
      objectReference: {fileID: 0}
    - target: {fileID: 3126786010476584173, guid: 4f44c0d070528944c9bff425c6932763,
        type: 3}
      propertyPath: m_LocalRotation.y
      value: -0
      objectReference: {fileID: 0}
    - target: {fileID: 3126786010476584173, guid: 4f44c0d070528944c9bff425c6932763,
        type: 3}
      propertyPath: m_LocalRotation.z
      value: -0
      objectReference: {fileID: 0}
    - target: {fileID: 3126786010476584173, guid: 4f44c0d070528944c9bff425c6932763,
        type: 3}
      propertyPath: m_LocalEulerAnglesHint.x
      value: 0
      objectReference: {fileID: 0}
    - target: {fileID: 3126786010476584173, guid: 4f44c0d070528944c9bff425c6932763,
        type: 3}
      propertyPath: m_LocalEulerAnglesHint.y
      value: 0
      objectReference: {fileID: 0}
    - target: {fileID: 3126786010476584173, guid: 4f44c0d070528944c9bff425c6932763,
        type: 3}
      propertyPath: m_LocalEulerAnglesHint.z
      value: 0
      objectReference: {fileID: 0}
    - target: {fileID: 3456123869903824599, guid: 4f44c0d070528944c9bff425c6932763,
        type: 3}
      propertyPath: m_IsActive
      value: 0
      objectReference: {fileID: 0}
    - target: {fileID: 4707993670919958581, guid: 4f44c0d070528944c9bff425c6932763,
        type: 3}
      propertyPath: iconQuadTexture
      value: 
      objectReference: {fileID: 2800000, guid: 937867e9be7912d4a903cd401ee0a959, type: 3}
    - target: {fileID: 5487525929659315375, guid: 4f44c0d070528944c9bff425c6932763,
        type: 3}
      propertyPath: OnClick.m_PersistentCalls.m_Calls.Array.data[0].m_Target
      value: 
      objectReference: {fileID: 769440711}
    - target: {fileID: 5487525929659315375, guid: 4f44c0d070528944c9bff425c6932763,
        type: 3}
      propertyPath: OnClick.m_PersistentCalls.m_Calls.Array.data[0].m_MethodName
      value: OpenConfirmationDialogSmall
      objectReference: {fileID: 0}
    - target: {fileID: 6055314345997109590, guid: 4f44c0d070528944c9bff425c6932763,
        type: 3}
      propertyPath: m_textInfo.lineCount
      value: 0
      objectReference: {fileID: 0}
    - target: {fileID: 6055314345997109590, guid: 4f44c0d070528944c9bff425c6932763,
        type: 3}
      propertyPath: m_textInfo.pageCount
      value: 0
      objectReference: {fileID: 0}
    - target: {fileID: 6055314345997109590, guid: 4f44c0d070528944c9bff425c6932763,
        type: 3}
      propertyPath: m_textInfo.wordCount
      value: 0
      objectReference: {fileID: 0}
    - target: {fileID: 6055314345997109590, guid: 4f44c0d070528944c9bff425c6932763,
        type: 3}
      propertyPath: m_textInfo.spaceCount
      value: 0
      objectReference: {fileID: 0}
    - target: {fileID: 6055314345997109590, guid: 4f44c0d070528944c9bff425c6932763,
        type: 3}
      propertyPath: m_textInfo.characterCount
      value: 0
      objectReference: {fileID: 0}
    m_RemovedComponents: []
  m_SourcePrefab: {fileID: 100100000, guid: 4f44c0d070528944c9bff425c6932763, type: 3}
--- !u!4 &1700882516 stripped
Transform:
  m_CorrespondingSourceObject: {fileID: 3126786010476584173, guid: 4f44c0d070528944c9bff425c6932763,
    type: 3}
  m_PrefabInstance: {fileID: 1700882515}
  m_PrefabAsset: {fileID: 0}
--- !u!1 &1819155264
GameObject:
  m_ObjectHideFlags: 0
  m_CorrespondingSourceObject: {fileID: 0}
  m_PrefabInstance: {fileID: 0}
  m_PrefabAsset: {fileID: 0}
  serializedVersion: 6
  m_Component:
  - component: {fileID: 1819155266}
  - component: {fileID: 1819155265}
  m_Layer: 0
  m_Name: MixedRealityToolkit
  m_TagString: Untagged
  m_Icon: {fileID: 0}
  m_NavMeshLayer: 0
  m_StaticEditorFlags: 0
  m_IsActive: 1
--- !u!114 &1819155265
MonoBehaviour:
  m_ObjectHideFlags: 0
  m_CorrespondingSourceObject: {fileID: 0}
  m_PrefabInstance: {fileID: 0}
  m_PrefabAsset: {fileID: 0}
  m_GameObject: {fileID: 1819155264}
  m_Enabled: 1
  m_EditorHideFlags: 0
  m_Script: {fileID: 11500000, guid: 83d9acc7968244a8886f3af591305bcb, type: 3}
  m_Name: 
  m_EditorClassIdentifier: 
  activeProfile: {fileID: 11400000, guid: 7e7c962b9eb9dfa44993d5b2f2576752, type: 2}
--- !u!4 &1819155266
Transform:
  m_ObjectHideFlags: 0
  m_CorrespondingSourceObject: {fileID: 0}
  m_PrefabInstance: {fileID: 0}
  m_PrefabAsset: {fileID: 0}
  m_GameObject: {fileID: 1819155264}
  m_LocalRotation: {x: 0, y: 0, z: 0, w: 1}
  m_LocalPosition: {x: 0, y: 0, z: 0}
  m_LocalScale: {x: 1, y: 1, z: 1}
  m_Children: []
  m_Father: {fileID: 0}
  m_RootOrder: 1
  m_LocalEulerAnglesHint: {x: 0, y: 0, z: 0}
--- !u!1 &1873090590
GameObject:
  m_ObjectHideFlags: 0
  m_CorrespondingSourceObject: {fileID: 0}
  m_PrefabInstance: {fileID: 0}
  m_PrefabAsset: {fileID: 0}
  serializedVersion: 6
  m_Component:
  - component: {fileID: 1873090591}
  - component: {fileID: 1873090595}
  - component: {fileID: 1873090593}
  - component: {fileID: 1873090592}
  m_Layer: 0
  m_Name: SectionTitle (1)
  m_TagString: Untagged
  m_Icon: {fileID: 0}
  m_NavMeshLayer: 0
  m_StaticEditorFlags: 0
  m_IsActive: 1
--- !u!224 &1873090591
RectTransform:
  m_ObjectHideFlags: 0
  m_CorrespondingSourceObject: {fileID: 0}
  m_PrefabInstance: {fileID: 0}
  m_PrefabAsset: {fileID: 0}
  m_GameObject: {fileID: 1873090590}
  m_LocalRotation: {x: -0, y: -0, z: -0, w: 1}
  m_LocalPosition: {x: 0, y: 0, z: 0.04899998}
  m_LocalScale: {x: 0.010678955, y: 0.010678955, z: 0.010678955}
  m_Children: []
  m_Father: {fileID: 871504264}
  m_RootOrder: 6
  m_LocalEulerAnglesHint: {x: 0, y: 0, z: 0}
  m_AnchorMin: {x: 0.5, y: 0.5}
  m_AnchorMax: {x: 0.5, y: 0.5}
  m_AnchoredPosition: {x: 0.334, y: -0.645}
  m_SizeDelta: {x: 20, y: 5}
  m_Pivot: {x: 0.5, y: 0.5}
--- !u!114 &1873090592
MonoBehaviour:
  m_ObjectHideFlags: 0
  m_CorrespondingSourceObject: {fileID: 0}
  m_PrefabInstance: {fileID: 0}
  m_PrefabAsset: {fileID: 0}
  m_GameObject: {fileID: 1873090590}
  m_Enabled: 1
  m_EditorHideFlags: 0
  m_Script: {fileID: 11500000, guid: 9541d86e2fd84c1d9990edf0852d74ab, type: 3}
  m_Name: 
  m_EditorClassIdentifier: 
  m_Material: {fileID: 0}
  m_Color: {r: 1, g: 1, b: 1, a: 1}
  m_RaycastTarget: 1
  m_RaycastPadding: {x: 0, y: 0, z: 0, w: 0}
  m_Maskable: 1
  m_OnCullStateChanged:
    m_PersistentCalls:
      m_Calls: []
  m_text: "Far interaction\n<size=20>Gaze and gesture or Pointer Ray \ne.g. HoloLens
    1, Windows MR</size>"
  m_isRightToLeft: 0
  m_fontAsset: {fileID: 11400000, guid: 6a84f857bec7e7345843ae29404c57ce, type: 2}
  m_sharedMaterial: {fileID: 21202819797275496, guid: 6a84f857bec7e7345843ae29404c57ce,
    type: 2}
  m_fontSharedMaterials: []
  m_fontMaterial: {fileID: 0}
  m_fontMaterials: []
  m_fontColor32:
    serializedVersion: 2
    rgba: 4294967295
  m_fontColor: {r: 1, g: 1, b: 1, a: 1}
  m_enableVertexGradient: 0
  m_colorMode: 3
  m_fontColorGradient:
    topLeft: {r: 1, g: 1, b: 1, a: 1}
    topRight: {r: 1, g: 1, b: 1, a: 1}
    bottomLeft: {r: 1, g: 1, b: 1, a: 1}
    bottomRight: {r: 1, g: 1, b: 1, a: 1}
  m_fontColorGradientPreset: {fileID: 0}
  m_spriteAsset: {fileID: 0}
  m_tintAllSprites: 0
  m_StyleSheet: {fileID: 0}
  m_TextStyleHashCode: 0
  m_overrideHtmlColors: 0
  m_faceColor:
    serializedVersion: 2
    rgba: 4294967295
  m_fontSize: 32
  m_fontSizeBase: 32
  m_fontWeight: 400
  m_enableAutoSizing: 0
  m_fontSizeMin: 18
  m_fontSizeMax: 72
  m_fontStyle: 0
  m_HorizontalAlignment: 1
  m_VerticalAlignment: 256
  m_textAlignment: 65535
  m_characterSpacing: 0
  m_wordSpacing: 0
  m_lineSpacing: 0
  m_lineSpacingMax: 0
  m_paragraphSpacing: 0
  m_charWidthMaxAdj: 0
  m_enableWordWrapping: 1
  m_wordWrappingRatios: 0.4
  m_overflowMode: 0
  m_linkedTextComponent: {fileID: 0}
  parentLinkedComponent: {fileID: 0}
  m_enableKerning: 1
  m_enableExtraPadding: 0
  checkPaddingRequired: 0
  m_isRichText: 1
  m_parseCtrlCharacters: 1
  m_isOrthographic: 0
  m_isCullingEnabled: 0
  m_horizontalMapping: 0
  m_verticalMapping: 0
  m_uvLineOffset: 0
  m_geometrySortingOrder: 0
  m_IsTextObjectScaleStatic: 0
  m_VertexBufferAutoSizeReduction: 1
  m_useMaxVisibleDescender: 1
  m_pageToDisplay: 1
  m_margin: {x: -26.810488, y: 0, z: 14.093259, w: 0}
  m_isUsingLegacyAnimationComponent: 0
  m_isVolumetricText: 0
  _SortingLayer: 0
  _SortingLayerID: 0
  _SortingOrder: 0
  m_hasFontAssetChanged: 0
  m_renderer: {fileID: 1873090595}
  m_maskType: 0
--- !u!222 &1873090593
CanvasRenderer:
  m_ObjectHideFlags: 0
  m_CorrespondingSourceObject: {fileID: 0}
  m_PrefabInstance: {fileID: 0}
  m_PrefabAsset: {fileID: 0}
  m_GameObject: {fileID: 1873090590}
  m_CullTransparentMesh: 0
--- !u!23 &1873090595
MeshRenderer:
  m_ObjectHideFlags: 0
  m_CorrespondingSourceObject: {fileID: 0}
  m_PrefabInstance: {fileID: 0}
  m_PrefabAsset: {fileID: 0}
  m_GameObject: {fileID: 1873090590}
  m_Enabled: 1
  m_CastShadows: 0
  m_ReceiveShadows: 0
  m_DynamicOccludee: 1
  m_StaticShadowCaster: 0
  m_MotionVectors: 1
  m_LightProbeUsage: 1
  m_ReflectionProbeUsage: 1
  m_RayTracingMode: 2
  m_RayTraceProcedural: 0
  m_RenderingLayerMask: 1
  m_RendererPriority: 0
  m_Materials:
  - {fileID: 21202819797275496, guid: 6a84f857bec7e7345843ae29404c57ce, type: 2}
  m_StaticBatchInfo:
    firstSubMesh: 0
    subMeshCount: 0
  m_StaticBatchRoot: {fileID: 0}
  m_ProbeAnchor: {fileID: 0}
  m_LightProbeVolumeOverride: {fileID: 0}
  m_ScaleInLightmap: 1
  m_ReceiveGI: 1
  m_PreserveUVs: 0
  m_IgnoreNormalsForChartDetection: 0
  m_ImportantGI: 0
  m_StitchLightmapSeams: 0
  m_SelectedEditorRenderState: 3
  m_MinimumChartSize: 4
  m_AutoUVMaxDistance: 0.5
  m_AutoUVMaxAngle: 89
  m_LightmapParameters: {fileID: 0}
  m_SortingLayerID: 0
  m_SortingLayer: 0
  m_SortingOrder: 0
  m_AdditionalVertexStreams: {fileID: 0}
--- !u!1001 &1992556756
PrefabInstance:
  m_ObjectHideFlags: 0
  serializedVersion: 2
  m_Modification:
    m_TransformParent: {fileID: 172924236}
    m_Modifications:
    - target: {fileID: 221594249052139623, guid: 4f44c0d070528944c9bff425c6932763,
        type: 3}
      propertyPath: m_IsActive
      value: 0
      objectReference: {fileID: 0}
    - target: {fileID: 721660114511089077, guid: 4f44c0d070528944c9bff425c6932763,
        type: 3}
      propertyPath: m_Mesh
      value: 
      objectReference: {fileID: 0}
    - target: {fileID: 3126786008848669196, guid: 4f44c0d070528944c9bff425c6932763,
        type: 3}
      propertyPath: m_Name
      value: PressableButtonHoloLens2_32x96
      objectReference: {fileID: 0}
    - target: {fileID: 3126786009469193090, guid: 4f44c0d070528944c9bff425c6932763,
        type: 3}
      propertyPath: m_Mesh
      value: 
      objectReference: {fileID: 0}
    - target: {fileID: 3126786009469193212, guid: 4f44c0d070528944c9bff425c6932763,
        type: 3}
      propertyPath: m_text
      value: 'Confirmation Dialog

        Large / Far'
      objectReference: {fileID: 0}
    - target: {fileID: 3126786009469193212, guid: 4f44c0d070528944c9bff425c6932763,
        type: 3}
      propertyPath: m_textInfo.lineCount
      value: 0
      objectReference: {fileID: 0}
    - target: {fileID: 3126786009469193212, guid: 4f44c0d070528944c9bff425c6932763,
        type: 3}
      propertyPath: m_textInfo.pageCount
      value: 0
      objectReference: {fileID: 0}
    - target: {fileID: 3126786009469193212, guid: 4f44c0d070528944c9bff425c6932763,
        type: 3}
      propertyPath: m_textInfo.wordCount
      value: 0
      objectReference: {fileID: 0}
    - target: {fileID: 3126786009469193212, guid: 4f44c0d070528944c9bff425c6932763,
        type: 3}
      propertyPath: m_textInfo.spaceCount
      value: 0
      objectReference: {fileID: 0}
    - target: {fileID: 3126786009469193212, guid: 4f44c0d070528944c9bff425c6932763,
        type: 3}
      propertyPath: m_textInfo.characterCount
      value: 0
      objectReference: {fileID: 0}
    - target: {fileID: 3126786009469193212, guid: 4f44c0d070528944c9bff425c6932763,
        type: 3}
      propertyPath: m_firstOverflowCharacterIndex
      value: 20
      objectReference: {fileID: 0}
    - target: {fileID: 3126786010476584173, guid: 4f44c0d070528944c9bff425c6932763,
        type: 3}
      propertyPath: m_RootOrder
      value: 0
      objectReference: {fileID: 0}
    - target: {fileID: 3126786010476584173, guid: 4f44c0d070528944c9bff425c6932763,
        type: 3}
      propertyPath: m_LocalPosition.x
      value: 0.048
      objectReference: {fileID: 0}
    - target: {fileID: 3126786010476584173, guid: 4f44c0d070528944c9bff425c6932763,
        type: 3}
      propertyPath: m_LocalPosition.y
      value: 0.031999998
      objectReference: {fileID: 0}
    - target: {fileID: 3126786010476584173, guid: 4f44c0d070528944c9bff425c6932763,
        type: 3}
      propertyPath: m_LocalPosition.z
      value: 0
      objectReference: {fileID: 0}
    - target: {fileID: 3126786010476584173, guid: 4f44c0d070528944c9bff425c6932763,
        type: 3}
      propertyPath: m_LocalRotation.w
      value: 1
      objectReference: {fileID: 0}
    - target: {fileID: 3126786010476584173, guid: 4f44c0d070528944c9bff425c6932763,
        type: 3}
      propertyPath: m_LocalRotation.x
      value: -0
      objectReference: {fileID: 0}
    - target: {fileID: 3126786010476584173, guid: 4f44c0d070528944c9bff425c6932763,
        type: 3}
      propertyPath: m_LocalRotation.y
      value: -0
      objectReference: {fileID: 0}
    - target: {fileID: 3126786010476584173, guid: 4f44c0d070528944c9bff425c6932763,
        type: 3}
      propertyPath: m_LocalRotation.z
      value: -0
      objectReference: {fileID: 0}
    - target: {fileID: 3126786010476584173, guid: 4f44c0d070528944c9bff425c6932763,
        type: 3}
      propertyPath: m_LocalEulerAnglesHint.x
      value: 0
      objectReference: {fileID: 0}
    - target: {fileID: 3126786010476584173, guid: 4f44c0d070528944c9bff425c6932763,
        type: 3}
      propertyPath: m_LocalEulerAnglesHint.y
      value: 0
      objectReference: {fileID: 0}
    - target: {fileID: 3126786010476584173, guid: 4f44c0d070528944c9bff425c6932763,
        type: 3}
      propertyPath: m_LocalEulerAnglesHint.z
      value: 0
      objectReference: {fileID: 0}
    - target: {fileID: 3456123869903824599, guid: 4f44c0d070528944c9bff425c6932763,
        type: 3}
      propertyPath: m_IsActive
      value: 0
      objectReference: {fileID: 0}
    - target: {fileID: 4707993670919958581, guid: 4f44c0d070528944c9bff425c6932763,
        type: 3}
      propertyPath: iconQuadTexture
      value: 
      objectReference: {fileID: 2800000, guid: 937867e9be7912d4a903cd401ee0a959, type: 3}
    - target: {fileID: 5487525929659315375, guid: 4f44c0d070528944c9bff425c6932763,
        type: 3}
      propertyPath: OnClick.m_PersistentCalls.m_Calls.Array.data[0].m_Target
      value: 
      objectReference: {fileID: 769440711}
    - target: {fileID: 5487525929659315375, guid: 4f44c0d070528944c9bff425c6932763,
        type: 3}
      propertyPath: OnClick.m_PersistentCalls.m_Calls.Array.data[0].m_MethodName
      value: OpenConfirmationDialogLarge
      objectReference: {fileID: 0}
    - target: {fileID: 6055314345997109590, guid: 4f44c0d070528944c9bff425c6932763,
        type: 3}
      propertyPath: m_textInfo.lineCount
      value: 0
      objectReference: {fileID: 0}
    - target: {fileID: 6055314345997109590, guid: 4f44c0d070528944c9bff425c6932763,
        type: 3}
      propertyPath: m_textInfo.pageCount
      value: 0
      objectReference: {fileID: 0}
    - target: {fileID: 6055314345997109590, guid: 4f44c0d070528944c9bff425c6932763,
        type: 3}
      propertyPath: m_textInfo.wordCount
      value: 0
      objectReference: {fileID: 0}
    - target: {fileID: 6055314345997109590, guid: 4f44c0d070528944c9bff425c6932763,
        type: 3}
      propertyPath: m_textInfo.spaceCount
      value: 0
      objectReference: {fileID: 0}
    - target: {fileID: 6055314345997109590, guid: 4f44c0d070528944c9bff425c6932763,
        type: 3}
      propertyPath: m_textInfo.characterCount
      value: 0
      objectReference: {fileID: 0}
    m_RemovedComponents: []
  m_SourcePrefab: {fileID: 100100000, guid: 4f44c0d070528944c9bff425c6932763, type: 3}
--- !u!4 &1992556757 stripped
Transform:
  m_CorrespondingSourceObject: {fileID: 3126786010476584173, guid: 4f44c0d070528944c9bff425c6932763,
    type: 3}
  m_PrefabInstance: {fileID: 1992556756}
  m_PrefabAsset: {fileID: 0}
