%YAML 1.1
%TAG !u! tag:unity3d.com,2011:
--- !u!1 &262866221872483450
GameObject:
  m_ObjectHideFlags: 0
  m_CorrespondingSourceObject: {fileID: 0}
  m_PrefabInstance: {fileID: 0}
  m_PrefabAsset: {fileID: 0}
  serializedVersion: 6
  m_Component:
  - component: {fileID: 4669452101997557680}
  m_Layer: 0
  m_Name: PivotPosition
  m_TagString: Untagged
  m_Icon: {fileID: 0}
  m_NavMeshLayer: 0
  m_StaticEditorFlags: 0
  m_IsActive: 1
--- !u!4 &4669452101997557680
Transform:
  m_ObjectHideFlags: 0
  m_CorrespondingSourceObject: {fileID: 0}
  m_PrefabInstance: {fileID: 0}
  m_PrefabAsset: {fileID: 0}
  m_GameObject: {fileID: 262866221872483450}
  m_LocalRotation: {x: -0, y: -0, z: -0, w: 1}
  m_LocalPosition: {x: -0.2019269, y: -0.15434754, z: -0.016917855}
  m_LocalScale: {x: 1, y: 1, z: 1}
  m_Children: []
  m_Father: {fileID: 3265844208835655128}
  m_RootOrder: 1
  m_LocalEulerAnglesHint: {x: 0, y: 0, z: 0}
--- !u!1 &3265844208835655134
GameObject:
  m_ObjectHideFlags: 0
  m_CorrespondingSourceObject: {fileID: 0}
  m_PrefabInstance: {fileID: 0}
  m_PrefabAsset: {fileID: 0}
  serializedVersion: 6
  m_Component:
  - component: {fileID: 3265844208835655128}
  m_Layer: 0
  m_Name: RotatingHandCoachRoot_L
  m_TagString: Untagged
  m_Icon: {fileID: 0}
  m_NavMeshLayer: 0
  m_StaticEditorFlags: 0
  m_IsActive: 1
--- !u!4 &3265844208835655128
Transform:
  m_ObjectHideFlags: 0
  m_CorrespondingSourceObject: {fileID: 0}
  m_PrefabInstance: {fileID: 0}
  m_PrefabAsset: {fileID: 0}
  m_GameObject: {fileID: 3265844208835655134}
  m_LocalRotation: {x: -0, y: -0, z: -0, w: 1}
  m_LocalPosition: {x: -0.378, y: -0.018, z: -0.068}
  m_LocalScale: {x: 1, y: 1, z: 1}
  m_Children:
  - {fileID: 4497374150134998559}
  - {fileID: 4669452101997557680}
  - {fileID: 6719963172226357586}
  m_Father: {fileID: 0}
  m_RootOrder: 0
  m_LocalEulerAnglesHint: {x: 0, y: 0, z: 0}
--- !u!114 &9028011884654760432
MonoBehaviour:
  m_ObjectHideFlags: 0
  m_CorrespondingSourceObject: {fileID: 0}
  m_PrefabInstance: {fileID: 0}
  m_PrefabAsset: {fileID: 0}
  m_GameObject: {fileID: 7013096618273581403}
  m_Enabled: 1
  m_EditorHideFlags: 0
  m_Script: {fileID: 11500000, guid: 3e61bc6a61690aa43837974b88ea7adb, type: 3}
  m_Name: 
  m_EditorClassIdentifier: 
  centeredParent: {fileID: 3265844208835655128}
  inverseParent: {fileID: 4497374150134998559}
  pivotPosition: {fileID: 4669452101997557680}
  duration: 1.38
  animationCurve:
    serializedVersion: 2
    m_Curve:
    - serializedVersion: 3
      time: 0
      value: 0
      inSlope: 0
      outSlope: 1
      tangentMode: 0
      weightedMode: 0
      inWeight: 0
      outWeight: 0
    - serializedVersion: 3
      time: 1
      value: 1
      inSlope: 1
      outSlope: 0
      tangentMode: 0
      weightedMode: 0
      inWeight: 0
      outWeight: 0
    m_PreInfinity: 2
    m_PostInfinity: 2
    m_RotationOrder: 4
  rotationVector: {x: 0, y: 90, z: 0}
--- !u!1 &8242322901259647596
GameObject:
  m_ObjectHideFlags: 0
  m_CorrespondingSourceObject: {fileID: 0}
  m_PrefabInstance: {fileID: 0}
  m_PrefabAsset: {fileID: 0}
  serializedVersion: 6
  m_Component:
  - component: {fileID: 6719963172226357586}
  - component: {fileID: 6822471667856097014}
  - component: {fileID: 8206146406994434314}
  - component: {fileID: 8614334155694018127}
  m_Layer: 0
  m_Name: VisualCenter (Hide before play)
  m_TagString: Untagged
  m_Icon: {fileID: 0}
  m_NavMeshLayer: 0
  m_StaticEditorFlags: 0
  m_IsActive: 1
--- !u!4 &6719963172226357586
Transform:
  m_ObjectHideFlags: 0
  m_CorrespondingSourceObject: {fileID: 0}
  m_PrefabInstance: {fileID: 0}
  m_PrefabAsset: {fileID: 0}
  m_GameObject: {fileID: 8242322901259647596}
  m_LocalRotation: {x: -0, y: -0, z: -0, w: 1}
  m_LocalPosition: {x: 0, y: 0, z: 0}
  m_LocalScale: {x: 0.01, y: 0.01, z: 0.01}
  m_Children: []
  m_Father: {fileID: 3265844208835655128}
  m_RootOrder: 2
  m_LocalEulerAnglesHint: {x: 0, y: 0, z: 0}
--- !u!33 &6822471667856097014
MeshFilter:
  m_ObjectHideFlags: 0
  m_CorrespondingSourceObject: {fileID: 0}
  m_PrefabInstance: {fileID: 0}
  m_PrefabAsset: {fileID: 0}
  m_GameObject: {fileID: 8242322901259647596}
  m_Mesh: {fileID: 10207, guid: 0000000000000000e000000000000000, type: 0}
--- !u!23 &8206146406994434314
MeshRenderer:
  m_ObjectHideFlags: 0
  m_CorrespondingSourceObject: {fileID: 0}
  m_PrefabInstance: {fileID: 0}
  m_PrefabAsset: {fileID: 0}
  m_GameObject: {fileID: 8242322901259647596}
  m_Enabled: 1
  m_CastShadows: 1
  m_ReceiveShadows: 1
  m_DynamicOccludee: 1
  m_StaticShadowCaster: 0
  m_MotionVectors: 1
  m_LightProbeUsage: 1
  m_ReflectionProbeUsage: 1
  m_RayTracingMode: 2
  m_RayTraceProcedural: 0
  m_RenderingLayerMask: 1
  m_RendererPriority: 0
  m_Materials:
  - {fileID: 10303, guid: 0000000000000000f000000000000000, type: 0}
  m_StaticBatchInfo:
    firstSubMesh: 0
    subMeshCount: 0
  m_StaticBatchRoot: {fileID: 0}
  m_ProbeAnchor: {fileID: 0}
  m_LightProbeVolumeOverride: {fileID: 0}
  m_ScaleInLightmap: 1
  m_ReceiveGI: 1
  m_PreserveUVs: 0
  m_IgnoreNormalsForChartDetection: 0
  m_ImportantGI: 0
  m_StitchLightmapSeams: 0
  m_SelectedEditorRenderState: 3
  m_MinimumChartSize: 4
  m_AutoUVMaxDistance: 0.5
  m_AutoUVMaxAngle: 89
  m_LightmapParameters: {fileID: 0}
  m_SortingLayerID: 0
  m_SortingLayer: 0
  m_SortingOrder: 0
  m_AdditionalVertexStreams: {fileID: 0}
--- !u!135 &8614334155694018127
SphereCollider:
  m_ObjectHideFlags: 0
  m_CorrespondingSourceObject: {fileID: 0}
  m_PrefabInstance: {fileID: 0}
  m_PrefabAsset: {fileID: 0}
  m_GameObject: {fileID: 8242322901259647596}
  m_Material: {fileID: 0}
  m_IsTrigger: 0
  m_Enabled: 1
  serializedVersion: 2
  m_Radius: 0.5
  m_Center: {x: 0, y: 0, z: 0}
--- !u!1001 &760747027784491819
PrefabInstance:
  m_ObjectHideFlags: 0
  serializedVersion: 2
  m_Modification:
    m_TransformParent: {fileID: 3265844208835655128}
    m_Modifications:
    - target: {fileID: 3812110794721936692, guid: 33969ce6b44fe404f9f60e8031eade87,
        type: 3}
      propertyPath: m_RootOrder
      value: 0
      objectReference: {fileID: 0}
    - target: {fileID: 3812110794721936692, guid: 33969ce6b44fe404f9f60e8031eade87,
        type: 3}
      propertyPath: m_LocalPosition.x
      value: -0.171
      objectReference: {fileID: 0}
    - target: {fileID: 3812110794721936692, guid: 33969ce6b44fe404f9f60e8031eade87,
        type: 3}
      propertyPath: m_LocalPosition.y
      value: 0
      objectReference: {fileID: 0}
    - target: {fileID: 3812110794721936692, guid: 33969ce6b44fe404f9f60e8031eade87,
        type: 3}
      propertyPath: m_LocalPosition.z
      value: 0
      objectReference: {fileID: 0}
    - target: {fileID: 3812110794721936692, guid: 33969ce6b44fe404f9f60e8031eade87,
        type: 3}
      propertyPath: m_LocalRotation.w
      value: 1
      objectReference: {fileID: 0}
    - target: {fileID: 3812110794721936692, guid: 33969ce6b44fe404f9f60e8031eade87,
        type: 3}
      propertyPath: m_LocalRotation.x
      value: 0
      objectReference: {fileID: 0}
    - target: {fileID: 3812110794721936692, guid: 33969ce6b44fe404f9f60e8031eade87,
        type: 3}
      propertyPath: m_LocalRotation.y
      value: 0
      objectReference: {fileID: 0}
    - target: {fileID: 3812110794721936692, guid: 33969ce6b44fe404f9f60e8031eade87,
        type: 3}
      propertyPath: m_LocalRotation.z
      value: 0
      objectReference: {fileID: 0}
    - target: {fileID: 3812110794721936692, guid: 33969ce6b44fe404f9f60e8031eade87,
        type: 3}
      propertyPath: m_LocalEulerAnglesHint.x
      value: 0
      objectReference: {fileID: 0}
    - target: {fileID: 3812110794721936692, guid: 33969ce6b44fe404f9f60e8031eade87,
        type: 3}
      propertyPath: m_LocalEulerAnglesHint.y
      value: 0
      objectReference: {fileID: 0}
    - target: {fileID: 3812110794721936692, guid: 33969ce6b44fe404f9f60e8031eade87,
        type: 3}
      propertyPath: m_LocalEulerAnglesHint.z
      value: 0
      objectReference: {fileID: 0}
    - target: {fileID: 6433038356817191116, guid: 33969ce6b44fe404f9f60e8031eade87,
        type: 3}
      propertyPath: m_Name
      value: InteractionHint_L
      objectReference: {fileID: 0}
    - target: {fileID: 6520951085272245290, guid: 33969ce6b44fe404f9f60e8031eade87,
        type: 3}
      propertyPath: AnimationState
      value: Rotate_L
      objectReference: {fileID: 0}
    - target: {fileID: 6520951085272245290, guid: 33969ce6b44fe404f9f60e8031eade87,
        type: 3}
      propertyPath: animationState
      value: Rotate_L
      objectReference: {fileID: 0}
    - target: {fileID: 7772422766622430800, guid: 33969ce6b44fe404f9f60e8031eade87,
        type: 3}
      propertyPath: m_LocalPosition.x
      value: -0.05
      objectReference: {fileID: 0}
    - target: {fileID: 7772422766622430800, guid: 33969ce6b44fe404f9f60e8031eade87,
        type: 3}
      propertyPath: m_LocalPosition.y
      value: -0.14
      objectReference: {fileID: 0}
    - target: {fileID: 7772422766622430800, guid: 33969ce6b44fe404f9f60e8031eade87,
        type: 3}
      propertyPath: m_LocalPosition.z
      value: -0.031
      objectReference: {fileID: 0}
    - target: {fileID: 7772422766622430800, guid: 33969ce6b44fe404f9f60e8031eade87,
        type: 3}
      propertyPath: m_LocalRotation.x
      value: -0
      objectReference: {fileID: 0}
    m_RemovedComponents: []
  m_SourcePrefab: {fileID: 100100000, guid: 33969ce6b44fe404f9f60e8031eade87, type: 3}
--- !u!4 &4497374150134998559 stripped
Transform:
  m_CorrespondingSourceObject: {fileID: 3812110794721936692, guid: 33969ce6b44fe404f9f60e8031eade87,
    type: 3}
  m_PrefabInstance: {fileID: 760747027784491819}
  m_PrefabAsset: {fileID: 0}
--- !u!1 &7013096618273581403 stripped
GameObject:
  m_CorrespondingSourceObject: {fileID: 7772422766622919280, guid: 33969ce6b44fe404f9f60e8031eade87,
    type: 3}
  m_PrefabInstance: {fileID: 760747027784491819}
  m_PrefabAsset: {fileID: 0}
